LgEval Error Summary for: Results_example_file_list/example_file_list.diff
Tue Jan 30 22:48:14 2018

NOTE: This file contains 3 confusion matrices.

I. Node Label Confusion Matrix: 0 unique labels. ABSENT: a node missing in the output or target graph
Output:


II. Edge Label Confusion Matrix (Short): 9 unique relationship labels + * (merge)
Output:,'*','HORIZONTAL','LSUB','LSUP','PUNC','RSUB','RSUP','UNDER','UPPER','_'
'*',,,,,,,,,,
'HORIZONTAL',,,,,6,23,4,3,,389
'LSUB',,,,,,,,,,11
'LSUP',,,,,,,,,1,21
'PUNC',,,,,,,,,,47
'RSUB',,27,,,4,,,,,94
'RSUP',,27,,,,,,,,65
'UNDER',,1,,,2,,,,,79
'UPPER',,2,,,,,1,,,17
'_',,268,1,8,191,32,11,15,6,


III. Edge Label Confusion Matrix (Full): 9 unique labels for relationships and node groupings for specific symbol types
Output:,'HORIZONTAL','LSUB','LSUP','PUNC','RSUB','RSUP','UNDER','UPPER','_'
'HORIZONTAL',,,,6,23,4,3,,389
'LSUB',,,,,,,,,11
'LSUP',,,,,,,,1,21
'PUNC',,,,,,,,,47
'RSUB',27,,,4,,,,,94
'RSUP',27,,,,,,,,65
'UNDER',1,,,2,,,,,79
'UPPER',2,,,,,1,,,17
'_',268,1,8,191,32,11,15,6,
