digraph dag {
	rankdir=LR; ranksep=1.0;
	edge[fontsize=13,weight=1]; node[fontsize=13,shape=box]; graph[ordering=out];

	/* NODES (OBJECTS) */
	Obj0 [label="f\nObj0\n24", color = blue];
	Obj1 [label="zero\nObj1\n25", color = blue];
	Obj10 [label="LeftPar\nObj10\n0", color = blue];
	Obj11 [label="RightPar\nObj11\n3", color = blue];
	Obj12 [label="theta\nObj12\n2", color = blue];
	Obj13 [label="two\nObj13\n5", color = blue];
	Obj14 [label="fractionalLine\nObj14\n4", color = blue];
	Obj15 [label="r\nObj15\n7", color = blue];
	Obj16 [label="f\nObj16\n6", color = blue];
	Obj17 [label="fractionalLine\nObj17\n9", color = blue];
	Obj18 [label="LeftPar\nObj18\n8", color = blue];
	Obj19 [label="two\nObj19\n11", color = blue];
	Obj2 [label="N\nObj2\n26", color = blue];
	Obj20 [label="RightPar\nObj20\n10", color = blue];
	Obj21 [label="int\nObj21\n13", color = blue];
	Obj22 [label="theta\nObj22\n12", color = blue];
	Obj23 [label="d\nObj23\n15", color = blue];
	Obj24 [label="RightPar\nObj24\n14", color = blue];
	Obj25 [label="r\nObj25\n17", color = blue];
	Obj26 [label="s\nObj26\n16", color = blue];
	Obj27 [label="G\nObj27\n19", color = blue];
	Obj28 [label="theta\nObj28\n18", color = blue];
	Obj3 [label="pi\nObj3\n27", color = blue];
	Obj4 [label="comma\nObj4\n20", color = blue];
	Obj5 [label="LeftPar\nObj5\n21", color = blue];
	Obj6 [label="comma\nObj6\n22", color = blue];
	Obj7 [label="comma\nObj7\n23", color = blue];
	Obj8 [label="s\nObj8\n28", color = blue];
	Obj9 [label="N\nObj9\n1", color = blue];
	
	/* EDGES (OBJECT RELATIONSHIPS)    */
	Obj14 -> Obj11 [label="HORIZONTAL\n(_)\n",color=red,fontcolor=red,penwidth=3];
	Obj17 -> Obj14 [label="HORIZONTAL\n(RSUP)\n",color=red,fontcolor=red,penwidth=3];
	Obj8 -> Obj22 [label="HORIZONTAL"];
	Obj0 -> Obj5 [label="HORIZONTAL"];
	Obj26 -> Obj2 [label="RSUP"];
	Obj17 -> Obj6 [label="PUNC"];
	Obj17 -> Obj26 [label="UNDER"];
	Obj12 -> Obj20 [label="HORIZONTAL"];
	Obj10 -> Obj17 [label="HORIZONTAL"];
	Obj27 -> Obj13 [label="RSUP"];
	Obj14 -> Obj16 [label="UPPER"];
	Obj19 -> Obj3 [label="HORIZONTAL"];
	Obj11 -> Obj23 [label="HORIZONTAL"];
	Obj15 -> Obj12 [label="HORIZONTAL"];
	Obj21 -> Obj1 [label="RSUB"];
	Obj14 -> Obj25 [label="UNDER"];
	Obj15 -> Obj4 [label="PUNC"];
	Obj27 -> Obj10 [label="HORIZONTAL"];
	Obj16 -> Obj18 [label="HORIZONTAL"];
	Obj8 -> Obj7 [label="PUNC"];
	Obj17 -> Obj0 [label="UPPER"];
	Obj5 -> Obj8 [label="HORIZONTAL"];
	Obj18 -> Obj15 [label="HORIZONTAL"];
	Obj21 -> Obj19 [label="RSUP"];
	Obj23 -> Obj28 [label="HORIZONTAL"];
	Obj21 -> Obj27 [label="HORIZONTAL"];
	Obj22 -> Obj24 [label="HORIZONTAL"];
	Obj25 -> Obj9 [label="RSUP"];
	
}
