digraph dag {
	rankdir=LR; ranksep=1.0;
	edge[fontsize=13,weight=1]; node[fontsize=13,shape=box]; graph[ordering=out];

	/* NODES (OBJECTS) */
	Obj0 [label="LeftPar\nObj0\n24", color = blue];
	Obj1 [label="f\nObj1\n25", color = blue];
	Obj10 [label="r\nObj10\n3", color = blue];
	Obj11 [label="F\nObj11\n2", color = blue];
	Obj12 [label="r\nObj12\n5", color = blue];
	Obj13 [label="sum\nObj13\n4", color = blue];
	Obj14 [label="i\nObj14\n7 8", color = blue];
	Obj15 [label="K\nObj15\n6", color = blue];
	Obj16 [label="theta\nObj16\n9", color = blue];
	Obj17 [label="LeftPar\nObj17\n11", color = blue];
	Obj18 [label="f\nObj18\n10", color = blue];
	Obj19 [label="RightPar\nObj19\n13", color = blue];
	Obj2 [label="theta\nObj2\n26", color = blue];
	Obj20 [label="zero\nObj20\n12", color = blue];
	Obj21 [label="equal\nObj21\n14 15", color = blue];
	Obj22 [label="f\nObj22\n17", color = blue];
	Obj23 [label="RightPar\nObj23\n16", color = blue];
	Obj24 [label="f\nObj24\n19", color = blue];
	Obj25 [label="circ\nObj25\n32", color = blue];
	Obj26 [label="i\nObj26\n30 31", color = blue];
	Obj27 [label="RightPar\nObj27\n33", color = blue];
	Obj28 [label="zero\nObj28\n18", color = blue];
	Obj3 [label="equal\nObj3\n27 28", color = blue];
	Obj4 [label="F\nObj4\n20", color = blue];
	Obj5 [label="LeftPar\nObj5\n21", color = blue];
	Obj6 [label="i\nObj6\n22 23", color = blue];
	Obj7 [label="circ\nObj7\n29", color = blue];
	Obj8 [label="comma\nObj8\n1", color = blue];
	Obj9 [label="one\nObj9\n0", color = blue];
	
	/* EDGES (OBJECT RELATIONSHIPS)    */
	Obj1 -> Obj0 [label="LSUP\n(_)\n",color=red,fontcolor=red,penwidth=3];
	Obj24 -> Obj8 [label="PUNC"];
	Obj25 -> Obj4 [label="HORIZONTAL"];
	Obj22 -> Obj28 [label="RSUB"];
	Obj13 -> Obj15 [label="UPPER"];
	Obj23 -> Obj17 [label="HORIZONTAL"];
	Obj24 -> Obj10 [label="RSUB"];
	Obj22 -> Obj25 [label="HORIZONTAL"];
	Obj18 -> Obj20 [label="RSUB"];
	Obj4 -> Obj6 [label="RSUB"];
	Obj1 -> Obj27 [label="HORIZONTAL"];
	Obj7 -> Obj11 [label="HORIZONTAL"];
	Obj18 -> Obj7 [label="HORIZONTAL"];
	Obj27 -> Obj21 [label="HORIZONTAL"];
	Obj21 -> Obj13 [label="HORIZONTAL"];
	Obj3 -> Obj9 [label="HORIZONTAL"];
	Obj19 -> Obj2 [label="RSUB"];
	Obj1 -> Obj16 [label="RSUB"];
	Obj13 -> Obj26 [label="UNDER"];
	Obj11 -> Obj14 [label="RSUB"];
	Obj11 -> Obj19 [label="HORIZONTAL"];
	Obj0 -> Obj24 [label="HORIZONTAL"];
	Obj17 -> Obj18 [label="HORIZONTAL"];
	Obj26 -> Obj3 [label="HORIZONTAL"];
	Obj13 -> Obj5 [label="HORIZONTAL"];
	Obj5 -> Obj22 [label="HORIZONTAL"];
	Obj23 -> Obj12 [label="RSUB"];
	Obj4 -> Obj23 [label="HORIZONTAL"];
	
}
