digraph dag {
	rankdir=LR; ranksep=1.0;
	edge[fontsize=13,weight=1]; node[fontsize=13,shape=box]; graph[ordering=out];

	/* NODES (OBJECTS) */
	Obj0 [label="E\nObj0\n1", color = blue];
	Obj1 [label="one\nObj1\n0", color = blue];
	Obj2 [label="one\nObj2\n2", color = blue];
	
	/* EDGES (OBJECT RELATIONSHIPS)    */
	Obj2 -> Obj0 [label="LSUP\n(_)\n",color=red,fontcolor=red,penwidth=3];
	Obj1 -> Obj2 [label="HORIZONTAL"];
	
}
