digraph dag {
	rankdir=LR; ranksep=1.0;
	edge[fontsize=13,weight=1]; node[fontsize=13,shape=box]; graph[ordering=out];

	/* NODES (OBJECTS) */
	Obj0 [label="two\nObj0\n24", color = blue];
	Obj1 [label="LeftPar\nObj1\n25", color = blue];
	Obj10 [label="g\nObj10\n1", color = blue];
	Obj11 [label="G\nObj11\n0", color = blue];
	Obj12 [label="s\nObj12\n3", color = blue];
	Obj13 [label="r\nObj13\n2", color = blue];
	Obj14 [label="RightPar\nObj14\n5", color = blue];
	Obj15 [label="sqrt\nObj15\n4", color = blue];
	Obj16 [label="LeftPar\nObj16\n7", color = blue];
	Obj17 [label="one\nObj17\n6", color = blue];
	Obj18 [label="int\nObj18\n9", color = blue];
	Obj19 [label="theta\nObj19\n8", color = blue];
	Obj2 [label="N\nObj2\n26", color = blue];
	Obj20 [label="two\nObj20\n11", color = blue];
	Obj21 [label="f\nObj21\n10", color = blue];
	Obj22 [label="r\nObj22\n13", color = blue];
	Obj23 [label="d\nObj23\n12", color = blue];
	Obj24 [label="theta\nObj24\n15", color = blue];
	Obj25 [label="d\nObj25\n14", color = blue];
	Obj26 [label="theta\nObj26\n17", color = blue];
	Obj27 [label="LeftPar\nObj27\n16", color = blue];
	Obj28 [label="B\nObj28\n19", color = blue];
	Obj29 [label="LeftPar\nObj29\n18", color = blue];
	Obj3 [label="RightPar\nObj3\n27", color = blue];
	Obj30 [label="comma\nObj30\n31", color = blue];
	Obj31 [label="RightPar\nObj31\n30", color = blue];
	Obj32 [label="s\nObj32\n33", color = blue];
	Obj33 [label="s\nObj33\n32", color = blue];
	Obj4 [label="comma\nObj4\n20", color = blue];
	Obj5 [label="pi\nObj5\n21", color = blue];
	Obj6 [label="plus\nObj6\n22", color = blue];
	Obj7 [label="RightPar\nObj7\n23", color = blue];
	Obj8 [label="slash\nObj8\n28", color = blue];
	Obj9 [label="s\nObj9\n29", color = blue];
	
	/* EDGES (OBJECT RELATIONSHIPS)    */
	Obj22 -> Obj1 [label="HORIZONTAL\n(_)\n",color=red,fontcolor=red,penwidth=3];
	Obj19 -> Obj31 [label="HORIZONTAL"];
	Obj29 -> Obj24 [label="HORIZONTAL"];
	Obj25 -> Obj26 [label="HORIZONTAL"];
	Obj8 -> Obj20 [label="HORIZONTAL"];
	Obj1 -> Obj18 [label="HORIZONTAL"];
	Obj27 -> Obj32 [label="HORIZONTAL"];
	Obj33 -> Obj2 [label="RSUP"];
	Obj6 -> Obj15 [label="HORIZONTAL"];
	Obj3 -> Obj12 [label="HORIZONTAL"];
	Obj28 -> Obj13 [label="RSUB"];
	Obj11 -> Obj16 [label="HORIZONTAL"];
	Obj15 -> Obj5 [label="UNDER"];
	Obj18 -> Obj11 [label="HORIZONTAL"];
	Obj9 -> Obj25 [label="HORIZONTAL"];
	Obj10 -> Obj29 [label="HORIZONTAL"];
	Obj31 -> Obj33 [label="HORIZONTAL"];
	Obj18 -> Obj28 [label="RSUB"];
	Obj24 -> Obj7 [label="HORIZONTAL"];
	Obj14 -> Obj17 [label="RSUP"];
	Obj17 -> Obj8 [label="HORIZONTAL"];
	Obj23 -> Obj9 [label="HORIZONTAL"];
	Obj7 -> Obj3 [label="HORIZONTAL"];
	Obj33 -> Obj10 [label="HORIZONTAL"];
	Obj11 -> Obj0 [label="RSUP"];
	Obj16 -> Obj21 [label="HORIZONTAL"];
	Obj26 -> Obj14 [label="HORIZONTAL"];
	Obj32 -> Obj19 [label="HORIZONTAL"];
	Obj32 -> Obj30 [label="PUNC"];
	Obj12 -> Obj23 [label="HORIZONTAL"];
	Obj21 -> Obj27 [label="HORIZONTAL"];
	Obj5 -> Obj22 [label="HORIZONTAL"];
	Obj31 -> Obj4 [label="PUNC"];
	
}
