digraph dag {
	rankdir=LR; ranksep=1.0;
	edge[fontsize=13,weight=1]; node[fontsize=13,shape=box]; graph[ordering=out];

	/* NODES (OBJECTS) */
	Obj0 [label="BigRightPar\nObj0\n42 43", color = blue];
	Obj1 [label="minus\nObj1\n29", color = blue];
	Obj10 [label="R\nObj10\n44", color = blue];
	Obj11 [label="zero\nObj11\n45", color = blue];
	Obj12 [label="epsilon\nObj12\n40", color = blue];
	Obj13 [label="minus\nObj13\n41", color = blue];
	Obj14 [label="t\nObj14\n1", color = blue];
	Obj15 [label="comma\nObj15\n0", color = blue];
	Obj16 [label="minus\nObj16\n3", color = blue];
	Obj17 [label="BigRightPar\nObj17\n2", color = blue];
	Obj18 [label="comma\nObj18\n5", color = blue];
	Obj19 [label="cap\nObj19\n4", color = blue];
	Obj2 [label="RightPar\nObj2\n24", color = blue];
	Obj20 [label="t\nObj20\n7", color = blue];
	Obj21 [label="BigLeftPar\nObj21\n6", color = blue];
	Obj22 [label="one\nObj22\n9", color = blue];
	Obj23 [label="minus\nObj23\n8", color = blue];
	Obj24 [label="overline\nObj24\n13", color = blue];
	Obj25 [label="overline\nObj25\n12", color = blue];
	Obj26 [label="epsilon\nObj26\n11", color = blue];
	Obj27 [label="RightPar\nObj27\n10", color = blue];
	Obj28 [label="LeftPar\nObj28\n39", color = blue];
	Obj29 [label="overline\nObj29\n38", color = blue];
	Obj3 [label="overline\nObj3\n25", color = blue];
	Obj30 [label="equal\nObj30\n14 15", color = blue];
	Obj31 [label="varphi\nObj31\n17", color = blue];
	Obj32 [label="one\nObj32\n16", color = blue];
	Obj33 [label="f\nObj33\n33", color = blue];
	Obj34 [label="comma\nObj34\n18", color = blue];
	Obj35 [label="equal\nObj35\n31 32", color = blue];
	Obj36 [label="varphi\nObj36\n30", color = blue];
	Obj37 [label="t\nObj37\n37", color = blue];
	Obj38 [label="LeftPar\nObj38\n36", color = blue];
	Obj39 [label="LeftPar\nObj39\n35", color = blue];
	Obj4 [label="x\nObj4\n26 27 28", color = blue];
	Obj40 [label="t\nObj40\n34", color = blue];
	Obj5 [label="x\nObj5\n19 20", color = blue];
	Obj6 [label="comma\nObj6\n21 22", color = blue];
	Obj7 [label="RightPar\nObj7\n23", color = blue];
	Obj8 [label="varphi\nObj8\n46", color = blue];
	Obj9 [label="BigLeftPar\nObj9\n47", color = blue];
	
	/* EDGES (OBJECT RELATIONSHIPS)    */
	Obj32 -> Obj6 [label="HORIZONTAL\n(_)\n",color=red,fontcolor=red,penwidth=3];
	Obj37 -> Obj0 [label="HORIZONTAL"];
	Obj26 -> Obj33 [label="HORIZONTAL"];
	Obj21 -> Obj11 [label="HORIZONTAL"];
	Obj11 -> Obj18 [label="PUNC"];
	Obj9 -> Obj40 [label="HORIZONTAL"];
	Obj27 -> Obj7 [label="HORIZONTAL"];
	Obj35 -> Obj36 [label="HORIZONTAL"];
	Obj1 -> Obj26 [label="HORIZONTAL"];
	Obj36 -> Obj9 [label="HORIZONTAL"];
	Obj20 -> Obj17 [label="HORIZONTAL"];
	Obj40 -> Obj37 [label="HORIZONTAL"];
	Obj26 -> Obj32 [label="RSUB"];
	Obj39 -> Obj5 [label="HORIZONTAL"];
	Obj8 -> Obj28 [label="HORIZONTAL"];
	Obj12 -> Obj27 [label="HORIZONTAL"];
	Obj20 -> Obj24 [label="UPPER"];
	Obj37 -> Obj29 [label="UPPER"];
	Obj28 -> Obj14 [label="HORIZONTAL"];
	Obj38 -> Obj4 [label="HORIZONTAL"];
	Obj4 -> Obj3 [label="UPPER"];
	Obj30 -> Obj39 [label="HORIZONTAL"];
	Obj40 -> Obj34 [label="PUNC"];
	Obj19 -> Obj10 [label="HORIZONTAL"];
	Obj17 -> Obj19 [label="HORIZONTAL"];
	Obj14 -> Obj2 [label="HORIZONTAL"];
	Obj12 -> Obj22 [label="RSUB"];
	Obj11 -> Obj20 [label="HORIZONTAL"];
	Obj40 -> Obj16 [label="RSUB"];
	Obj5 -> Obj1 [label="HORIZONTAL"];
	Obj13 -> Obj12 [label="HORIZONTAL"];
	Obj7 -> Obj31 [label="HORIZONTAL"];
	Obj5 -> Obj25 [label="UPPER"];
	Obj7 -> Obj15 [label="PUNC"];
	Obj33 -> Obj38 [label="HORIZONTAL"];
	Obj4 -> Obj13 [label="HORIZONTAL"];
	Obj14 -> Obj23 [label="RSUB"];
	Obj10 -> Obj35 [label="HORIZONTAL"];
	Obj2 -> Obj30 [label="HORIZONTAL"];
	Obj31 -> Obj21 [label="HORIZONTAL"];
	
}
