digraph dag {
	rankdir=LR; ranksep=1.0;
	edge[fontsize=13,weight=1]; node[fontsize=13,shape=box]; graph[ordering=out];

	/* NODES (OBJECTS) */
	Obj0 [label="fractionalLine\nObj0\n58", color = blue];
	Obj1 [label="one\nObj1\n30", color = blue];
	Obj10 [label="psi\nObj10\n24", color = blue];
	Obj11 [label="M\nObj11\n25", color = blue];
	Obj12 [label="m\nObj12\n26", color = blue];
	Obj13 [label="plus\nObj13\n27", color = blue];
	Obj14 [label="one\nObj14\n20", color = blue];
	Obj15 [label="M\nObj15\n21", color = blue];
	Obj16 [label="LeftPar\nObj16\n48", color = blue];
	Obj17 [label="m\nObj17\n23", color = blue];
	Obj18 [label="i\nObj18\n46 47", color = blue];
	Obj19 [label="minus\nObj19\n44", color = blue];
	Obj2 [label="LeftPar\nObj2\n54", color = blue];
	Obj20 [label="minus\nObj20\n45", color = blue];
	Obj21 [label="p\nObj21\n42", color = blue];
	Obj22 [label="fractionalLine\nObj22\n29", color = blue];
	Obj23 [label="i\nObj23\n40 41", color = blue];
	Obj24 [label="C\nObj24\n1", color = blue];
	Obj25 [label="d\nObj25\n0", color = blue];
	Obj26 [label="p\nObj26\n3", color = blue];
	Obj27 [label="d\nObj27\n2", color = blue];
	Obj28 [label="int\nObj28\n5", color = blue];
	Obj29 [label="int\nObj29\n4", color = blue];
	Obj3 [label="C\nObj3\n28", color = blue];
	Obj30 [label="i\nObj30\n6 7", color = blue];
	Obj31 [label="RightPar\nObj31\n9", color = blue];
	Obj32 [label="d\nObj32\n8", color = blue];
	Obj33 [label="RightPar\nObj33\n35", color = blue];
	Obj34 [label="p\nObj34\n13", color = blue];
	Obj35 [label="p\nObj35\n38", color = blue];
	Obj36 [label="m\nObj36\n59", color = blue];
	Obj37 [label="LeftPar\nObj37\n14", color = blue];
	Obj38 [label="M\nObj38\n11", color = blue];
	Obj39 [label="psi\nObj39\n10", color = blue];
	Obj4 [label="one\nObj4\n43", color = blue];
	Obj40 [label="plus\nObj40\n39", color = blue];
	Obj41 [label="plus\nObj41\n12", color = blue];
	Obj42 [label="one\nObj42\n15", color = blue];
	Obj43 [label="two\nObj43\n22", color = blue];
	Obj44 [label="V\nObj44\n17", color = blue];
	Obj45 [label="four\nObj45\n16", color = blue];
	Obj46 [label="leqq\nObj46\n31 32 33", color = blue];
	Obj47 [label="two\nObj47\n18", color = blue];
	Obj48 [label="t\nObj48\n56", color = blue];
	Obj49 [label="p\nObj49\n51", color = blue];
	Obj5 [label="one\nObj5\n60", color = blue];
	Obj50 [label="int\nObj50\n36", color = blue];
	Obj51 [label="fractionalLine\nObj51\n53", color = blue];
	Obj52 [label="t\nObj52\n52", color = blue];
	Obj53 [label="V\nObj53\n19", color = blue];
	Obj54 [label="one\nObj54\n55", color = blue];
	Obj55 [label="RightPar\nObj55\n37", color = blue];
	Obj56 [label="m\nObj56\n57", color = blue];
	Obj57 [label="psi\nObj57\n50", color = blue];
	Obj6 [label="V\nObj6\n61", color = blue];
	Obj7 [label="m\nObj7\n62", color = blue];
	Obj8 [label="plus\nObj8\n49", color = blue];
	Obj9 [label="t\nObj9\n34", color = blue];
	
	/* EDGES (OBJECT RELATIONSHIPS)    */
	Obj54 -> Obj32 [label="HORIZONTAL\n(_)\n",color=red,fontcolor=red,penwidth=3];
	Obj7 -> Obj46 [label="HORIZONTAL\n(_)\n",color=red,fontcolor=red,penwidth=3];
	Obj49 -> Obj27 [label="HORIZONTAL\n(_)\n",color=red,fontcolor=red,penwidth=3];
	Obj41 -> Obj24 [label="HORIZONTAL"];
	Obj9 -> Obj23 [label="RSUB"];
	Obj22 -> Obj17 [label="UPPER"];
	Obj53 -> Obj52 [label="RSUB"];
	Obj51 -> Obj45 [label="UNDER"];
	Obj10 -> Obj16 [label="RSUP"];
	Obj31 -> Obj0 [label="HORIZONTAL"];
	Obj51 -> Obj28 [label="HORIZONTAL"];
	Obj40 -> Obj4 [label="HORIZONTAL"];
	Obj45 -> Obj35 [label="HORIZONTAL"];
	Obj3 -> Obj2 [label="HORIZONTAL"];
	Obj53 -> Obj33 [label="HORIZONTAL"];
	Obj56 -> Obj37 [label="HORIZONTAL"];
	Obj33 -> Obj22 [label="RSUP"];
	Obj44 -> Obj48 [label="RSUB"];
	Obj0 -> Obj36 [label="UPPER"];
	Obj12 -> Obj20 [label="HORIZONTAL"];
	Obj22 -> Obj7 [label="UNDER"];
	Obj24 -> Obj50 [label="HORIZONTAL"];
	Obj52 -> Obj18 [label="RSUB"];
	Obj13 -> Obj14 [label="HORIZONTAL"];
	Obj25 -> Obj44 [label="HORIZONTAL"];
	Obj6 -> Obj41 [label="HORIZONTAL"];
	Obj3 -> Obj1 [label="RSUB"];
	Obj21 -> Obj8 [label="HORIZONTAL"];
	Obj46 -> Obj51 [label="HORIZONTAL"];
	Obj32 -> Obj53 [label="HORIZONTAL"];
	Obj6 -> Obj9 [label="RSUB"];
	Obj37 -> Obj21 [label="HORIZONTAL"];
	Obj16 -> Obj26 [label="HORIZONTAL"];
	Obj0 -> Obj12 [label="UNDER"];
	Obj26 -> Obj40 [label="HORIZONTAL"];
	Obj17 -> Obj19 [label="HORIZONTAL"];
	Obj51 -> Obj56 [label="UPPER"];
	Obj28 -> Obj15 [label="UNDER"];
	Obj39 -> Obj49 [label="RSUP"];
	Obj34 -> Obj13 [label="HORIZONTAL"];
	Obj50 -> Obj57 [label="HORIZONTAL"];
	Obj29 -> Obj10 [label="HORIZONTAL"];
	Obj55 -> Obj47 [label="RSUP"];
	Obj28 -> Obj39 [label="HORIZONTAL"];
	Obj57 -> Obj34 [label="RSUP"];
	Obj8 -> Obj42 [label="HORIZONTAL"];
	Obj29 -> Obj38 [label="UNDER"];
	Obj4 -> Obj31 [label="HORIZONTAL"];
	Obj48 -> Obj30 [label="RSUB"];
	Obj57 -> Obj25 [label="HORIZONTAL"];
	Obj19 -> Obj5 [label="HORIZONTAL"];
	Obj27 -> Obj6 [label="HORIZONTAL"];
	Obj20 -> Obj54 [label="HORIZONTAL"];
	Obj2 -> Obj29 [label="HORIZONTAL"];
	Obj24 -> Obj43 [label="RSUB"];
	Obj42 -> Obj55 [label="HORIZONTAL"];
	Obj50 -> Obj11 [label="UNDER"];
	
}
