digraph dag {
	rankdir=LR; ranksep=1.0;
	edge[fontsize=13,weight=1]; node[fontsize=13,shape=box]; graph[ordering=out];

	/* NODES (OBJECTS) */
	Obj0 [label="p\nObj0\n11", color = blue];
	Obj1 [label="t\nObj1\n10", color = blue];
	Obj10 [label="prime\nObj10\n5", color = blue];
	Obj11 [label="q\nObj11\n6 7", color = blue];
	Obj12 [label="A\nObj12\n9", color = blue];
	Obj13 [label="q\nObj13\n8", color = blue];
	Obj2 [label="prime\nObj2\n13", color = blue];
	Obj3 [label="t\nObj3\n12", color = blue];
	Obj4 [label="LeftPar\nObj4\n15", color = blue];
	Obj5 [label="LeftPar\nObj5\n14", color = blue];
	Obj6 [label="A\nObj6\n1", color = blue];
	Obj7 [label="RightPar\nObj7\n0", color = blue];
	Obj8 [label="equal\nObj8\n3 4", color = blue];
	Obj9 [label="RightPar\nObj9\n2", color = blue];
	
	/* EDGES (OBJECT RELATIONSHIPS)    */
	Obj2 -> Obj7 [label="HORIZONTAL\n(_)\n",color=red,fontcolor=red,penwidth=3];
	Obj7 -> Obj8 [label="HORIZONTAL"];
	Obj0 -> Obj2 [label="RSUP"];
	Obj6 -> Obj0 [label="RSUB"];
	Obj5 -> Obj6 [label="HORIZONTAL"];
	Obj6 -> Obj10 [label="RSUP"];
	Obj1 -> Obj4 [label="HORIZONTAL"];
	Obj4 -> Obj12 [label="HORIZONTAL"];
	Obj12 -> Obj9 [label="HORIZONTAL"];
	Obj13 -> Obj3 [label="HORIZONTAL"];
	Obj8 -> Obj11 [label="HORIZONTAL"];
	Obj11 -> Obj1 [label="HORIZONTAL"];
	Obj3 -> Obj5 [label="HORIZONTAL"];
	
}
