digraph dag {
	rankdir=LR; ranksep=1.0;
	edge[fontsize=13,weight=1]; node[fontsize=13,shape=box]; graph[ordering=out];

	/* NODES (OBJECTS) */
	Obj0 [label="one\nObj0\n11", color = blue];
	Obj1 [label="B\nObj1\n10", color = blue];
	Obj2 [label="BigLeftPar\nObj2\n1", color = blue];
	Obj3 [label="k\nObj3\n0", color = blue];
	Obj4 [label="x\nObj4\n3 4", color = blue];
	Obj5 [label="y\nObj5\n2", color = blue];
	Obj6 [label="equal\nObj6\n5 6", color = blue];
	Obj7 [label="one\nObj7\n7", color = blue];
	Obj8 [label="comma\nObj8\n9", color = blue];
	Obj9 [label="BigRightPar\nObj9\n8", color = blue];
	
	/* EDGES (OBJECT RELATIONSHIPS)    */
	Obj7 -> Obj8 [label="HORIZONTAL\n(_)\n",color=red,fontcolor=red,penwidth=3];
	Obj5 -> Obj9 [label="HORIZONTAL"];
	Obj4 -> Obj7 [label="RSUB"];
	Obj4 -> Obj5 [label="HORIZONTAL"];
	Obj1 -> Obj6 [label="HORIZONTAL"];
	Obj3 -> Obj2 [label="HORIZONTAL"];
	Obj5 -> Obj0 [label="RSUB"];
	Obj6 -> Obj3 [label="HORIZONTAL"];
	Obj2 -> Obj4 [label="HORIZONTAL"];
	
}
