digraph dag {
	rankdir=LR; ranksep=1.0;
	edge[fontsize=13,weight=1]; node[fontsize=13,shape=box]; graph[ordering=out];

	/* NODES (OBJECTS) */
	Obj0 [label="zero\nObj0\n58", color = blue];
	Obj1 [label="int\nObj1\n56", color = blue];
	Obj10 [label="psi\nObj10\n66", color = blue];
	Obj11 [label="LeftPar\nObj11\n67", color = blue];
	Obj12 [label="one\nObj12\n68", color = blue];
	Obj13 [label="fractionalLine\nObj13\n69", color = blue];
	Obj14 [label="leqq\nObj14\n33 34 35", color = blue];
	Obj15 [label="one\nObj15\n53", color = blue];
	Obj16 [label="one\nObj16\n24", color = blue];
	Obj17 [label="t\nObj17\n25", color = blue];
	Obj18 [label="l\nObj18\n26", color = blue];
	Obj19 [label="plus\nObj19\n27", color = blue];
	Obj2 [label="i\nObj2\n42 43", color = blue];
	Obj20 [label="plus\nObj20\n20", color = blue];
	Obj21 [label="int\nObj21\n21", color = blue];
	Obj22 [label="fractionalLine\nObj22\n22", color = blue];
	Obj23 [label="p\nObj23\n23", color = blue];
	Obj24 [label="one\nObj24\n46", color = blue];
	Obj25 [label="psi\nObj25\n47", color = blue];
	Obj26 [label="i\nObj26\n44", color = blue];
	Obj27 [label="RightPar\nObj27\n45", color = blue];
	Obj28 [label="one\nObj28\n28", color = blue];
	Obj29 [label="plus\nObj29\n40", color = blue];
	Obj3 [label="zero\nObj3\n29", color = blue];
	Obj30 [label="V\nObj30\n41", color = blue];
	Obj31 [label="one\nObj31\n1", color = blue];
	Obj32 [label="m\nObj32\n0", color = blue];
	Obj33 [label="minus\nObj33\n3", color = blue];
	Obj34 [label="p\nObj34\n2", color = blue];
	Obj35 [label="plus\nObj35\n5", color = blue];
	Obj36 [label="psi\nObj36\n4", color = blue];
	Obj37 [label="V\nObj37\n7", color = blue];
	Obj38 [label="zero\nObj38\n6", color = blue];
	Obj39 [label="d\nObj39\n9", color = blue];
	Obj4 [label="fractionalLine\nObj4\n60", color = blue];
	Obj40 [label="zero\nObj40\n8", color = blue];
	Obj41 [label="two\nObj41\n18", color = blue];
	Obj42 [label="V\nObj42\n51", color = blue];
	Obj43 [label="one\nObj43\n13", color = blue];
	Obj44 [label="C\nObj44\n65", color = blue];
	Obj45 [label="one\nObj45\n76", color = blue];
	Obj46 [label="p\nObj46\n75", color = blue];
	Obj47 [label="minus\nObj47\n74", color = blue];
	Obj48 [label="one\nObj48\n73", color = blue];
	Obj49 [label="C\nObj49\n72", color = blue];
	Obj5 [label="C\nObj5\n61", color = blue];
	Obj50 [label="p\nObj50\n71", color = blue];
	Obj51 [label="minus\nObj51\n70", color = blue];
	Obj52 [label="minus\nObj52\n15", color = blue];
	Obj53 [label="zero\nObj53\n14", color = blue];
	Obj54 [label="l\nObj54\n11", color = blue];
	Obj55 [label="one\nObj55\n10", color = blue];
	Obj56 [label="p\nObj56\n39", color = blue];
	Obj57 [label="M\nObj57\n38", color = blue];
	Obj58 [label="one\nObj58\n59", color = blue];
	Obj59 [label="l\nObj59\n48", color = blue];
	Obj6 [label="i\nObj6\n62", color = blue];
	Obj60 [label="plus\nObj60\n17", color = blue];
	Obj61 [label="l\nObj61\n16", color = blue];
	Obj62 [label="t\nObj62\n19", color = blue];
	Obj63 [label="fractionalLine\nObj63\n54", color = blue];
	Obj64 [label="RightPar\nObj64\n57", color = blue];
	Obj65 [label="d\nObj65\n30", color = blue];
	Obj66 [label="p\nObj66\n37", color = blue];
	Obj67 [label="one\nObj67\n36", color = blue];
	Obj68 [label="l\nObj68\n52", color = blue];
	Obj69 [label="zero\nObj69\n55", color = blue];
	Obj7 [label="t\nObj7\n63", color = blue];
	Obj70 [label="M\nObj70\n31", color = blue];
	Obj71 [label="M\nObj71\n32", color = blue];
	Obj72 [label="LeftPar\nObj72\n12", color = blue];
	Obj73 [label="l\nObj73\n50", color = blue];
	Obj8 [label="d\nObj8\n64", color = blue];
	Obj9 [label="int\nObj9\n49", color = blue];
	
	/* EDGES (OBJECT RELATIONSHIPS)    */
	Obj48 -> Obj19 [label="HORIZONTAL\n(_)\n",color=red,fontcolor=red,penwidth=3];
	Obj38 -> Obj14 [label="HORIZONTAL\n(_)\n",color=red,fontcolor=red,penwidth=3];
	Obj24 -> Obj65 [label="HORIZONTAL\n(_)\n",color=red,fontcolor=red,penwidth=3];
	Obj3 -> Obj33 [label="HORIZONTAL\n(_)\n",color=red,fontcolor=red,penwidth=3];
	Obj28 -> Obj60 [label="HORIZONTAL\n(_)\n",color=red,fontcolor=red,penwidth=3];
	Obj47 -> Obj28 [label="HORIZONTAL"];
	Obj36 -> Obj34 [label="RSUP"];
	Obj35 -> Obj63 [label="HORIZONTAL"];
	Obj68 -> Obj3 [label="RSUB"];
	Obj72 -> Obj1 [label="HORIZONTAL"];
	Obj11 -> Obj13 [label="HORIZONTAL"];
	Obj54 -> Obj51 [label="HORIZONTAL"];
	Obj42 -> Obj17 [label="RSUB"];
	Obj37 -> Obj7 [label="RSUB"];
	Obj42 -> Obj27 [label="HORIZONTAL"];
	Obj44 -> Obj31 [label="RSUB"];
	Obj63 -> Obj21 [label="HORIZONTAL"];
	Obj49 -> Obj41 [label="RSUB"];
	Obj50 -> Obj73 [label="RSUB"];
	Obj39 -> Obj42 [label="HORIZONTAL"];
	Obj33 -> Obj16 [label="HORIZONTAL"];
	Obj34 -> Obj54 [label="RSUB"];
	Obj17 -> Obj26 [label="RSUB"];
	Obj9 -> Obj10 [label="HORIZONTAL"];
	Obj65 -> Obj37 [label="HORIZONTAL"];
	Obj10 -> Obj23 [label="RSUP"];
	Obj59 -> Obj47 [label="HORIZONTAL"];
	Obj63 -> Obj44 [label="UNDER"];
	Obj22 -> Obj50 [label="UNDER"];
	Obj36 -> Obj39 [label="HORIZONTAL"];
	Obj1 -> Obj57 [label="UNDER"];
	Obj4 -> Obj45 [label="UPPER"];
	Obj61 -> Obj40 [label="RSUB"];
	Obj54 -> Obj69 [label="RSUB"];
	Obj30 -> Obj62 [label="RSUB"];
	Obj27 -> Obj4 [label="RSUP"];
	Obj4 -> Obj66 [label="UNDER"];
	Obj73 -> Obj38 [label="RSUB"];
	Obj18 -> Obj52 [label="HORIZONTAL"];
	Obj59 -> Obj0 [label="RSUB"];
	Obj8 -> Obj30 [label="HORIZONTAL"];
	Obj22 -> Obj67 [label="UPPER"];
	Obj66 -> Obj59 [label="RSUB"];
	Obj52 -> Obj24 [label="HORIZONTAL"];
	Obj63 -> Obj49 [label="UPPER"];
	Obj60 -> Obj12 [label="HORIZONTAL"];
	Obj5 -> Obj55 [label="RSUB"];
	Obj25 -> Obj56 [label="RSUP"];
	Obj13 -> Obj9 [label="HORIZONTAL"];
	Obj18 -> Obj53 [label="RSUB"];
	Obj9 -> Obj71 [label="UNDER"];
	Obj56 -> Obj20 [label="HORIZONTAL"];
	Obj23 -> Obj18 [label="RSUB"];
	Obj25 -> Obj8 [label="HORIZONTAL"];
	Obj7 -> Obj6 [label="RSUB"];
	Obj32 -> Obj46 [label="HORIZONTAL"];
	Obj50 -> Obj29 [label="HORIZONTAL"];
	Obj62 -> Obj2 [label="RSUB"];
	Obj64 -> Obj22 [label="RSUP"];
	Obj56 -> Obj61 [label="RSUB"];
	Obj30 -> Obj64 [label="HORIZONTAL"];
	Obj51 -> Obj48 [label="HORIZONTAL"];
	Obj29 -> Obj15 [label="HORIZONTAL"];
	Obj21 -> Obj36 [label="HORIZONTAL"];
	Obj13 -> Obj32 [label="UPPER"];
	Obj21 -> Obj70 [label="UNDER"];
	Obj1 -> Obj25 [label="HORIZONTAL"];
	Obj13 -> Obj5 [label="UNDER"];
	Obj14 -> Obj11 [label="HORIZONTAL"];
	Obj46 -> Obj68 [label="RSUB"];
	Obj19 -> Obj43 [label="HORIZONTAL"];
	Obj20 -> Obj58 [label="HORIZONTAL"];
	Obj37 -> Obj35 [label="HORIZONTAL"];
	
}
