digraph dag {
	rankdir=LR; ranksep=1.0;
	edge[fontsize=13,weight=1]; node[fontsize=13,shape=box]; graph[ordering=out];

	/* NODES (OBJECTS) */
	Obj0 [label="mu\nObj0\n1", color = blue];
	Obj1 [label="emptyset\nObj1\n0", color = blue];
	Obj2 [label="two\nObj2\n3", color = blue];
	Obj3 [label="Delta\nObj3\n2", color = blue];
	Obj4 [label="one\nObj4\n5", color = blue];
	Obj5 [label="cap\nObj5\n4", color = blue];
	Obj6 [label="check\nObj6\n7", color = blue];
	Obj7 [label="notequal\nObj7\n6", color = blue];
	Obj8 [label="circ\nObj8\n8", color = blue];
	
	/* EDGES (OBJECT RELATIONSHIPS)    */
	Obj5 -> Obj8 [label="RSUP\n(_)\n",color=red,fontcolor=red,penwidth=3];
	Obj3 -> Obj7 [label="HORIZONTAL"];
	Obj7 -> Obj1 [label="HORIZONTAL"];
	Obj0 -> Obj5 [label="HORIZONTAL"];
	Obj0 -> Obj4 [label="RSUB"];
	Obj3 -> Obj2 [label="RSUB"];
	Obj0 -> Obj6 [label="UPPER"];
	Obj5 -> Obj3 [label="HORIZONTAL"];
	
}
