digraph dag {
	rankdir=LR; ranksep=1.0;
	edge[fontsize=13,weight=1]; node[fontsize=13,shape=box]; graph[ordering=out];

	/* NODES (OBJECTS) */
	Obj0 [label="j\nObj0\n24", color = blue];
	Obj1 [label="RightPar\nObj1\n25", color = blue];
	Obj10 [label="one\nObj10\n41", color = blue];
	Obj11 [label="one\nObj11\n1", color = blue];
	Obj12 [label="LeftPar\nObj12\n0", color = blue];
	Obj13 [label="fractionalLine\nObj13\n3", color = blue];
	Obj14 [label="LeftPar\nObj14\n2", color = blue];
	Obj15 [label="k\nObj15\n5", color = blue];
	Obj16 [label="plus\nObj16\n4", color = blue];
	Obj17 [label="LeftPar\nObj17\n7", color = blue];
	Obj18 [label="d\nObj18\n6", color = blue];
	Obj19 [label="RightPar\nObj19\n9", color = blue];
	Obj2 [label="RightPar\nObj2\n26", color = blue];
	Obj20 [label="plus\nObj20\n8", color = blue];
	Obj21 [label="k\nObj21\n39", color = blue];
	Obj22 [label="minus\nObj22\n38", color = blue];
	Obj23 [label="int\nObj23\n11", color = blue];
	Obj24 [label="RightPar\nObj24\n10", color = blue];
	Obj25 [label="equal\nObj25\n12 13", color = blue];
	Obj26 [label="s\nObj26\n15", color = blue];
	Obj27 [label="r\nObj27\n14", color = blue];
	Obj28 [label="exclamation\nObj28\n17 18", color = blue];
	Obj29 [label="LeftPar\nObj29\n16", color = blue];
	Obj3 [label="minus\nObj3\n27", color = blue];
	Obj30 [label="s\nObj30\n33", color = blue];
	Obj31 [label="k\nObj31\n32", color = blue];
	Obj32 [label="exclamation\nObj32\n30 31", color = blue];
	Obj33 [label="s\nObj33\n37", color = blue];
	Obj34 [label="k\nObj34\n36", color = blue];
	Obj35 [label="j\nObj35\n34 35", color = blue];
	Obj36 [label="two\nObj36\n19", color = blue];
	Obj4 [label="j\nObj4\n20", color = blue];
	Obj5 [label="exclamation\nObj5\n21 22", color = blue];
	Obj6 [label="zero\nObj6\n23", color = blue];
	Obj7 [label="one\nObj7\n28", color = blue];
	Obj8 [label="plus\nObj8\n29", color = blue];
	Obj9 [label="minus\nObj9\n40", color = blue];
	
	/* EDGES (OBJECT RELATIONSHIPS)    */
	Obj12 -> Obj4 [label="RSUP\n(HORIZONTAL)\n",color=red,fontcolor=red,penwidth=3];
	Obj14 -> Obj27 [label="HORIZONTAL"];
	Obj24 -> Obj28 [label="HORIZONTAL"];
	Obj29 -> Obj34 [label="HORIZONTAL"];
	Obj19 -> Obj35 [label="RSUP"];
	Obj36 -> Obj24 [label="HORIZONTAL"];
	Obj30 -> Obj25 [label="HORIZONTAL"];
	Obj15 -> Obj1 [label="HORIZONTAL"];
	Obj3 -> Obj31 [label="HORIZONTAL"];
	Obj22 -> Obj15 [label="HORIZONTAL"];
	Obj18 -> Obj30 [label="HORIZONTAL"];
	Obj34 -> Obj16 [label="HORIZONTAL"];
	Obj1 -> Obj32 [label="HORIZONTAL"];
	Obj35 -> Obj3 [label="HORIZONTAL"];
	Obj16 -> Obj10 [label="HORIZONTAL"];
	Obj2 -> Obj5 [label="HORIZONTAL"];
	Obj26 -> Obj19 [label="HORIZONTAL"];
	Obj0 -> Obj22 [label="HORIZONTAL"];
	Obj32 -> Obj29 [label="HORIZONTAL"];
	Obj19 -> Obj33 [label="HORIZONTAL"];
	Obj23 -> Obj14 [label="HORIZONTAL"];
	Obj20 -> Obj7 [label="HORIZONTAL"];
	Obj13 -> Obj17 [label="UPPER"];
	Obj25 -> Obj13 [label="HORIZONTAL"];
	Obj4 -> Obj8 [label="HORIZONTAL"];
	Obj9 -> Obj26 [label="HORIZONTAL"];
	Obj21 -> Obj20 [label="HORIZONTAL"];
	Obj27 -> Obj9 [label="HORIZONTAL"];
	Obj23 -> Obj11 [label="UPPER"];
	Obj17 -> Obj0 [label="HORIZONTAL"];
	Obj13 -> Obj12 [label="UNDER"];
	Obj8 -> Obj36 [label="HORIZONTAL"];
	Obj33 -> Obj18 [label="HORIZONTAL"];
	Obj23 -> Obj6 [label="UNDER"];
	Obj10 -> Obj2 [label="HORIZONTAL"];
	Obj33 -> Obj21 [label="RSUP"];
	
}
