digraph dag {
	rankdir=LR; ranksep=1.0;
	edge[fontsize=13,weight=1]; node[fontsize=13,shape=box]; graph[ordering=out];

	/* NODES (OBJECTS) */
	Obj0 [label="j\nObj0\n41 42", color = blue];
	Obj1 [label="comma\nObj1\n24", color = blue];
	Obj10 [label="cdot\nObj10\n1", color = blue];
	Obj11 [label="one\nObj11\n0", color = blue];
	Obj12 [label="i\nObj12\n2 3", color = blue];
	Obj13 [label="i\nObj13\n4 5", color = blue];
	Obj14 [label="LeftPar\nObj14\n7", color = blue];
	Obj15 [label="p\nObj15\n6", color = blue];
	Obj16 [label="m\nObj16\n9", color = blue];
	Obj17 [label="g\nObj17\n8", color = blue];
	Obj18 [label="i\nObj18\n38 39", color = blue];
	Obj19 [label="LeftPar\nObj19\n12", color = blue];
	Obj2 [label="j\nObj2\n25 26", color = blue];
	Obj20 [label="C\nObj20\n11", color = blue];
	Obj21 [label="o\nObj21\n10", color = blue];
	Obj22 [label="X\nObj22\n13", color = blue];
	Obj23 [label="equal\nObj23\n15 16", color = blue];
	Obj24 [label="RightPar\nObj24\n14", color = blue];
	Obj25 [label="RightPar\nObj25\n17", color = blue];
	Obj26 [label="LeftPar\nObj26\n33", color = blue];
	Obj27 [label="C\nObj27\n32", color = blue];
	Obj28 [label="V\nObj28\n31", color = blue];
	Obj29 [label="g\nObj29\n30", color = blue];
	Obj3 [label="C\nObj3\n27", color = blue];
	Obj30 [label="RightPar\nObj30\n37", color = blue];
	Obj31 [label="int\nObj31\n36", color = blue];
	Obj32 [label="alpha\nObj32\n35", color = blue];
	Obj33 [label="alpha\nObj33\n34", color = blue];
	Obj34 [label="equal\nObj34\n18 19", color = blue];
	Obj4 [label="l\nObj4\n20", color = blue];
	Obj5 [label="omega\nObj5\n21", color = blue];
	Obj6 [label="alpha\nObj6\n22", color = blue];
	Obj7 [label="C\nObj7\n23", color = blue];
	Obj8 [label="j\nObj8\n28 29", color = blue];
	Obj9 [label="pi\nObj9\n40", color = blue];
	
	/* EDGES (OBJECT RELATIONSHIPS)    */
	Obj4 -> Obj17 [label="RSUB\n(_)\n",color=red,fontcolor=red,penwidth=3];
	Obj14 -> Obj27 [label="HORIZONTAL"];
	Obj18 -> Obj8 [label="HORIZONTAL"];
	Obj13 -> Obj0 [label="HORIZONTAL"];
	Obj22 -> Obj16 [label="RSUB"];
	Obj30 -> Obj10 [label="HORIZONTAL"];
	Obj21 -> Obj4 [label="HORIZONTAL"];
	Obj20 -> Obj32 [label="RSUB"];
	Obj5 -> Obj23 [label="HORIZONTAL"];
	Obj4 -> Obj14 [label="HORIZONTAL"];
	Obj22 -> Obj30 [label="HORIZONTAL"];
	Obj3 -> Obj19 [label="HORIZONTAL"];
	Obj20 -> Obj13 [label="RSUP"];
	Obj31 -> Obj7 [label="UNDER"];
	Obj28 -> Obj21 [label="HORIZONTAL"];
	Obj12 -> Obj2 [label="HORIZONTAL"];
	Obj27 -> Obj33 [label="RSUB"];
	Obj24 -> Obj34 [label="HORIZONTAL"];
	Obj27 -> Obj18 [label="RSUP"];
	Obj3 -> Obj11 [label="RSUB"];
	Obj5 -> Obj29 [label="RSUB"];
	Obj34 -> Obj31 [label="HORIZONTAL"];
	Obj19 -> Obj22 [label="HORIZONTAL"];
	Obj23 -> Obj9 [label="HORIZONTAL"];
	Obj20 -> Obj25 [label="HORIZONTAL"];
	Obj7 -> Obj12 [label="RSUP"];
	Obj9 -> Obj26 [label="HORIZONTAL"];
	Obj16 -> Obj1 [label="PUNC"];
	Obj16 -> Obj15 [label="HORIZONTAL"];
	Obj31 -> Obj5 [label="HORIZONTAL"];
	Obj7 -> Obj6 [label="RSUB"];
	Obj27 -> Obj24 [label="HORIZONTAL"];
	Obj10 -> Obj20 [label="HORIZONTAL"];
	Obj26 -> Obj3 [label="HORIZONTAL"];
	
}
