digraph dag {
	rankdir=LR; ranksep=1.0;
	edge[fontsize=13,weight=1]; node[fontsize=13,shape=box]; graph[ordering=out];

	/* NODES (OBJECTS) */
	Obj0 [label="z\nObj0\n1", color = blue];
	Obj1 [label="A\nObj1\n0", color = blue];
	
	/* EDGES (OBJECT RELATIONSHIPS)    */
	
}
