digraph dag {
	rankdir=LR; ranksep=1.0;
	edge[fontsize=13,weight=1]; node[fontsize=13,shape=box]; graph[ordering=out];

	/* NODES (OBJECTS) */
	Obj0 [label="T\nObj0\n10", color = blue];
	Obj1 [label="LeftPar\nObj1\n1", color = blue];
	Obj10 [label="in\nObj10\n8", color = blue];
	Obj2 [label="z\nObj2\n0", color = blue];
	Obj3 [label="zero\nObj3\n3", color = blue];
	Obj4 [label="zero\nObj4\n2", color = blue];
	Obj5 [label="comma\nObj5\n5", color = blue];
	Obj6 [label="zero\nObj6\n4", color = blue];
	Obj7 [label="z\nObj7\n7", color = blue];
	Obj8 [label="RightPar\nObj8\n6", color = blue];
	Obj9 [label="minus\nObj9\n9", color = blue];
	
	/* EDGES (OBJECT RELATIONSHIPS)    */
	Obj7 -> Obj6 [label="RSUP\n(_)\n",color=red,fontcolor=red,penwidth=3];
	Obj7 -> Obj9 [label="UPPER\n(RSUP)\n",color=red,fontcolor=red,penwidth=3];
	Obj7 -> Obj8 [label="HORIZONTAL"];
	Obj2 -> Obj3 [label="RSUP"];
	Obj0 -> Obj4 [label="RSUB"];
	Obj10 -> Obj0 [label="HORIZONTAL"];
	Obj2 -> Obj7 [label="HORIZONTAL"];
	Obj1 -> Obj2 [label="HORIZONTAL"];
	Obj2 -> Obj5 [label="PUNC"];
	Obj8 -> Obj10 [label="HORIZONTAL"];
	
}
