digraph dag {
	rankdir=LR; ranksep=1.0;
	edge[fontsize=13,weight=1]; node[fontsize=13,shape=box]; graph[ordering=out];

	/* NODES (OBJECTS) */
	Obj0 [label="pi\nObj0\n11", color = blue];
	Obj1 [label="minus\nObj1\n10", color = blue];
	Obj10 [label="leqq\nObj10\n1 2 3", color = blue];
	Obj11 [label="RightPar\nObj11\n0", color = blue];
	Obj12 [label="LeftPar\nObj12\n5", color = blue];
	Obj13 [label="e\nObj13\n4", color = blue];
	Obj14 [label="d\nObj14\n7", color = blue];
	Obj15 [label="beta\nObj15\n6", color = blue];
	Obj16 [label="M\nObj16\n9", color = blue];
	Obj17 [label="four\nObj17\n8", color = blue];
	Obj2 [label="phi\nObj2\n13", color = blue];
	Obj3 [label="V\nObj3\n12", color = blue];
	Obj4 [label="int\nObj4\n15", color = blue];
	Obj5 [label="C\nObj5\n14", color = blue];
	Obj6 [label="fractionalLine\nObj6\n17", color = blue];
	Obj7 [label="minus\nObj7\n16", color = blue];
	Obj8 [label="delta\nObj8\n19", color = blue];
	Obj9 [label="M\nObj9\n18", color = blue];
	
	/* EDGES (OBJECT RELATIONSHIPS)    */
	Obj2 -> Obj14 [label="RSUB\n(_)\n",color=red,fontcolor=red,penwidth=3];
	Obj17 -> Obj0 [label="HORIZONTAL"];
	Obj6 -> Obj1 [label="HORIZONTAL"];
	Obj10 -> Obj5 [label="HORIZONTAL"];
	Obj4 -> Obj13 [label="HORIZONTAL"];
	Obj3 -> Obj16 [label="RSUB"];
	Obj6 -> Obj17 [label="UPPER"];
	Obj12 -> Obj6 [label="HORIZONTAL"];
	Obj11 -> Obj2 [label="HORIZONTAL"];
	Obj14 -> Obj3 [label="HORIZONTAL"];
	Obj3 -> Obj10 [label="HORIZONTAL"];
	Obj1 -> Obj8 [label="HORIZONTAL"];
	Obj7 -> Obj12 [label="HORIZONTAL"];
	Obj8 -> Obj11 [label="HORIZONTAL"];
	Obj13 -> Obj7 [label="RSUP"];
	Obj4 -> Obj9 [label="UNDER"];
	Obj6 -> Obj15 [label="UNDER"];
	
}
