digraph dag {
	rankdir=LR; ranksep=1.0;
	edge[fontsize=13,weight=1]; node[fontsize=13,shape=box]; graph[ordering=out];

	/* NODES (OBJECTS) */
	Obj0 [label="Gamma\nObj0\n24", color = blue];
	Obj1 [label="RightPar\nObj1\n20", color = blue];
	Obj10 [label="bigcup\nObj10\n7", color = blue];
	Obj11 [label="zero\nObj11\n6", color = blue];
	Obj12 [label="MiddleLeftPar\nObj12\n9", color = blue];
	Obj13 [label="zero\nObj13\n8", color = blue];
	Obj14 [label="LeftPar\nObj14\n11", color = blue];
	Obj15 [label="one\nObj15\n10", color = blue];
	Obj16 [label="in\nObj16\n13", color = blue];
	Obj17 [label="r\nObj17\n12", color = blue];
	Obj18 [label="sigma\nObj18\n15", color = blue];
	Obj19 [label="LeftPar\nObj19\n14", color = blue];
	Obj2 [label="ast\nObj2\n21", color = blue];
	Obj20 [label="Gamma\nObj20\n17", color = blue];
	Obj21 [label="overline\nObj21\n16", color = blue];
	Obj22 [label="vert\nObj22\n19", color = blue];
	Obj23 [label="h\nObj23\n18", color = blue];
	Obj3 [label="sigma\nObj3\n22", color = blue];
	Obj4 [label="r\nObj4\n23", color = blue];
	Obj5 [label="H\nObj5\n1", color = blue];
	Obj6 [label="backslash\nObj6\n0", color = blue];
	Obj7 [label="equal\nObj7\n2 3", color = blue];
	Obj8 [label="RightPar\nObj8\n5", color = blue];
	Obj9 [label="MiddleRightPar\nObj9\n4", color = blue];
	
	/* EDGES (OBJECT RELATIONSHIPS)    */
	Obj16 -> Obj15 [label="PUNC\n(_)\n",color=red,fontcolor=red,penwidth=3];
	Obj19 -> Obj4 [label="HORIZONTAL"];
	Obj8 -> Obj22 [label="HORIZONTAL"];
	Obj10 -> Obj12 [label="HORIZONTAL"];
	Obj20 -> Obj17 [label="RSUB"];
	Obj22 -> Obj18 [label="HORIZONTAL"];
	Obj3 -> Obj19 [label="HORIZONTAL"];
	Obj12 -> Obj3 [label="HORIZONTAL"];
	Obj17 -> Obj11 [label="RSUB"];
	Obj4 -> Obj8 [label="HORIZONTAL"];
	Obj0 -> Obj2 [label="RSUP"];
	Obj5 -> Obj9 [label="HORIZONTAL"];
	Obj1 -> Obj6 [label="HORIZONTAL"];
	Obj18 -> Obj16 [label="HORIZONTAL"];
	Obj0 -> Obj7 [label="HORIZONTAL"];
	Obj16 -> Obj5 [label="HORIZONTAL"];
	Obj23 -> Obj21 [label="UPPER"];
	Obj7 -> Obj20 [label="HORIZONTAL"];
	Obj6 -> Obj10 [label="HORIZONTAL"];
	Obj23 -> Obj1 [label="HORIZONTAL"];
	Obj4 -> Obj13 [label="RSUB"];
	Obj14 -> Obj23 [label="HORIZONTAL"];
	Obj20 -> Obj14 [label="HORIZONTAL"];
	
}
