digraph dag {
	rankdir=LR; ranksep=1.0;
	edge[fontsize=13,weight=1]; node[fontsize=13,shape=box]; graph[ordering=out];

	/* NODES (OBJECTS) */
	Obj0 [label="comma\nObj0\n10", color = blue];
	Obj1 [label="k\nObj1\n1", color = blue];
	Obj10 [label="BigLeftPar\nObj10\n8", color = blue];
	Obj2 [label="x\nObj2\n0", color = blue];
	Obj3 [label="BigRightPar\nObj3\n3", color = blue];
	Obj4 [label="LeftPar\nObj4\n2", color = blue];
	Obj5 [label="one\nObj5\n5", color = blue];
	Obj6 [label="one\nObj6\n4", color = blue];
	Obj7 [label="RightPar\nObj7\n7", color = blue];
	Obj8 [label="x\nObj8\n6", color = blue];
	Obj9 [label="y\nObj9\n9", color = blue];
	
	/* EDGES (OBJECT RELATIONSHIPS)    */
	Obj9 -> Obj0 [label="LSUB\n(_)\n",color=red,fontcolor=red,penwidth=3];
	Obj4 -> Obj8 [label="HORIZONTAL"];
	Obj9 -> Obj3 [label="HORIZONTAL"];
	Obj2 -> Obj9 [label="HORIZONTAL"];
	Obj7 -> Obj10 [label="HORIZONTAL"];
	Obj1 -> Obj4 [label="HORIZONTAL"];
	Obj2 -> Obj6 [label="RSUB"];
	Obj10 -> Obj2 [label="HORIZONTAL"];
	Obj8 -> Obj7 [label="HORIZONTAL"];
	Obj9 -> Obj5 [label="RSUB"];
	
}
