digraph dag {
	rankdir=LR; ranksep=1.0;
	edge[fontsize=13,weight=1]; node[fontsize=13,shape=box]; graph[ordering=out];

	/* NODES (OBJECTS) */
	Obj0 [label="zero\nObj0\n1", color = blue];
	Obj1 [label="zero\nObj1\n0", color = blue];
	Obj2 [label="Q\nObj2\n2", color = blue];
	
	/* EDGES (OBJECT RELATIONSHIPS)    */
	Obj2 -> Obj1 [label="LSUB\n(_)\n",color=red,fontcolor=red,penwidth=3];
	Obj2 -> Obj0 [label="RSUB"];
	
}
