digraph dag {
	rankdir=LR; ranksep=1.0;
	edge[fontsize=13,weight=1]; node[fontsize=13,shape=box]; graph[ordering=out];

	/* NODES (OBJECTS) */
	Obj0 [label="RightPar\nObj0\n11", color = blue];
	Obj1 [label="P\nObj1\n10", color = blue];
	Obj10 [label="one\nObj10\n4", color = blue];
	Obj11 [label="V\nObj11\n7", color = blue];
	Obj12 [label="RightPar\nObj12\n6", color = blue];
	Obj13 [label="comma\nObj13\n9", color = blue];
	Obj14 [label="LeftPar\nObj14\n8", color = blue];
	Obj2 [label="LeftPar\nObj2\n13", color = blue];
	Obj3 [label="one\nObj3\n12", color = blue];
	Obj4 [label="hookrightarrow\nObj4\n14", color = blue];
	Obj5 [label="P\nObj5\n1", color = blue];
	Obj6 [label="comma\nObj6\n0", color = blue];
	Obj7 [label="one\nObj7\n3", color = blue];
	Obj8 [label="one\nObj8\n2", color = blue];
	Obj9 [label="C\nObj9\n5", color = blue];
	
	/* EDGES (OBJECT RELATIONSHIPS)    */
	Obj1 -> Obj13 [label="UNDER\n(_)\n",color=red,fontcolor=red,penwidth=3];
	Obj11 -> Obj10 [label="RSUB"];
	Obj1 -> Obj12 [label="HORIZONTAL"];
	Obj5 -> Obj8 [label="RSUB"];
	Obj1 -> Obj3 [label="RSUB"];
	Obj2 -> Obj9 [label="HORIZONTAL"];
	Obj0 -> Obj4 [label="HORIZONTAL"];
	Obj14 -> Obj11 [label="HORIZONTAL"];
	Obj9 -> Obj6 [label="PUNC"];
	Obj9 -> Obj7 [label="RSUB"];
	Obj11 -> Obj1 [label="HORIZONTAL"];
	Obj5 -> Obj0 [label="HORIZONTAL"];
	Obj4 -> Obj14 [label="HORIZONTAL"];
	Obj9 -> Obj5 [label="HORIZONTAL"];
	
}
