digraph dag {
	rankdir=LR; ranksep=1.0;
	edge[fontsize=13,weight=1]; node[fontsize=13,shape=box]; graph[ordering=out];

	/* NODES (OBJECTS) */
	Obj0 [label="i\nObj0\n10 11", color = blue];
	Obj1 [label="i\nObj1\n12 13", color = blue];
	Obj10 [label="fractionalLine\nObj10\n9", color = blue];
	Obj11 [label="theta\nObj11\n8", color = blue];
	Obj2 [label="comma\nObj2\n1", color = blue];
	Obj3 [label="comma\nObj3\n0", color = blue];
	Obj4 [label="F\nObj4\n3", color = blue];
	Obj5 [label="s\nObj5\n2", color = blue];
	Obj6 [label="comma\nObj6\n5", color = blue];
	Obj7 [label="s\nObj7\n4", color = blue];
	Obj8 [label="F\nObj8\n7", color = blue];
	Obj9 [label="one\nObj9\n6", color = blue];
	
	/* EDGES (OBJECT RELATIONSHIPS)    */
	Obj9 -> Obj4 [label="LSUB\n(_)\n",color=red,fontcolor=red,penwidth=3];
	Obj0 -> Obj3 [label="PUNC"];
	Obj8 -> Obj1 [label="RSUB"];
	Obj4 -> Obj6 [label="PUNC"];
	Obj1 -> Obj11 [label="HORIZONTAL"];
	Obj10 -> Obj7 [label="UNDER"];
	Obj0 -> Obj5 [label="HORIZONTAL"];
	Obj10 -> Obj8 [label="HORIZONTAL"];
	Obj4 -> Obj0 [label="RSUB"];
	Obj1 -> Obj2 [label="PUNC"];
	Obj10 -> Obj9 [label="UPPER"];
	
}
