digraph dag {
	rankdir=LR; ranksep=1.0;
	edge[fontsize=13,weight=1]; node[fontsize=13,shape=box]; graph[ordering=out];

	/* NODES (OBJECTS) */
	Obj0 [label="comma\nObj0\n20", color = blue];
	Obj1 [label="B\nObj1\n21", color = blue];
	Obj10 [label="s\nObj10\n9", color = blue];
	Obj11 [label="plus\nObj11\n8", color = blue];
	Obj12 [label="theta\nObj12\n11", color = blue];
	Obj13 [label="eta\nObj13\n10", color = blue];
	Obj14 [label="epsilon\nObj14\n13", color = blue];
	Obj15 [label="r\nObj15\n12", color = blue];
	Obj16 [label="LeftPar\nObj16\n15", color = blue];
	Obj17 [label="minus\nObj17\n14", color = blue];
	Obj18 [label="vert\nObj18\n17", color = blue];
	Obj19 [label="vert\nObj19\n16", color = blue];
	Obj2 [label="g\nObj2\n1", color = blue];
	Obj20 [label="d\nObj20\n19", color = blue];
	Obj21 [label="int\nObj21\n18", color = blue];
	Obj3 [label="theta\nObj3\n0", color = blue];
	Obj4 [label="RightPar\nObj4\n3", color = blue];
	Obj5 [label="s\nObj5\n2", color = blue];
	Obj6 [label="d\nObj6\n5", color = blue];
	Obj7 [label="one\nObj7\n4", color = blue];
	Obj8 [label="s\nObj8\n7", color = blue];
	Obj9 [label="circ\nObj9\n6", color = blue];
	
	/* EDGES (OBJECT RELATIONSHIPS)    */
	Obj14 -> Obj10 [label="RSUB\n(_)\n",color=red,fontcolor=red,penwidth=3];
	Obj9 -> Obj2 [label="HORIZONTAL"];
	Obj6 -> Obj20 [label="HORIZONTAL"];
	Obj18 -> Obj8 [label="HORIZONTAL"];
	Obj2 -> Obj16 [label="HORIZONTAL"];
	Obj16 -> Obj5 [label="HORIZONTAL"];
	Obj4 -> Obj18 [label="HORIZONTAL"];
	Obj21 -> Obj19 [label="HORIZONTAL"];
	Obj1 -> Obj15 [label="RSUB"];
	Obj20 -> Obj12 [label="HORIZONTAL"];
	Obj11 -> Obj14 [label="HORIZONTAL"];
	Obj13 -> Obj9 [label="HORIZONTAL"];
	Obj10 -> Obj6 [label="HORIZONTAL"];
	Obj8 -> Obj17 [label="RSUP"];
	Obj19 -> Obj13 [label="HORIZONTAL"];
	Obj5 -> Obj3 [label="HORIZONTAL"];
	Obj3 -> Obj4 [label="HORIZONTAL"];
	Obj17 -> Obj7 [label="HORIZONTAL"];
	Obj5 -> Obj0 [label="PUNC"];
	Obj21 -> Obj1 [label="RSUB"];
	Obj7 -> Obj11 [label="HORIZONTAL"];
	
}
