digraph dag {
	rankdir=LR; ranksep=1.0;
	edge[fontsize=13,weight=1]; node[fontsize=13,shape=box]; graph[ordering=out];

	/* NODES (OBJECTS) */
	Obj0 [label="O\nObj0\n1", color = blue];
	Obj1 [label="A\nObj1\n0", color = blue];
	Obj2 [label="N\nObj2\n3", color = blue];
	Obj3 [label="T\nObj3\n2", color = blue];
	Obj4 [label="ast\nObj4\n5", color = blue];
	Obj5 [label="I\nObj5\n4", color = blue];
	Obj6 [label="C\nObj6\n7", color = blue];
	Obj7 [label="hyphen\nObj7\n6", color = blue];
	Obj8 [label="C\nObj8\n9", color = blue];
	Obj9 [label="S\nObj9\n8", color = blue];
	
	/* EDGES (OBJECT RELATIONSHIPS)    */
	Obj8 -> Obj7 [label="HORIZONTAL\n(_)\n",color=red,fontcolor=red,penwidth=3];
	Obj7 -> Obj1 [label="HORIZONTAL\n(_)\n",color=red,fontcolor=red,penwidth=3];
	Obj0 -> Obj2 [label="HORIZONTAL"];
	Obj5 -> Obj0 [label="HORIZONTAL"];
	Obj1 -> Obj6 [label="HORIZONTAL"];
	Obj2 -> Obj9 [label="HORIZONTAL"];
	Obj8 -> Obj4 [label="RSUP"];
	Obj3 -> Obj5 [label="HORIZONTAL"];
	Obj6 -> Obj3 [label="HORIZONTAL"];
	
}
