digraph dag {
	rankdir=LR; ranksep=1.0;
	edge[fontsize=13,weight=1]; node[fontsize=13,shape=box]; graph[ordering=out];

	/* NODES (OBJECTS) */
	Obj0 [label="m\nObj0\n42", color = blue];
	Obj1 [label="RightPar\nObj1\n48", color = blue];
	Obj10 [label="j\nObj10\n46 47", color = blue];
	Obj11 [label="minus\nObj11\n44", color = blue];
	Obj12 [label="one\nObj12\n45", color = blue];
	Obj13 [label="d\nObj13\n28", color = blue];
	Obj14 [label="z\nObj14\n43", color = blue];
	Obj15 [label="wedge\nObj15\n40", color = blue];
	Obj16 [label="wedge\nObj16\n41", color = blue];
	Obj17 [label="d\nObj17\n1", color = blue];
	Obj18 [label="LeftPar\nObj18\n0", color = blue];
	Obj19 [label="one\nObj19\n3", color = blue];
	Obj2 [label="LeftPar\nObj2\n29", color = blue];
	Obj20 [label="wedge\nObj20\n2", color = blue];
	Obj21 [label="i\nObj21\n5 6", color = blue];
	Obj22 [label="omega\nObj22\n4", color = blue];
	Obj23 [label="m\nObj23\n7", color = blue];
	Obj24 [label="g\nObj24\n9", color = blue];
	Obj25 [label="RightPar\nObj25\n8", color = blue];
	Obj26 [label="e\nObj26\n13", color = blue];
	Obj27 [label="t\nObj27\n38", color = blue];
	Obj28 [label="overline\nObj28\n11", color = blue];
	Obj29 [label="sqrt\nObj29\n10", color = blue];
	Obj3 [label="equal\nObj3\n23 24", color = blue];
	Obj30 [label="d\nObj30\n39", color = blue];
	Obj31 [label="g\nObj31\n12", color = blue];
	Obj32 [label="d\nObj32\n15", color = blue];
	Obj33 [label="z\nObj33\n14", color = blue];
	Obj34 [label="ldots\nObj34\n16 17 18", color = blue];
	Obj35 [label="two\nObj35\n19", color = blue];
	Obj36 [label="equal\nObj36\n31 32", color = blue];
	Obj37 [label="z\nObj37\n30", color = blue];
	Obj38 [label="m\nObj38\n37", color = blue];
	Obj39 [label="z\nObj39\n36", color = blue];
	Obj4 [label="V\nObj4\n25", color = blue];
	Obj40 [label="d\nObj40\n35", color = blue];
	Obj41 [label="M\nObj41\n34", color = blue];
	Obj42 [label="d\nObj42\n33", color = blue];
	Obj5 [label="wedge\nObj5\n26", color = blue];
	Obj6 [label="m\nObj6\n27", color = blue];
	Obj7 [label="one\nObj7\n20", color = blue];
	Obj8 [label="overline\nObj8\n21", color = blue];
	Obj9 [label="fractionalLine\nObj9\n22", color = blue];
	
	/* EDGES (OBJECT RELATIONSHIPS)    */
	Obj12 -> Obj38 [label="HORIZONTAL\n(_)\n",color=red,fontcolor=red,penwidth=3];
	Obj36 -> Obj29 [label="UPPER\n(_)\n",color=red,fontcolor=red,penwidth=3];
	Obj22 -> Obj31 [label="RSUB"];
	Obj9 -> Obj1 [label="HORIZONTAL"];
	Obj36 -> Obj18 [label="HORIZONTAL"];
	Obj14 -> Obj0 [label="RSUB"];
	Obj13 -> Obj4 [label="HORIZONTAL"];
	Obj20 -> Obj32 [label="HORIZONTAL"];
	Obj33 -> Obj16 [label="HORIZONTAL"];
	Obj37 -> Obj28 [label="UPPER"];
	Obj2 -> Obj24 [label="HORIZONTAL"];
	Obj37 -> Obj3 [label="HORIZONTAL"];
	Obj18 -> Obj9 [label="HORIZONTAL"];
	Obj26 -> Obj27 [label="HORIZONTAL"];
	Obj15 -> Obj17 [label="HORIZONTAL"];
	Obj1 -> Obj42 [label="HORIZONTAL"];
	Obj39 -> Obj5 [label="HORIZONTAL"];
	Obj11 -> Obj12 [label="HORIZONTAL"];
	Obj25 -> Obj30 [label="HORIZONTAL"];
	Obj37 -> Obj6 [label="RSUB"];
	Obj5 -> Obj40 [label="HORIZONTAL"];
	Obj32 -> Obj37 [label="HORIZONTAL"];
	Obj4 -> Obj41 [label="RSUB"];
	Obj24 -> Obj21 [label="RSUB"];
	Obj30 -> Obj39 [label="HORIZONTAL"];
	Obj33 -> Obj8 [label="UPPER"];
	Obj24 -> Obj25 [label="HORIZONTAL"];
	Obj17 -> Obj14 [label="HORIZONTAL"];
	Obj33 -> Obj19 [label="RSUB"];
	Obj22 -> Obj23 [label="RSUP"];
	Obj14 -> Obj20 [label="HORIZONTAL"];
	Obj3 -> Obj22 [label="HORIZONTAL"];
	Obj16 -> Obj34 [label="PUNC"];
	Obj9 -> Obj35 [label="UNDER"];
	Obj16 -> Obj15 [label="HORIZONTAL"];
	Obj27 -> Obj2 [label="HORIZONTAL"];
	Obj21 -> Obj10 [label="HORIZONTAL"];
	Obj40 -> Obj33 [label="HORIZONTAL"];
	Obj39 -> Obj7 [label="RSUB"];
	Obj42 -> Obj26 [label="HORIZONTAL"];
	Obj4 -> Obj36 [label="HORIZONTAL"];
	Obj29 -> Obj11 [label="UNDER"];
	
}
