digraph dag {
	rankdir=LR; ranksep=1.0;
	edge[fontsize=13,weight=1]; node[fontsize=13,shape=box]; graph[ordering=out];

	/* NODES (OBJECTS) */
	Obj0 [label="LeftPar\nObj0\n10", color = blue];
	Obj1 [label="z\nObj1\n1", color = blue];
	Obj10 [label="two\nObj10\n8", color = blue];
	Obj2 [label="comma\nObj2\n0", color = blue];
	Obj3 [label="comma\nObj3\n3", color = blue];
	Obj4 [label="z\nObj4\n2", color = blue];
	Obj5 [label="z\nObj5\n5", color = blue];
	Obj6 [label="RightPar\nObj6\n4", color = blue];
	Obj7 [label="two\nObj7\n7", color = blue];
	Obj8 [label="ast\nObj8\n6", color = blue];
	Obj9 [label="three\nObj9\n9", color = blue];
	
	/* EDGES (OBJECT RELATIONSHIPS)    */
	Obj4 -> Obj2 [label="UNDER\n(_)\n",color=red,fontcolor=red,penwidth=3];
	Obj4 -> Obj8 [label="RSUP"];
	Obj5 -> Obj7 [label="RSUB"];
	Obj5 -> Obj4 [label="HORIZONTAL"];
	Obj1 -> Obj6 [label="HORIZONTAL"];
	Obj4 -> Obj10 [label="RSUB"];
	Obj0 -> Obj5 [label="HORIZONTAL"];
	Obj4 -> Obj1 [label="HORIZONTAL"];
	Obj1 -> Obj9 [label="RSUB"];
	Obj4 -> Obj3 [label="PUNC"];
	
}
