digraph dag {
	rankdir=LR; ranksep=1.0;
	edge[fontsize=13,weight=1]; node[fontsize=13,shape=box]; graph[ordering=out];

	/* NODES (OBJECTS) */
	Obj0 [label="period\nObj0\n1", color = blue];
	Obj1 [label="three\nObj1\n0", color = blue];
	Obj2 [label="alpha\nObj2\n3", color = blue];
	Obj3 [label="alpha\nObj3\n2", color = blue];
	Obj4 [label="two\nObj4\n4", color = blue];
	
	/* EDGES (OBJECT RELATIONSHIPS)    */
	Obj3 -> Obj0 [label="HORIZONTAL\n(PUNC)\n",color=red,fontcolor=red,penwidth=3];
	Obj3 -> Obj1 [label="RSUB"];
	Obj2 -> Obj3 [label="HORIZONTAL"];
	Obj2 -> Obj4 [label="RSUB"];
	
}
