digraph dag {
	rankdir=LR; ranksep=1.0;
	edge[fontsize=13,weight=1]; node[fontsize=13,shape=box]; graph[ordering=out];

	/* NODES (OBJECTS) */
	Obj0 [label="K\nObj0\n56", color = blue];
	Obj1 [label="upsilon\nObj1\n54", color = blue];
	Obj10 [label="t\nObj10\n27", color = blue];
	Obj11 [label="rho\nObj11\n20", color = blue];
	Obj12 [label="K\nObj12\n21", color = blue];
	Obj13 [label="zero\nObj13\n48", color = blue];
	Obj14 [label="d\nObj14\n23", color = blue];
	Obj15 [label="B\nObj15\n46", color = blue];
	Obj16 [label="pi\nObj16\n47", color = blue];
	Obj17 [label="circ\nObj17\n44", color = blue];
	Obj18 [label="upsilon\nObj18\n45", color = blue];
	Obj19 [label="minus\nObj19\n40", color = blue];
	Obj2 [label="i\nObj2\n28 29", color = blue];
	Obj20 [label="two\nObj20\n41", color = blue];
	Obj21 [label="eta\nObj21\n1", color = blue];
	Obj22 [label="epsilon\nObj22\n0", color = blue];
	Obj23 [label="t\nObj23\n3", color = blue];
	Obj24 [label="two\nObj24\n2", color = blue];
	Obj25 [label="rho\nObj25\n5", color = blue];
	Obj26 [label="minus\nObj26\n4", color = blue];
	Obj27 [label="one\nObj27\n7", color = blue];
	Obj28 [label="vert\nObj28\n6", color = blue];
	Obj29 [label="plus\nObj29\n9", color = blue];
	Obj3 [label="i\nObj3\n42 43", color = blue];
	Obj30 [label="rho\nObj30\n8", color = blue];
	Obj31 [label="t\nObj31\n13", color = blue];
	Obj32 [label="leq\nObj32\n11 12", color = blue];
	Obj33 [label="int\nObj33\n17", color = blue];
	Obj34 [label="RightPar\nObj34\n15", color = blue];
	Obj35 [label="minus\nObj35\n58", color = blue];
	Obj36 [label="upsilon\nObj36\n10", color = blue];
	Obj37 [label="vert\nObj37\n39", color = blue];
	Obj38 [label="e\nObj38\n38", color = blue];
	Obj39 [label="LeftPar\nObj39\n59", color = blue];
	Obj4 [label="e\nObj4\n49", color = blue];
	Obj40 [label="K\nObj40\n22", color = blue];
	Obj41 [label="d\nObj41\n14", color = blue];
	Obj42 [label="two\nObj42\n16", color = blue];
	Obj43 [label="RightPar\nObj43\n19", color = blue];
	Obj44 [label="two\nObj44\n18", color = blue];
	Obj45 [label="comma\nObj45\n57", color = blue];
	Obj46 [label="fractionalLine\nObj46\n30", color = blue];
	Obj47 [label="rho\nObj47\n51", color = blue];
	Obj48 [label="one\nObj48\n36", color = blue];
	Obj49 [label="d\nObj49\n35", color = blue];
	Obj5 [label="l\nObj5\n52", color = blue];
	Obj50 [label="fractionalLine\nObj50\n34", color = blue];
	Obj51 [label="f\nObj51\n55", color = blue];
	Obj52 [label="omega\nObj52\n31", color = blue];
	Obj53 [label="vert\nObj53\n37", color = blue];
	Obj54 [label="LeftPar\nObj54\n32", color = blue];
	Obj55 [label="two\nObj55\n33", color = blue];
	Obj56 [label="int\nObj56\n50", color = blue];
	Obj6 [label="omega\nObj6\n53", color = blue];
	Obj7 [label="vert\nObj7\n24", color = blue];
	Obj8 [label="zero\nObj8\n25", color = blue];
	Obj9 [label="pi\nObj9\n26", color = blue];
	
	/* EDGES (OBJECT RELATIONSHIPS)    */
	Obj15 -> Obj7 [label="HORIZONTAL\n(_)\n",color=red,fontcolor=red,penwidth=3];
	Obj36 -> Obj34 [label="HORIZONTAL"];
	Obj38 -> Obj3 [label="RSUP"];
	Obj46 -> Obj33 [label="HORIZONTAL"];
	Obj29 -> Obj40 [label="HORIZONTAL"];
	Obj37 -> Obj44 [label="RSUP"];
	Obj7 -> Obj10 [label="HORIZONTAL"];
	Obj4 -> Obj37 [label="HORIZONTAL"];
	Obj12 -> Obj49 [label="HORIZONTAL"];
	Obj17 -> Obj51 [label="HORIZONTAL"];
	Obj51 -> Obj54 [label="HORIZONTAL"];
	Obj4 -> Obj2 [label="RSUP"];
	Obj31 -> Obj45 [label="PUNC"];
	Obj51 -> Obj13 [label="RSUB"];
	Obj15 -> Obj5 [label="RSUB"];
	Obj19 -> Obj25 [label="HORIZONTAL"];
	Obj22 -> Obj29 [label="HORIZONTAL"];
	Obj43 -> Obj53 [label="HORIZONTAL"];
	Obj11 -> Obj12 [label="HORIZONTAL"];
	Obj23 -> Obj42 [label="RSUP"];
	Obj41 -> Obj52 [label="HORIZONTAL"];
	Obj14 -> Obj1 [label="HORIZONTAL"];
	Obj50 -> Obj23 [label="UPPER"];
	Obj34 -> Obj28 [label="HORIZONTAL"];
	Obj38 -> Obj26 [label="HORIZONTAL"];
	Obj30 -> Obj4 [label="HORIZONTAL"];
	Obj10 -> Obj38 [label="HORIZONTAL"];
	Obj53 -> Obj21 [label="HORIZONTAL"];
	Obj20 -> Obj9 [label="HORIZONTAL"];
	Obj21 -> Obj17 [label="HORIZONTAL"];
	Obj3 -> Obj18 [label="HORIZONTAL"];
	Obj56 -> Obj50 [label="HORIZONTAL"];
	Obj0 -> Obj22 [label="HORIZONTAL"];
	Obj35 -> Obj27 [label="HORIZONTAL"];
	Obj25 -> Obj24 [label="RSUP"];
	Obj56 -> Obj15 [label="RSUB"];
	Obj39 -> Obj56 [label="HORIZONTAL"];
	Obj46 -> Obj48 [label="UPPER"];
	Obj47 -> Obj41 [label="HORIZONTAL"];
	Obj33 -> Obj39 [label="HORIZONTAL"];
	Obj33 -> Obj8 [label="RSUB"];
	Obj49 -> Obj47 [label="HORIZONTAL"];
	Obj46 -> Obj20 [label="UNDER"];
	Obj11 -> Obj0 [label="RSUP"];
	Obj2 -> Obj6 [label="HORIZONTAL"];
	Obj33 -> Obj55 [label="RSUP"];
	Obj40 -> Obj35 [label="HORIZONTAL"];
	Obj26 -> Obj30 [label="HORIZONTAL"];
	Obj32 -> Obj46 [label="HORIZONTAL"];
	Obj55 -> Obj16 [label="HORIZONTAL"];
	Obj31 -> Obj36 [label="HORIZONTAL"];
	Obj52 -> Obj43 [label="HORIZONTAL"];
	Obj28 -> Obj14 [label="HORIZONTAL"];
	Obj54 -> Obj31 [label="HORIZONTAL"];
	Obj23 -> Obj19 [label="HORIZONTAL"];
	Obj50 -> Obj11 [label="HORIZONTAL"];
	
}
