digraph dag {
	rankdir=LR; ranksep=1.0;
	edge[fontsize=13,weight=1]; node[fontsize=13,shape=box]; graph[ordering=out];

	/* NODES (OBJECTS) */
	Obj0 [label="J\nObj0\n30", color = blue];
	Obj1 [label="RightPar\nObj1\n28", color = blue];
	Obj10 [label="RightPar\nObj10\n21", color = blue];
	Obj11 [label="phi\nObj11\n48", color = blue];
	Obj12 [label="t\nObj12\n23", color = blue];
	Obj13 [label="fractionalLine\nObj13\n46", color = blue];
	Obj14 [label="RightPar\nObj14\n47", color = blue];
	Obj15 [label="minus\nObj15\n44", color = blue];
	Obj16 [label="phi\nObj16\n45", color = blue];
	Obj17 [label="sqrt\nObj17\n42", color = blue];
	Obj18 [label="M\nObj18\n43", color = blue];
	Obj19 [label="I\nObj19\n40", color = blue];
	Obj2 [label="RightPar\nObj2\n29", color = blue];
	Obj20 [label="minus\nObj20\n41", color = blue];
	Obj21 [label="equal\nObj21\n0 1", color = blue];
	Obj22 [label="LeftPar\nObj22\n3", color = blue];
	Obj23 [label="LeftPar\nObj23\n2", color = blue];
	Obj24 [label="zero\nObj24\n5", color = blue];
	Obj25 [label="RightPar\nObj25\n4", color = blue];
	Obj26 [label="LeftPar\nObj26\n7", color = blue];
	Obj27 [label="t\nObj27\n6", color = blue];
	Obj28 [label="s\nObj28\n9", color = blue];
	Obj29 [label="RightPar\nObj29\n8", color = blue];
	Obj3 [label="I\nObj3\n35", color = blue];
	Obj30 [label="m\nObj30\n51", color = blue];
	Obj31 [label="LeftPar\nObj31\n13", color = blue];
	Obj32 [label="J\nObj32\n38", color = blue];
	Obj33 [label="phi\nObj33\n14", color = blue];
	Obj34 [label="t\nObj34\n11", color = blue];
	Obj35 [label="phi\nObj35\n10", color = blue];
	Obj36 [label="LeftPar\nObj36\n39", color = blue];
	Obj37 [label="minus\nObj37\n12", color = blue];
	Obj38 [label="phi\nObj38\n15", color = blue];
	Obj39 [label="one\nObj39\n22", color = blue];
	Obj4 [label="s\nObj4\n52", color = blue];
	Obj40 [label="t\nObj40\n17", color = blue];
	Obj41 [label="RightPar\nObj41\n16", color = blue];
	Obj42 [label="RightPar\nObj42\n33", color = blue];
	Obj43 [label="LeftPar\nObj43\n18", color = blue];
	Obj44 [label="LeftPar\nObj44\n31", color = blue];
	Obj45 [label="int\nObj45\n49", color = blue];
	Obj46 [label="int\nObj46\n37", color = blue];
	Obj47 [label="V\nObj47\n36", color = blue];
	Obj48 [label="t\nObj48\n53", color = blue];
	Obj49 [label="t\nObj49\n34", color = blue];
	Obj5 [label="m\nObj5\n24", color = blue];
	Obj50 [label="omega\nObj50\n19", color = blue];
	Obj51 [label="d\nObj51\n32", color = blue];
	Obj52 [label="s\nObj52\n50", color = blue];
	Obj6 [label="LeftPar\nObj6\n25", color = blue];
	Obj7 [label="minus\nObj7\n26", color = blue];
	Obj8 [label="minus\nObj8\n27", color = blue];
	Obj9 [label="t\nObj9\n20", color = blue];
	
	/* EDGES (OBJECT RELATIONSHIPS)    */
	Obj39 -> Obj2 [label="HORIZONTAL\n(_)\n",color=red,fontcolor=red,penwidth=3];
	Obj20 -> Obj0 [label="HORIZONTAL"];
	Obj23 -> Obj35 [label="HORIZONTAL"];
	Obj32 -> Obj31 [label="HORIZONTAL"];
	Obj45 -> Obj18 [label="UNDER"];
	Obj12 -> Obj13 [label="HORIZONTAL"];
	Obj26 -> Obj17 [label="HORIZONTAL"];
	Obj46 -> Obj43 [label="HORIZONTAL"];
	Obj38 -> Obj27 [label="RSUB"];
	Obj51 -> Obj28 [label="HORIZONTAL"];
	Obj33 -> Obj42 [label="HORIZONTAL"];
	Obj0 -> Obj23 [label="HORIZONTAL"];
	Obj9 -> Obj36 [label="HORIZONTAL"];
	Obj1 -> Obj7 [label="HORIZONTAL"];
	Obj28 -> Obj21 [label="HORIZONTAL"];
	Obj21 -> Obj12 [label="HORIZONTAL"];
	Obj8 -> Obj46 [label="HORIZONTAL"];
	Obj17 -> Obj15 [label="UNDER"];
	Obj50 -> Obj5 [label="RSUP"];
	Obj11 -> Obj52 [label="RSUB"];
	Obj37 -> Obj33 [label="HORIZONTAL"];
	Obj22 -> Obj38 [label="HORIZONTAL"];
	Obj13 -> Obj45 [label="HORIZONTAL"];
	Obj33 -> Obj40 [label="RSUB"];
	Obj36 -> Obj3 [label="HORIZONTAL"];
	Obj6 -> Obj37 [label="HORIZONTAL"];
	Obj38 -> Obj10 [label="HORIZONTAL"];
	Obj45 -> Obj6 [label="HORIZONTAL"];
	Obj16 -> Obj4 [label="RSUB"];
	Obj29 -> Obj14 [label="HORIZONTAL"];
	Obj35 -> Obj34 [label="RSUB"];
	Obj15 -> Obj39 [label="HORIZONTAL"];
	Obj43 -> Obj19 [label="HORIZONTAL"];
	Obj3 -> Obj22 [label="HORIZONTAL"];
	Obj46 -> Obj24 [label="UNDER"];
	Obj13 -> Obj26 [label="UPPER"];
	Obj16 -> Obj1 [label="HORIZONTAL"];
	Obj11 -> Obj29 [label="HORIZONTAL"];
	Obj25 -> Obj8 [label="HORIZONTAL"];
	Obj41 -> Obj25 [label="HORIZONTAL"];
	Obj46 -> Obj48 [label="UPPER"];
	Obj42 -> Obj50 [label="HORIZONTAL"];
	Obj14 -> Obj51 [label="HORIZONTAL"];
	Obj35 -> Obj41 [label="HORIZONTAL"];
	Obj10 -> Obj20 [label="HORIZONTAL"];
	Obj50 -> Obj49 [label="RSUB"];
	Obj7 -> Obj32 [label="HORIZONTAL"];
	Obj13 -> Obj47 [label="UNDER"];
	Obj44 -> Obj16 [label="HORIZONTAL"];
	Obj2 -> Obj30 [label="RSUP"];
	Obj19 -> Obj44 [label="HORIZONTAL"];
	Obj31 -> Obj11 [label="HORIZONTAL"];
	
}
