digraph dag {
	rankdir=LR; ranksep=1.0;
	edge[fontsize=13,weight=1]; node[fontsize=13,shape=box]; graph[ordering=out];

	/* NODES (OBJECTS) */
	Obj0 [label="l\nObj0\n42", color = blue];
	Obj1 [label="sum\nObj1\n43", color = blue];
	Obj10 [label="overline\nObj10\n46", color = blue];
	Obj11 [label="two\nObj11\n47", color = blue];
	Obj12 [label="j\nObj12\n44 45", color = blue];
	Obj13 [label="L\nObj13\n28", color = blue];
	Obj14 [label="zero\nObj14\n29", color = blue];
	Obj15 [label="equal\nObj15\n40 41", color = blue];
	Obj16 [label="RightPar\nObj16\n1", color = blue];
	Obj17 [label="l\nObj17\n0", color = blue];
	Obj18 [label="sum\nObj18\n3", color = blue];
	Obj19 [label="comma\nObj19\n2", color = blue];
	Obj2 [label="overline\nObj2\n49", color = blue];
	Obj20 [label="j\nObj20\n4 5", color = blue];
	Obj21 [label="RightPar\nObj21\n7", color = blue];
	Obj22 [label="vert\nObj22\n6", color = blue];
	Obj23 [label="l\nObj23\n9", color = blue];
	Obj24 [label="c\nObj24\n8", color = blue];
	Obj25 [label="LeftPar\nObj25\n13", color = blue];
	Obj26 [label="beta\nObj26\n12", color = blue];
	Obj27 [label="j\nObj27\n14 15", color = blue];
	Obj28 [label="l\nObj28\n11", color = blue];
	Obj29 [label="vert\nObj29\n10", color = blue];
	Obj3 [label="equal\nObj3\n23 24", color = blue];
	Obj30 [label="vert\nObj30\n39", color = blue];
	Obj31 [label="overline\nObj31\n38", color = blue];
	Obj32 [label="alpha\nObj32\n48", color = blue];
	Obj33 [label="l\nObj33\n17", color = blue];
	Obj34 [label="vert\nObj34\n16", color = blue];
	Obj35 [label="infty\nObj35\n33", color = blue];
	Obj36 [label="equal\nObj36\n31 32", color = blue];
	Obj37 [label="LeftPar\nObj37\n30", color = blue];
	Obj38 [label="one\nObj38\n37", color = blue];
	Obj39 [label="equal\nObj39\n35 36", color = blue];
	Obj4 [label="two\nObj4\n25", color = blue];
	Obj40 [label="J\nObj40\n34", color = blue];
	Obj41 [label="one\nObj41\n19", color = blue];
	Obj42 [label="p\nObj42\n18", color = blue];
	Obj5 [label="D\nObj5\n26", color = blue];
	Obj6 [label="b\nObj6\n27", color = blue];
	Obj7 [label="sum\nObj7\n20", color = blue];
	Obj8 [label="r\nObj8\n21", color = blue];
	Obj9 [label="plus\nObj9\n22", color = blue];
	
	/* EDGES (OBJECT RELATIONSHIPS)    */
	Obj40 -> Obj0 [label="RSUB\n(HORIZONTAL)\n",color=red,fontcolor=red,penwidth=3];
	Obj41 -> Obj27 [label="HORIZONTAL\n(_)\n",color=red,fontcolor=red,penwidth=3];
	Obj21 -> Obj3 [label="HORIZONTAL"];
	Obj25 -> Obj29 [label="HORIZONTAL"];
	Obj27 -> Obj39 [label="HORIZONTAL"];
	Obj3 -> Obj7 [label="HORIZONTAL"];
	Obj26 -> Obj33 [label="RSUB"];
	Obj24 -> Obj28 [label="RSUB"];
	Obj22 -> Obj16 [label="HORIZONTAL"];
	Obj18 -> Obj1 [label="HORIZONTAL"];
	Obj36 -> Obj38 [label="HORIZONTAL"];
	Obj26 -> Obj22 [label="HORIZONTAL"];
	Obj18 -> Obj40 [label="UPPER"];
	Obj6 -> Obj15 [label="HORIZONTAL"];
	Obj22 -> Obj11 [label="RSUP"];
	Obj30 -> Obj9 [label="HORIZONTAL"];
	Obj32 -> Obj17 [label="RSUB"];
	Obj8 -> Obj21 [label="HORIZONTAL"];
	Obj18 -> Obj6 [label="UNDER"];
	Obj23 -> Obj36 [label="HORIZONTAL"];
	Obj24 -> Obj18 [label="HORIZONTAL"];
	Obj42 -> Obj31 [label="UPPER"];
	Obj29 -> Obj32 [label="HORIZONTAL"];
	Obj7 -> Obj13 [label="UPPER"];
	Obj42 -> Obj19 [label="PUNC"];
	Obj17 -> Obj12 [label="HORIZONTAL"];
	Obj9 -> Obj34 [label="HORIZONTAL"];
	Obj37 -> Obj42 [label="HORIZONTAL"];
	Obj7 -> Obj23 [label="UNDER"];
	Obj42 -> Obj8 [label="HORIZONTAL"];
	Obj1 -> Obj35 [label="UPPER"];
	Obj39 -> Obj14 [label="HORIZONTAL"];
	Obj33 -> Obj20 [label="HORIZONTAL"];
	Obj7 -> Obj24 [label="HORIZONTAL"];
	Obj15 -> Obj41 [label="HORIZONTAL"];
	Obj32 -> Obj30 [label="HORIZONTAL"];
	Obj26 -> Obj10 [label="UPPER"];
	Obj30 -> Obj4 [label="RSUP"];
	Obj1 -> Obj25 [label="HORIZONTAL"];
	Obj34 -> Obj26 [label="HORIZONTAL"];
	Obj5 -> Obj37 [label="HORIZONTAL"];
	Obj32 -> Obj2 [label="UPPER"];
	
}
