digraph dag {
	rankdir=LR; ranksep=1.0;
	edge[fontsize=13,weight=1]; node[fontsize=13,shape=box]; graph[ordering=out];

	/* NODES (OBJECTS) */
	Obj0 [label="q\nObj0\n11", color = blue];
	Obj1 [label="in\nObj1\n10", color = blue];
	Obj10 [label="LeftPar\nObj10\n6", color = blue];
	Obj11 [label="LeftPar\nObj11\n9", color = blue];
	Obj12 [label="RightPar\nObj12\n8", color = blue];
	Obj2 [label="x\nObj2\n12", color = blue];
	Obj3 [label="p\nObj3\n1", color = blue];
	Obj4 [label="t\nObj4\n0", color = blue];
	Obj5 [label="P\nObj5\n3", color = blue];
	Obj6 [label="s\nObj6\n2", color = blue];
	Obj7 [label="RightPar\nObj7\n5", color = blue];
	Obj8 [label="F\nObj8\n4", color = blue];
	Obj9 [label="N\nObj9\n7", color = blue];
	
	/* EDGES (OBJECT RELATIONSHIPS)    */
	Obj11 -> Obj9 [label="LSUP\n(_)\n",color=red,fontcolor=red,penwidth=3];
	Obj12 -> Obj1 [label="HORIZONTAL"];
	Obj4 -> Obj8 [label="HORIZONTAL"];
	Obj0 -> Obj12 [label="HORIZONTAL"];
	Obj1 -> Obj6 [label="HORIZONTAL"];
	Obj2 -> Obj7 [label="HORIZONTAL"];
	Obj5 -> Obj11 [label="HORIZONTAL"];
	Obj11 -> Obj0 [label="HORIZONTAL"];
	Obj3 -> Obj4 [label="HORIZONTAL"];
	Obj10 -> Obj2 [label="HORIZONTAL"];
	Obj8 -> Obj10 [label="HORIZONTAL"];
	Obj6 -> Obj3 [label="HORIZONTAL"];
	
}
