digraph dag {
	rankdir=LR; ranksep=1.0;
	edge[fontsize=13,weight=1]; node[fontsize=13,shape=box]; graph[ordering=out];

	/* NODES (OBJECTS) */
	Obj0 [label="ldots\nObj0\n56 57 58", color = blue];
	Obj1 [label="S\nObj1\n54", color = blue];
	Obj10 [label="one\nObj10\n66", color = blue];
	Obj11 [label="equal\nObj11\n67 68", color = blue];
	Obj12 [label="m\nObj12\n69", color = blue];
	Obj13 [label="j\nObj13\n34 35", color = blue];
	Obj14 [label="BigLeftPar\nObj14\n24", color = blue];
	Obj15 [label="i\nObj15\n25 26", color = blue];
	Obj16 [label="z\nObj16\n27", color = blue];
	Obj17 [label="z\nObj17\n20", color = blue];
	Obj18 [label="z\nObj18\n48", color = blue];
	Obj19 [label="minus\nObj19\n46", color = blue];
	Obj2 [label="BigRightPar\nObj2\n42", color = blue];
	Obj20 [label="hat\nObj20\n47", color = blue];
	Obj21 [label="one\nObj21\n44", color = blue];
	Obj22 [label="P\nObj22\n45", color = blue];
	Obj23 [label="m\nObj23\n28", color = blue];
	Obj24 [label="MiddleRightPar\nObj24\n29", color = blue];
	Obj25 [label="plus\nObj25\n40", color = blue];
	Obj26 [label="vert\nObj26\n41", color = blue];
	Obj27 [label="i\nObj27\n0 1", color = blue];
	Obj28 [label="minus\nObj28\n3", color = blue];
	Obj29 [label="z\nObj29\n2", color = blue];
	Obj3 [label="ldots\nObj3\n21 22 23", color = blue];
	Obj30 [label="ldots\nObj30\n4 5 6", color = blue];
	Obj31 [label="j\nObj31\n7 8", color = blue];
	Obj32 [label="MiddleLeftPar\nObj32\n9", color = blue];
	Obj33 [label="zero\nObj33\n13", color = blue];
	Obj34 [label="z\nObj34\n65", color = blue];
	Obj35 [label="z\nObj35\n38", color = blue];
	Obj36 [label="one\nObj36\n70", color = blue];
	Obj37 [label="in\nObj37\n59", color = blue];
	Obj38 [label="ldots\nObj38\n10 11 12", color = blue];
	Obj39 [label="p\nObj39\n39", color = blue];
	Obj4 [label="z\nObj4\n43", color = blue];
	Obj40 [label="alpha\nObj40\n15", color = blue];
	Obj41 [label="plus\nObj41\n14", color = blue];
	Obj42 [label="ldots\nObj42\n16 17 18", color = blue];
	Obj43 [label="zero\nObj43\n19", color = blue];
	Obj44 [label="i\nObj44\n31 32", color = blue];
	Obj45 [label="C\nObj45\n30", color = blue];
	Obj46 [label="ldots\nObj46\n50 51 52", color = blue];
	Obj47 [label="X\nObj47\n36", color = blue];
	Obj48 [label="hat\nObj48\n53", color = blue];
	Obj49 [label="m\nObj49\n33", color = blue];
	Obj5 [label="j\nObj5\n60 61", color = blue];
	Obj50 [label="in\nObj50\n55", color = blue];
	Obj51 [label="comma\nObj51\n37", color = blue];
	Obj6 [label="z\nObj6\n62", color = blue];
	Obj7 [label="m\nObj7\n63", color = blue];
	Obj8 [label="BigRightPar\nObj8\n64", color = blue];
	Obj9 [label="BigLeftPar\nObj9\n49", color = blue];
	
	/* EDGES (OBJECT RELATIONSHIPS)    */
	Obj44 -> Obj38 [label="HORIZONTAL\n(_)\n",color=red,fontcolor=red,penwidth=3];
	Obj43 -> Obj3 [label="HORIZONTAL\n(_)\n",color=red,fontcolor=red,penwidth=3];
	Obj31 -> Obj0 [label="HORIZONTAL\n(_)\n",color=red,fontcolor=red,penwidth=3];
	Obj33 -> Obj42 [label="HORIZONTAL\n(_)\n",color=red,fontcolor=red,penwidth=3];
	Obj27 -> Obj46 [label="HORIZONTAL\n(_)\n",color=red,fontcolor=red,penwidth=3];
	Obj47 -> Obj28 [label="HORIZONTAL"];
	Obj4 -> Obj6 [label="HORIZONTAL"];
	Obj47 -> Obj7 [label="RSUB"];
	Obj7 -> Obj39 [label="HORIZONTAL"];
	Obj25 -> Obj36 [label="HORIZONTAL"];
	Obj17 -> Obj34 [label="HORIZONTAL"];
	Obj4 -> Obj27 [label="RSUB"];
	Obj34 -> Obj48 [label="UPPER"];
	Obj18 -> Obj49 [label="RSUB"];
	Obj1 -> Obj26 [label="HORIZONTAL"];
	Obj49 -> Obj41 [label="HORIZONTAL"];
	Obj17 -> Obj33 [label="RSUB"];
	Obj15 -> Obj13 [label="HORIZONTAL"];
	Obj8 -> Obj11 [label="HORIZONTAL"];
	Obj16 -> Obj43 [label="RSUB"];
	Obj35 -> Obj5 [label="RSUB"];
	Obj18 -> Obj8 [label="HORIZONTAL"];
	Obj9 -> Obj17 [label="HORIZONTAL"];
	Obj14 -> Obj16 [label="HORIZONTAL"];
	Obj19 -> Obj21 [label="HORIZONTAL"];
	Obj35 -> Obj20 [label="UPPER"];
	Obj34 -> Obj44 [label="RSUB"];
	Obj1 -> Obj15 [label="RSUB"];
	Obj32 -> Obj14 [label="HORIZONTAL"];
	Obj34 -> Obj35 [label="HORIZONTAL"];
	Obj26 -> Obj9 [label="HORIZONTAL"];
	Obj16 -> Obj4 [label="HORIZONTAL"];
	Obj7 -> Obj51 [label="PUNC"];
	Obj45 -> Obj22 [label="HORIZONTAL"];
	Obj29 -> Obj12 [label="RSUB"];
	Obj22 -> Obj23 [label="RSUP"];
	Obj11 -> Obj40 [label="HORIZONTAL"];
	Obj35 -> Obj18 [label="HORIZONTAL"];
	Obj35 -> Obj30 [label="PUNC"];
	Obj6 -> Obj31 [label="RSUB"];
	Obj2 -> Obj37 [label="HORIZONTAL"];
	Obj29 -> Obj2 [label="HORIZONTAL"];
	Obj37 -> Obj47 [label="HORIZONTAL"];
	Obj50 -> Obj45 [label="HORIZONTAL"];
	Obj28 -> Obj1 [label="HORIZONTAL"];
	Obj12 -> Obj25 [label="HORIZONTAL"];
	Obj23 -> Obj19 [label="HORIZONTAL"];
	Obj41 -> Obj10 [label="HORIZONTAL"];
	Obj22 -> Obj24 [label="HORIZONTAL"];
	Obj40 -> Obj50 [label="HORIZONTAL"];
	Obj6 -> Obj29 [label="HORIZONTAL"];
	
}
