digraph dag {
	rankdir=LR; ranksep=1.0;
	edge[fontsize=13,weight=1]; node[fontsize=13,shape=box]; graph[ordering=out];

	/* NODES (OBJECTS) */
	Obj0 [label="minus\nObj0\n42", color = blue];
	Obj1 [label="equal\nObj1\n43 44", color = blue];
	Obj10 [label="one\nObj10\n45", color = blue];
	Obj11 [label="m\nObj11\n28", color = blue];
	Obj12 [label="minus\nObj12\n29", color = blue];
	Obj13 [label="equal\nObj13\n39 40", color = blue];
	Obj14 [label="partial\nObj14\n41", color = blue];
	Obj15 [label="M\nObj15\n1", color = blue];
	Obj16 [label="one\nObj16\n0", color = blue];
	Obj17 [label="k\nObj17\n3", color = blue];
	Obj18 [label="one\nObj18\n2", color = blue];
	Obj19 [label="k\nObj19\n5", color = blue];
	Obj2 [label="one\nObj2\n24", color = blue];
	Obj20 [label="minus\nObj20\n4", color = blue];
	Obj21 [label="k\nObj21\n7", color = blue];
	Obj22 [label="omega\nObj22\n6", color = blue];
	Obj23 [label="int\nObj23\n9", color = blue];
	Obj24 [label="fractionalLine\nObj24\n8", color = blue];
	Obj25 [label="sqrt\nObj25\n13", color = blue];
	Obj26 [label="phi\nObj26\n38", color = blue];
	Obj27 [label="phi\nObj27\n11", color = blue];
	Obj28 [label="zero\nObj28\n10", color = blue];
	Obj29 [label="m\nObj29\n12", color = blue];
	Obj3 [label="zero\nObj3\n25", color = blue];
	Obj30 [label="wedge\nObj30\n15", color = blue];
	Obj31 [label="RightPar\nObj31\n14", color = blue];
	Obj32 [label="LeftPar\nObj32\n17", color = blue];
	Obj33 [label="V\nObj33\n16", color = blue];
	Obj34 [label="wedge\nObj34\n33", color = blue];
	Obj35 [label="fractionalLine\nObj35\n18", color = blue];
	Obj36 [label="wedge\nObj36\n31", color = blue];
	Obj37 [label="omega\nObj37\n30", color = blue];
	Obj38 [label="plus\nObj38\n37", color = blue];
	Obj39 [label="partial\nObj39\n36", color = blue];
	Obj4 [label="LeftPar\nObj4\n26", color = blue];
	Obj40 [label="minus\nObj40\n35", color = blue];
	Obj41 [label="minus\nObj41\n34", color = blue];
	Obj42 [label="k\nObj42\n19", color = blue];
	Obj43 [label="overline\nObj43\n32", color = blue];
	Obj5 [label="sum\nObj5\n27", color = blue];
	Obj6 [label="m\nObj6\n20", color = blue];
	Obj7 [label="m\nObj7\n21", color = blue];
	Obj8 [label="m\nObj8\n22", color = blue];
	Obj9 [label="RightPar\nObj9\n23", color = blue];
	
	/* EDGES (OBJECT RELATIONSHIPS)    */
	Obj16 -> Obj31 [label="HORIZONTAL\n(_)\n",color=red,fontcolor=red,penwidth=3];
	Obj24 -> Obj8 [label="UNDER"];
	Obj8 -> Obj38 [label="HORIZONTAL"];
	Obj39 -> Obj27 [label="HORIZONTAL"];
	Obj5 -> Obj11 [label="UPPER"];
	Obj13 -> Obj35 [label="HORIZONTAL"];
	Obj35 -> Obj23 [label="HORIZONTAL"];
	Obj4 -> Obj25 [label="HORIZONTAL"];
	Obj22 -> Obj3 [label="RSUB"];
	Obj24 -> Obj7 [label="UPPER"];
	Obj22 -> Obj30 [label="HORIZONTAL"];
	Obj22 -> Obj29 [label="RSUP"];
	Obj11 -> Obj12 [label="HORIZONTAL"];
	Obj12 -> Obj10 [label="HORIZONTAL"];
	Obj36 -> Obj39 [label="HORIZONTAL"];
	Obj5 -> Obj19 [label="UNDER"];
	Obj26 -> Obj36 [label="HORIZONTAL"];
	Obj39 -> Obj43 [label="UPPER"];
	Obj23 -> Obj14 [label="HORIZONTAL"];
	Obj35 -> Obj4 [label="UPPER"];
	Obj38 -> Obj18 [label="HORIZONTAL"];
	Obj27 -> Obj34 [label="HORIZONTAL"];
	Obj5 -> Obj24 [label="HORIZONTAL"];
	Obj31 -> Obj6 [label="RSUP"];
	Obj42 -> Obj40 [label="HORIZONTAL"];
	Obj14 -> Obj26 [label="HORIZONTAL"];
	Obj20 -> Obj16 [label="HORIZONTAL"];
	Obj41 -> Obj42 [label="HORIZONTAL"];
	Obj23 -> Obj15 [label="UNDER"];
	Obj24 -> Obj22 [label="HORIZONTAL"];
	Obj35 -> Obj33 [label="UNDER"];
	Obj0 -> Obj21 [label="HORIZONTAL"];
	Obj37 -> Obj17 [label="RSUP"];
	Obj34 -> Obj32 [label="HORIZONTAL"];
	Obj40 -> Obj2 [label="HORIZONTAL"];
	Obj32 -> Obj5 [label="HORIZONTAL"];
	Obj37 -> Obj9 [label="HORIZONTAL"];
	Obj30 -> Obj37 [label="HORIZONTAL"];
	Obj29 -> Obj41 [label="HORIZONTAL"];
	Obj19 -> Obj1 [label="HORIZONTAL"];
	Obj25 -> Obj20 [label="UNDER"];
	Obj1 -> Obj28 [label="HORIZONTAL"];
	Obj7 -> Obj0 [label="HORIZONTAL"];
	
}
