digraph dag {
	rankdir=LR; ranksep=1.0;
	edge[fontsize=13,weight=1]; node[fontsize=13,shape=box]; graph[ordering=out];

	/* NODES (OBJECTS) */
	Obj0 [label="one\nObj0\n10", color = blue];
	Obj1 [label="w\nObj1\n1", color = blue];
	Obj2 [label="two\nObj2\n0", color = blue];
	Obj3 [label="equal\nObj3\n3 4", color = blue];
	Obj4 [label="w\nObj4\n2", color = blue];
	Obj5 [label="sqrt\nObj5\n5", color = blue];
	Obj6 [label="w\nObj6\n7", color = blue];
	Obj7 [label="prime\nObj7\n6", color = blue];
	Obj8 [label="two\nObj8\n9", color = blue];
	Obj9 [label="two\nObj9\n8", color = blue];
	
	/* EDGES (OBJECT RELATIONSHIPS)    */
	Obj2 -> Obj1 [label="HORIZONTAL\n(_)\n",color=red,fontcolor=red,penwidth=3];
	Obj1 -> Obj0 [label="RSUB"];
	Obj6 -> Obj7 [label="RSUP"];
	Obj1 -> Obj4 [label="HORIZONTAL"];
	Obj6 -> Obj3 [label="HORIZONTAL"];
	Obj5 -> Obj2 [label="UNDER"];
	Obj3 -> Obj5 [label="HORIZONTAL"];
	Obj4 -> Obj9 [label="RSUB"];
	Obj6 -> Obj8 [label="RSUB"];
	
}
