digraph dag {
	rankdir=LR; ranksep=1.0;
	edge[fontsize=13,weight=1]; node[fontsize=13,shape=box]; graph[ordering=out];

	/* NODES (OBJECTS) */
	Obj0 [label="t\nObj0\n24", color = blue];
	Obj1 [label="E\nObj1\n25", color = blue];
	Obj10 [label="LeftPar\nObj10\n0", color = blue];
	Obj11 [label="zero\nObj11\n3", color = blue];
	Obj12 [label="int\nObj12\n2", color = blue];
	Obj13 [label="LeftPar\nObj13\n5", color = blue];
	Obj14 [label="t\nObj14\n4", color = blue];
	Obj15 [label="d\nObj15\n7", color = blue];
	Obj16 [label="t\nObj16\n6", color = blue];
	Obj17 [label="D\nObj17\n9", color = blue];
	Obj18 [label="four\nObj18\n8", color = blue];
	Obj19 [label="LeftPar\nObj19\n11", color = blue];
	Obj2 [label="r\nObj2\n26", color = blue];
	Obj20 [label="RightPar\nObj20\n10", color = blue];
	Obj21 [label="r\nObj21\n13", color = blue];
	Obj22 [label="d\nObj22\n12", color = blue];
	Obj23 [label="RightPar\nObj23\n15", color = blue];
	Obj24 [label="RightPar\nObj24\n14", color = blue];
	Obj25 [label="t\nObj25\n17", color = blue];
	Obj26 [label="zero\nObj26\n16", color = blue];
	Obj27 [label="plus\nObj27\n19", color = blue];
	Obj28 [label="RightPar\nObj28\n18", color = blue];
	Obj3 [label="leq\nObj3\n27 28", color = blue];
	Obj4 [label="one\nObj4\n20", color = blue];
	Obj5 [label="t\nObj5\n21", color = blue];
	Obj6 [label="fractionalLine\nObj6\n22", color = blue];
	Obj7 [label="LeftPar\nObj7\n23", color = blue];
	Obj8 [label="two\nObj8\n29", color = blue];
	Obj9 [label="E\nObj9\n1", color = blue];
	
	/* EDGES (OBJECT RELATIONSHIPS)    */
	Obj6 -> Obj4 [label="PUNC\n(_)\n",color=red,fontcolor=red,penwidth=3];
	Obj17 -> Obj13 [label="HORIZONTAL"];
	Obj13 -> Obj0 [label="HORIZONTAL"];
	Obj20 -> Obj27 [label="HORIZONTAL"];
	Obj6 -> Obj24 [label="HORIZONTAL"];
	Obj0 -> Obj28 [label="HORIZONTAL"];
	Obj24 -> Obj15 [label="HORIZONTAL"];
	Obj22 -> Obj11 [label="RSUB"];
	Obj16 -> Obj23 [label="HORIZONTAL"];
	Obj2 -> Obj12 [label="HORIZONTAL"];
	Obj9 -> Obj10 [label="HORIZONTAL"];
	Obj12 -> Obj21 [label="RSUP"];
	Obj12 -> Obj7 [label="HORIZONTAL"];
	Obj1 -> Obj19 [label="HORIZONTAL"];
	Obj22 -> Obj2 [label="HORIZONTAL"];
	Obj1 -> Obj8 [label="RSUB"];
	Obj6 -> Obj9 [label="UPPER"];
	Obj3 -> Obj18 [label="HORIZONTAL"];
	Obj5 -> Obj20 [label="HORIZONTAL"];
	Obj27 -> Obj1 [label="HORIZONTAL"];
	Obj10 -> Obj5 [label="HORIZONTAL"];
	Obj14 -> Obj17 [label="HORIZONTAL"];
	Obj12 -> Obj26 [label="RSUB"];
	Obj15 -> Obj25 [label="HORIZONTAL"];
	Obj7 -> Obj6 [label="HORIZONTAL"];
	Obj19 -> Obj16 [label="HORIZONTAL"];
	Obj18 -> Obj22 [label="HORIZONTAL"];
	Obj6 -> Obj14 [label="UNDER"];
	
}
