digraph dag {
	rankdir=LR; ranksep=1.0;
	edge[fontsize=13,weight=1]; node[fontsize=13,shape=box]; graph[ordering=out];

	/* NODES (OBJECTS) */
	Obj0 [label="equal\nObj0\n0 1", color = blue];
	Obj1 [label="BigRightPar\nObj1\n3", color = blue];
	Obj2 [label="BigLeftPar\nObj2\n2", color = blue];
	Obj3 [label="tau\nObj3\n5", color = blue];
	Obj4 [label="LeftPar\nObj4\n4", color = blue];
	Obj5 [label="l\nObj5\n7", color = blue];
	Obj6 [label="f\nObj6\n6", color = blue];
	Obj7 [label="one\nObj7\n9", color = blue];
	Obj8 [label="RightPar\nObj8\n8", color = blue];
	
	/* EDGES (OBJECT RELATIONSHIPS)    */
	Obj6 -> Obj5 [label="HORIZONTAL\n(_)\n",color=red,fontcolor=red,penwidth=3];
	Obj6 -> Obj4 [label="RSUB\n(HORIZONTAL)\n",color=red,fontcolor=red,penwidth=3];
	Obj0 -> Obj3 [label="HORIZONTAL"];
	Obj1 -> Obj0 [label="HORIZONTAL"];
	Obj8 -> Obj1 [label="HORIZONTAL"];
	Obj5 -> Obj8 [label="HORIZONTAL"];
	Obj5 -> Obj7 [label="RSUB"];
	Obj2 -> Obj6 [label="HORIZONTAL"];
	
}
