digraph dag {
	rankdir=LR; ranksep=1.0;
	edge[fontsize=13,weight=1]; node[fontsize=13,shape=box]; graph[ordering=out];

	/* NODES (OBJECTS) */
	Obj0 [label="a\nObj0\n10", color = blue];
	Obj1 [label="a\nObj1\n1", color = blue];
	Obj10 [label="one\nObj10\n8", color = blue];
	Obj2 [label="three\nObj2\n0", color = blue];
	Obj3 [label="two\nObj3\n3", color = blue];
	Obj4 [label="comma\nObj4\n2", color = blue];
	Obj5 [label="prime\nObj5\n5", color = blue];
	Obj6 [label="a\nObj6\n4", color = blue];
	Obj7 [label="prime\nObj7\n7", color = blue];
	Obj8 [label="comma\nObj8\n6", color = blue];
	Obj9 [label="prime\nObj9\n9", color = blue];
	
	/* EDGES (OBJECT RELATIONSHIPS)    */
	Obj3 -> Obj4 [label="HORIZONTAL\n(_)\n",color=red,fontcolor=red,penwidth=3];
	Obj0 -> Obj3 [label="RSUB"];
	Obj6 -> Obj0 [label="HORIZONTAL"];
	Obj6 -> Obj10 [label="RSUB"];
	Obj6 -> Obj5 [label="RSUP"];
	Obj0 -> Obj7 [label="RSUP"];
	Obj1 -> Obj2 [label="RSUB"];
	Obj1 -> Obj9 [label="RSUP"];
	Obj0 -> Obj1 [label="HORIZONTAL"];
	Obj6 -> Obj8 [label="PUNC"];
	
}
