digraph dag {
	rankdir=LR; ranksep=1.0;
	edge[fontsize=13,weight=1]; node[fontsize=13,shape=box]; graph[ordering=out];

	/* NODES (OBJECTS) */
	Obj0 [label="RightPar\nObj0\n28", color = blue];
	Obj1 [label="i\nObj1\n42 43", color = blue];
	Obj10 [label="minus\nObj10\n41", color = blue];
	Obj11 [label="colon\nObj11\n1 2", color = blue];
	Obj12 [label="y\nObj12\n0", color = blue];
	Obj13 [label="RightPar\nObj13\n3", color = blue];
	Obj14 [label="RightPar\nObj14\n5", color = blue];
	Obj15 [label="G\nObj15\n4", color = blue];
	Obj16 [label="equal\nObj16\n7 8", color = blue];
	Obj17 [label="RightPar\nObj17\n6", color = blue];
	Obj18 [label="x\nObj18\n9", color = blue];
	Obj19 [label="minus\nObj19\n39", color = blue];
	Obj2 [label="LeftPar\nObj2\n24", color = blue];
	Obj20 [label="LeftPar\nObj20\n38", color = blue];
	Obj21 [label="one\nObj21\n11", color = blue];
	Obj22 [label="comma\nObj22\n10", color = blue];
	Obj23 [label="LeftPar\nObj23\n13", color = blue];
	Obj24 [label="MiddleRightPar\nObj24\n12", color = blue];
	Obj25 [label="MiddleLeftPar\nObj25\n15", color = blue];
	Obj26 [label="W\nObj26\n14", color = blue];
	Obj27 [label="equal\nObj27\n16 17", color = blue];
	Obj28 [label="zero\nObj28\n33", color = blue];
	Obj29 [label="in\nObj29\n32", color = blue];
	Obj3 [label="one\nObj3\n25", color = blue];
	Obj30 [label="i\nObj30\n30 31", color = blue];
	Obj31 [label="LeftPar\nObj31\n37", color = blue];
	Obj32 [label="f\nObj32\n36", color = blue];
	Obj33 [label="y\nObj33\n35", color = blue];
	Obj34 [label="LeftPar\nObj34\n34", color = blue];
	Obj35 [label="i\nObj35\n18 19", color = blue];
	Obj4 [label="RightPar\nObj4\n26", color = blue];
	Obj5 [label="one\nObj5\n27", color = blue];
	Obj6 [label="i\nObj6\n20 21", color = blue];
	Obj7 [label="greater\nObj7\n22 23", color = blue];
	Obj8 [label="x\nObj8\n29", color = blue];
	Obj9 [label="comma\nObj9\n40", color = blue];
	
	/* EDGES (OBJECT RELATIONSHIPS)    */
	Obj35 -> Obj32 [label="RSUB\n(_)\n",color=red,fontcolor=red,penwidth=3];
	Obj5 -> Obj4 [label="HORIZONTAL"];
	Obj8 -> Obj9 [label="PUNC"];
	Obj13 -> Obj29 [label="HORIZONTAL"];
	Obj12 -> Obj7 [label="HORIZONTAL"];
	Obj17 -> Obj6 [label="RSUP"];
	Obj32 -> Obj23 [label="HORIZONTAL"];
	Obj17 -> Obj12 [label="HORIZONTAL"];
	Obj31 -> Obj8 [label="HORIZONTAL"];
	Obj11 -> Obj20 [label="HORIZONTAL"];
	Obj34 -> Obj1 [label="HORIZONTAL"];
	Obj29 -> Obj26 [label="HORIZONTAL"];
	Obj1 -> Obj27 [label="HORIZONTAL"];
	Obj19 -> Obj21 [label="HORIZONTAL"];
	Obj24 -> Obj34 [label="HORIZONTAL"];
	Obj21 -> Obj17 [label="HORIZONTAL"];
	Obj15 -> Obj16 [label="HORIZONTAL"];
	Obj28 -> Obj22 [label="PUNC"];
	Obj10 -> Obj5 [label="HORIZONTAL"];
	Obj25 -> Obj31 [label="HORIZONTAL"];
	Obj20 -> Obj19 [label="HORIZONTAL"];
	Obj26 -> Obj11 [label="HORIZONTAL"];
	Obj15 -> Obj30 [label="RSUB"];
	Obj23 -> Obj18 [label="HORIZONTAL"];
	Obj4 -> Obj35 [label="RSUP"];
	Obj3 -> Obj14 [label="HORIZONTAL"];
	Obj2 -> Obj10 [label="HORIZONTAL"];
	Obj28 -> Obj3 [label="HORIZONTAL"];
	Obj16 -> Obj25 [label="HORIZONTAL"];
	Obj18 -> Obj0 [label="HORIZONTAL"];
	Obj0 -> Obj24 [label="HORIZONTAL"];
	Obj7 -> Obj2 [label="HORIZONTAL"];
	Obj33 -> Obj13 [label="HORIZONTAL"];
	Obj8 -> Obj33 [label="HORIZONTAL"];
	Obj27 -> Obj28 [label="HORIZONTAL"];
	
}
