digraph dag {
	rankdir=LR; ranksep=1.0;
	edge[fontsize=13,weight=1]; node[fontsize=13,shape=box]; graph[ordering=out];

	/* NODES (OBJECTS) */
	Obj0 [label="LeftPar\nObj0\n11", color = blue];
	Obj1 [label="RightPar\nObj1\n10", color = blue];
	Obj10 [label="prime\nObj10\n3", color = blue];
	Obj11 [label="f\nObj11\n2", color = blue];
	Obj12 [label="RightPar\nObj12\n5", color = blue];
	Obj13 [label="f\nObj13\n4", color = blue];
	Obj14 [label="T\nObj14\n7", color = blue];
	Obj15 [label="H\nObj15\n6", color = blue];
	Obj16 [label="f\nObj16\n8 9", color = blue];
	Obj2 [label="LeftPar\nObj2\n13", color = blue];
	Obj3 [label="H\nObj3\n12", color = blue];
	Obj4 [label="equal\nObj4\n14 15", color = blue];
	Obj5 [label="two\nObj5\n17 18", color = blue];
	Obj6 [label="LeftPar\nObj6\n16", color = blue];
	Obj7 [label="H\nObj7\n19", color = blue];
	Obj8 [label="RightPar\nObj8\n1", color = blue];
	Obj9 [label="T\nObj9\n0", color = blue];
	
	/* EDGES (OBJECT RELATIONSHIPS)    */
	Obj16 -> Obj3 [label="HORIZONTAL\n(RSUB)\n",color=red,fontcolor=red,penwidth=3];
	Obj3 -> Obj0 [label="RSUP\n(_)\n",color=red,fontcolor=red,penwidth=3];
	Obj8 -> Obj1 [label="HORIZONTAL"];
	Obj14 -> Obj8 [label="HORIZONTAL"];
	Obj7 -> Obj10 [label="RSUP"];
	Obj4 -> Obj11 [label="HORIZONTAL"];
	Obj13 -> Obj15 [label="RSUB"];
	Obj2 -> Obj16 [label="HORIZONTAL"];
	Obj11 -> Obj2 [label="HORIZONTAL"];
	Obj12 -> Obj4 [label="HORIZONTAL"];
	Obj13 -> Obj6 [label="HORIZONTAL"];
	Obj0 -> Obj14 [label="HORIZONTAL"];
	Obj9 -> Obj12 [label="HORIZONTAL"];
	Obj11 -> Obj7 [label="RSUB"];
	Obj6 -> Obj9 [label="HORIZONTAL"];
	Obj3 -> Obj5 [label="RSUB"];
	
}
