digraph dag {
	rankdir=LR; ranksep=1.0;
	edge[fontsize=13,weight=1]; node[fontsize=13,shape=box]; graph[ordering=out];

	/* NODES (OBJECTS) */
	Obj0 [label="LeftPar\nObj0\n11", color = blue];
	Obj1 [label="RightPar\nObj1\n10", color = blue];
	Obj10 [label="q\nObj10\n6", color = blue];
	Obj11 [label="slash\nObj11\n9", color = blue];
	Obj12 [label="p\nObj12\n8", color = blue];
	Obj2 [label="N\nObj2\n13", color = blue];
	Obj3 [label="comma\nObj3\n12", color = blue];
	Obj4 [label="comma\nObj4\n15", color = blue];
	Obj5 [label="one\nObj5\n14", color = blue];
	Obj6 [label="equal\nObj6\n1 2", color = blue];
	Obj7 [label="p\nObj7\n0", color = blue];
	Obj8 [label="ldots\nObj8\n3 4 5", color = blue];
	Obj9 [label="f\nObj9\n7", color = blue];
	
	/* EDGES (OBJECT RELATIONSHIPS)    */
	Obj3 -> Obj7 [label="HORIZONTAL\n(_)\n",color=red,fontcolor=red,penwidth=3];
	Obj4 -> Obj8 [label="HORIZONTAL"];
	Obj11 -> Obj10 [label="HORIZONTAL"];
	Obj6 -> Obj0 [label="HORIZONTAL"];
	Obj8 -> Obj3 [label="HORIZONTAL"];
	Obj1 -> Obj11 [label="HORIZONTAL"];
	Obj7 -> Obj1 [label="HORIZONTAL"];
	Obj7 -> Obj2 [label="RSUB"];
	Obj12 -> Obj5 [label="RSUB"];
	Obj9 -> Obj6 [label="HORIZONTAL"];
	Obj12 -> Obj4 [label="PUNC"];
	Obj0 -> Obj12 [label="HORIZONTAL"];
	
}
