digraph dag {
	rankdir=LR; ranksep=1.0;
	edge[fontsize=13,weight=1]; node[fontsize=13,shape=box]; graph[ordering=out];

	/* NODES (OBJECTS) */
	Obj0 [label="three\nObj0\n24", color = blue];
	Obj1 [label="plus\nObj1\n25", color = blue];
	Obj10 [label="c\nObj10\n3", color = blue];
	Obj11 [label="LeftPar\nObj11\n2", color = blue];
	Obj12 [label="j\nObj12\n5 6", color = blue];
	Obj13 [label="y\nObj13\n4", color = blue];
	Obj14 [label="one\nObj14\n7", color = blue];
	Obj15 [label="c\nObj15\n9", color = blue];
	Obj16 [label="minus\nObj16\n8", color = blue];
	Obj17 [label="b\nObj17\n11", color = blue];
	Obj18 [label="alpha\nObj18\n10", color = blue];
	Obj19 [label="j\nObj19\n12 13", color = blue];
	Obj2 [label="equal\nObj2\n26 27", color = blue];
	Obj20 [label="x\nObj20\n15", color = blue];
	Obj21 [label="t\nObj21\n14", color = blue];
	Obj22 [label="minus\nObj22\n17", color = blue];
	Obj23 [label="one\nObj23\n16", color = blue];
	Obj24 [label="RightPar\nObj24\n19", color = blue];
	Obj25 [label="a\nObj25\n18", color = blue];
	Obj26 [label="z\nObj26\n31", color = blue];
	Obj27 [label="RightPar\nObj27\n30", color = blue];
	Obj28 [label="alpha\nObj28\n37", color = blue];
	Obj29 [label="alpha\nObj29\n36", color = blue];
	Obj3 [label="alpha\nObj3\n20", color = blue];
	Obj30 [label="LeftPar\nObj30\n35", color = blue];
	Obj31 [label="y\nObj31\n34", color = blue];
	Obj32 [label="minus\nObj32\n33", color = blue];
	Obj33 [label="b\nObj33\n32", color = blue];
	Obj4 [label="zero\nObj4\n21", color = blue];
	Obj5 [label="slash\nObj5\n22", color = blue];
	Obj6 [label="one\nObj6\n23", color = blue];
	Obj7 [label="j\nObj7\n28 29", color = blue];
	Obj8 [label="two\nObj8\n1", color = blue];
	Obj9 [label="sum\nObj9\n0", color = blue];
	
	/* EDGES (OBJECT RELATIONSHIPS)    */
	Obj27 -> Obj2 [label="HORIZONTAL\n(_)\n",color=red,fontcolor=red,penwidth=3];
	Obj7 -> Obj20 [label="HORIZONTAL\n(_)\n",color=red,fontcolor=red,penwidth=3];
	Obj10 -> Obj16 [label="HORIZONTAL"];
	Obj31 -> Obj29 [label="RSUP"];
	Obj18 -> Obj0 [label="RSUB"];
	Obj1 -> Obj26 [label="HORIZONTAL"];
	Obj26 -> Obj13 [label="HORIZONTAL"];
	Obj12 -> Obj22 [label="HORIZONTAL"];
	Obj2 -> Obj4 [label="HORIZONTAL"];
	Obj13 -> Obj3 [label="RSUP"];
	Obj28 -> Obj8 [label="RSUB"];
	Obj20 -> Obj31 [label="HORIZONTAL"];
	Obj3 -> Obj11 [label="HORIZONTAL"];
	Obj21 -> Obj1 [label="HORIZONTAL"];
	Obj24 -> Obj17 [label="HORIZONTAL"];
	Obj33 -> Obj27 [label="HORIZONTAL"];
	Obj16 -> Obj33 [label="HORIZONTAL"];
	Obj30 -> Obj12 [label="HORIZONTAL"];
	Obj20 -> Obj19 [label="RSUP"];
	Obj22 -> Obj23 [label="HORIZONTAL"];
	Obj17 -> Obj5 [label="HORIZONTAL"];
	Obj32 -> Obj21 [label="HORIZONTAL"];
	Obj26 -> Obj18 [label="RSUP"];
	Obj15 -> Obj7 [label="RSUB"];
	Obj31 -> Obj32 [label="HORIZONTAL"];
	Obj29 -> Obj6 [label="RSUB"];
	Obj3 -> Obj14 [label="RSUB"];
	Obj5 -> Obj25 [label="HORIZONTAL"];
	Obj11 -> Obj10 [label="HORIZONTAL"];
	Obj21 -> Obj28 [label="RSUP"];
	Obj9 -> Obj15 [label="HORIZONTAL"];
	Obj23 -> Obj24 [label="HORIZONTAL"];
	Obj29 -> Obj30 [label="HORIZONTAL"];
	
}
