digraph dag {
	rankdir=LR; ranksep=1.0;
	edge[fontsize=13,weight=1]; node[fontsize=13,shape=box]; graph[ordering=out];

	/* NODES (OBJECTS) */
	Obj0 [label="ast\nObj0\n11", color = blue];
	Obj1 [label="equal\nObj1\n10 9", color = blue];
	Obj2 [label="lambda\nObj2\n12 13 14", color = blue];
	Obj3 [label="langle\nObj3\n1 2", color = blue];
	Obj4 [label="rangle\nObj4\n0", color = blue];
	Obj5 [label="lambda\nObj5\n3 4 5 6", color = blue];
	Obj6 [label="langle\nObj6\n7", color = blue];
	Obj7 [label="rangle\nObj7\n8", color = blue];
	
	/* EDGES (OBJECT RELATIONSHIPS)    */
	Obj5 -> Obj0 [label="RSUP\n(HORIZONTAL)\n",color=red,fontcolor=red,penwidth=3];
	Obj5 -> Obj7 [label="HORIZONTAL\n(_)\n",color=red,fontcolor=red,penwidth=3];
	Obj1 -> Obj6 [label="HORIZONTAL"];
	Obj6 -> Obj5 [label="HORIZONTAL"];
	Obj3 -> Obj2 [label="HORIZONTAL"];
	Obj4 -> Obj1 [label="HORIZONTAL"];
	Obj2 -> Obj4 [label="HORIZONTAL"];
	
}
