digraph dag {
	rankdir=LR; ranksep=1.0;
	edge[fontsize=13,weight=1]; node[fontsize=13,shape=box]; graph[ordering=out];

	/* NODES (OBJECTS) */
	Obj0 [label="varphi\nObj0\n10", color = blue];
	Obj1 [label="colon\nObj1\n1 2", color = blue];
	Obj2 [label="rightarrow\nObj2\n0", color = blue];
	Obj3 [label="langle\nObj3\n3", color = blue];
	Obj4 [label="one\nObj4\n5", color = blue];
	Obj5 [label="one\nObj5\n4", color = blue];
	Obj6 [label="minus\nObj6\n7", color = blue];
	Obj7 [label="S\nObj7\n6", color = blue];
	Obj8 [label="varphi\nObj8\n9", color = blue];
	Obj9 [label="rangle\nObj9\n8", color = blue];
	
	/* EDGES (OBJECT RELATIONSHIPS)    */
	Obj5 -> Obj1 [label="HORIZONTAL\n(_)\n",color=red,fontcolor=red,penwidth=3];
	Obj9 -> Obj2 [label="HORIZONTAL"];
	Obj3 -> Obj8 [label="HORIZONTAL"];
	Obj8 -> Obj9 [label="HORIZONTAL"];
	Obj6 -> Obj5 [label="HORIZONTAL"];
	Obj2 -> Obj7 [label="HORIZONTAL"];
	Obj0 -> Obj6 [label="RSUP"];
	Obj1 -> Obj3 [label="HORIZONTAL"];
	Obj7 -> Obj4 [label="RSUP"];
	
}
