digraph dag {
	rankdir=LR; ranksep=1.0;
	edge[fontsize=13,weight=1]; node[fontsize=13,shape=box]; graph[ordering=out];

	/* NODES (OBJECTS) */
	Obj0 [label="I\nObj0\n10", color = blue];
	Obj1 [label="I\nObj1\n1", color = blue];
	Obj2 [label="h\nObj2\n0", color = blue];
	Obj3 [label="colon\nObj3\n3 4", color = blue];
	Obj4 [label="F\nObj4\n2", color = blue];
	Obj5 [label="F\nObj5\n5", color = blue];
	Obj6 [label="one\nObj6\n7", color = blue];
	Obj7 [label="times\nObj7\n6", color = blue];
	Obj8 [label="times\nObj8\n9", color = blue];
	Obj9 [label="rightarrow\nObj9\n8", color = blue];
	
	/* EDGES (OBJECT RELATIONSHIPS)    */
	Obj2 -> Obj3 [label="HORIZONTAL\n(_)\n",color=red,fontcolor=red,penwidth=3];
	Obj3 -> Obj5 [label="HORIZONTAL\n(_)\n",color=red,fontcolor=red,penwidth=3];
	Obj5 -> Obj8 [label="HORIZONTAL"];
	Obj4 -> Obj7 [label="HORIZONTAL"];
	Obj7 -> Obj0 [label="HORIZONTAL"];
	Obj8 -> Obj1 [label="HORIZONTAL"];
	Obj2 -> Obj6 [label="RSUB"];
	Obj1 -> Obj9 [label="HORIZONTAL"];
	Obj9 -> Obj4 [label="HORIZONTAL"];
	
}
