digraph dag {
	rankdir=LR; ranksep=1.0;
	edge[fontsize=13,weight=1]; node[fontsize=13,shape=box]; graph[ordering=out];

	/* NODES (OBJECTS) */
	Obj0 [label="ldots\nObj0\n11 12 13", color = blue];
	Obj1 [label="comma\nObj1\n10", color = blue];
	Obj10 [label="comma\nObj10\n9", color = blue];
	Obj11 [label="RightPar\nObj11\n8", color = blue];
	Obj2 [label="m\nObj2\n1", color = blue];
	Obj3 [label="m\nObj3\n0", color = blue];
	Obj4 [label="m\nObj4\n3", color = blue];
	Obj5 [label="n\nObj5\n2", color = blue];
	Obj6 [label="LeftPar\nObj6\n5", color = blue];
	Obj7 [label="one\nObj7\n4", color = blue];
	Obj8 [label="zero\nObj8\n7", color = blue];
	Obj9 [label="comma\nObj9\n6", color = blue];
	
	/* EDGES (OBJECT RELATIONSHIPS)    */
	Obj8 -> Obj9 [label="RSUB\n(_)\n",color=red,fontcolor=red,penwidth=3];
	Obj7 -> Obj1 [label="PUNC\n(_)\n",color=red,fontcolor=red,penwidth=3];
	Obj1 -> Obj0 [label="HORIZONTAL"];
	Obj2 -> Obj11 [label="HORIZONTAL"];
	Obj0 -> Obj10 [label="HORIZONTAL"];
	Obj3 -> Obj8 [label="RSUB"];
	Obj4 -> Obj7 [label="RSUB"];
	Obj3 -> Obj4 [label="HORIZONTAL"];
	Obj2 -> Obj5 [label="RSUB"];
	Obj6 -> Obj3 [label="HORIZONTAL"];
	Obj4 -> Obj2 [label="HORIZONTAL"];
	
}
