digraph dag {
	rankdir=LR; ranksep=1.0;
	edge[fontsize=13,weight=1]; node[fontsize=13,shape=box]; graph[ordering=out];

	/* NODES (OBJECTS) */
	Obj0 [label="p\nObj0\n11", color = blue];
	Obj1 [label="comma\nObj1\n10", color = blue];
	Obj10 [label="BigLeftPar\nObj10\n6", color = blue];
	Obj11 [label="Y\nObj11\n9", color = blue];
	Obj12 [label="varphi\nObj12\n8", color = blue];
	Obj2 [label="p\nObj2\n12", color = blue];
	Obj3 [label="BigLeftPar\nObj3\n1", color = blue];
	Obj4 [label="L\nObj4\n0", color = blue];
	Obj5 [label="BigRightPar\nObj5\n3", color = blue];
	Obj6 [label="T\nObj6\n2", color = blue];
	Obj7 [label="p\nObj7\n5", color = blue];
	Obj8 [label="BigRightPar\nObj8\n4", color = blue];
	Obj9 [label="X\nObj9\n7", color = blue];
	
	/* EDGES (OBJECT RELATIONSHIPS)    */
	Obj7 -> Obj3 [label="HORIZONTAL\n(_)\n",color=red,fontcolor=red,penwidth=3];
	Obj12 -> Obj7 [label="HORIZONTAL\n(RSUB)\n",color=red,fontcolor=red,penwidth=3];
	Obj11 -> Obj8 [label="HORIZONTAL"];
	Obj3 -> Obj6 [label="HORIZONTAL"];
	Obj8 -> Obj12 [label="RSUP"];
	Obj6 -> Obj0 [label="RSUB"];
	Obj9 -> Obj1 [label="PUNC"];
	Obj6 -> Obj5 [label="HORIZONTAL"];
	Obj4 -> Obj10 [label="HORIZONTAL"];
	Obj9 -> Obj11 [label="HORIZONTAL"];
	Obj10 -> Obj9 [label="HORIZONTAL"];
	Obj4 -> Obj2 [label="RSUB"];
	
}
