digraph dag {
	rankdir=LR; ranksep=1.0;
	edge[fontsize=13,weight=1]; node[fontsize=13,shape=box]; graph[ordering=out];

	/* NODES (OBJECTS) */
	Obj0 [label="LeftPar\nObj0\n24", color = blue];
	Obj1 [label="RightPar\nObj1\n25", color = blue];
	Obj10 [label="q\nObj10\n1", color = blue];
	Obj11 [label="e\nObj11\n0", color = blue];
	Obj12 [label="s\nObj12\n3", color = blue];
	Obj13 [label="rightarrow\nObj13\n2", color = blue];
	Obj14 [label="one\nObj14\n5", color = blue];
	Obj15 [label="M\nObj15\n4", color = blue];
	Obj16 [label="plus\nObj16\n7 8", color = blue];
	Obj17 [label="S\nObj17\n6", color = blue];
	Obj18 [label="LeftPar\nObj18\n9", color = blue];
	Obj19 [label="S\nObj19\n11", color = blue];
	Obj2 [label="alpha\nObj2\n26", color = blue];
	Obj20 [label="RightPar\nObj20\n10", color = blue];
	Obj21 [label="M\nObj21\n13", color = blue];
	Obj22 [label="s\nObj22\n12", color = blue];
	Obj23 [label="S\nObj23\n15 16", color = blue];
	Obj24 [label="e\nObj24\n14", color = blue];
	Obj25 [label="q\nObj25\n17", color = blue];
	Obj26 [label="T\nObj26\n33", color = blue];
	Obj27 [label="M\nObj27\n18", color = blue];
	Obj28 [label="one\nObj28\n31", color = blue];
	Obj29 [label="LeftPar\nObj29\n30", color = blue];
	Obj3 [label="RightPar\nObj3\n27", color = blue];
	Obj30 [label="e\nObj30\n19", color = blue];
	Obj31 [label="T\nObj31\n32", color = blue];
	Obj4 [label="rightarrow\nObj4\n20", color = blue];
	Obj5 [label="s\nObj5\n21", color = blue];
	Obj6 [label="q\nObj6\n22", color = blue];
	Obj7 [label="alpha\nObj7\n23", color = blue];
	Obj8 [label="plus\nObj8\n28", color = blue];
	Obj9 [label="alpha\nObj9\n29", color = blue];
	
	/* EDGES (OBJECT RELATIONSHIPS)    */
	Obj13 -> Obj14 [label="LSUP\n(UPPER)\n",color=red,fontcolor=red,penwidth=3];
	Obj4 -> Obj28 [label="LSUP\n(UPPER)\n",color=red,fontcolor=red,penwidth=3];
	Obj25 -> Obj29 [label="HORIZONTAL"];
	Obj12 -> Obj10 [label="HORIZONTAL"];
	Obj6 -> Obj0 [label="HORIZONTAL"];
	Obj10 -> Obj7 [label="RSUB"];
	Obj19 -> Obj11 [label="HORIZONTAL"];
	Obj14 -> Obj16 [label="HORIZONTAL"];
	Obj11 -> Obj5 [label="HORIZONTAL"];
	Obj28 -> Obj8 [label="HORIZONTAL"];
	Obj20 -> Obj4 [label="HORIZONTAL"];
	Obj15 -> Obj20 [label="HORIZONTAL"];
	Obj21 -> Obj1 [label="HORIZONTAL"];
	Obj8 -> Obj31 [label="HORIZONTAL"];
	Obj22 -> Obj6 [label="HORIZONTAL"];
	Obj6 -> Obj2 [label="RSUB"];
	Obj16 -> Obj26 [label="HORIZONTAL"];
	Obj1 -> Obj13 [label="HORIZONTAL"];
	Obj18 -> Obj27 [label="HORIZONTAL"];
	Obj30 -> Obj12 [label="HORIZONTAL"];
	Obj13 -> Obj17 [label="HORIZONTAL"];
	Obj24 -> Obj22 [label="HORIZONTAL"];
	Obj0 -> Obj21 [label="HORIZONTAL"];
	Obj10 -> Obj18 [label="HORIZONTAL"];
	Obj5 -> Obj25 [label="HORIZONTAL"];
	Obj23 -> Obj24 [label="HORIZONTAL"];
	Obj29 -> Obj15 [label="HORIZONTAL"];
	Obj25 -> Obj9 [label="RSUB"];
	Obj17 -> Obj30 [label="HORIZONTAL"];
	Obj27 -> Obj3 [label="HORIZONTAL"];
	Obj4 -> Obj23 [label="HORIZONTAL"];
	
}
