digraph dag {
	rankdir=LR; ranksep=1.0;
	edge[fontsize=13,weight=1]; node[fontsize=13,shape=box]; graph[ordering=out];

	/* NODES (OBJECTS) */
	Obj0 [label="RightPar\nObj0\n24", color = blue];
	Obj1 [label="LeftPar\nObj1\n25", color = blue];
	Obj10 [label="LeftPar\nObj10\n0", color = blue];
	Obj11 [label="L\nObj11\n3", color = blue];
	Obj12 [label="n\nObj12\n2", color = blue];
	Obj13 [label="k\nObj13\n5", color = blue];
	Obj14 [label="G\nObj14\n4", color = blue];
	Obj15 [label="a\nObj15\n7", color = blue];
	Obj16 [label="C\nObj16\n6", color = blue];
	Obj17 [label="RightPar\nObj17\n9", color = blue];
	Obj18 [label="RightPar\nObj18\n8", color = blue];
	Obj19 [label="equal\nObj19\n10 11", color = blue];
	Obj2 [label="RightPar\nObj2\n26", color = blue];
	Obj20 [label="one\nObj20\n13", color = blue];
	Obj21 [label="one\nObj21\n12", color = blue];
	Obj22 [label="n\nObj22\n15", color = blue];
	Obj23 [label="r\nObj23\n14", color = blue];
	Obj24 [label="I\nObj24\n17", color = blue];
	Obj25 [label="k\nObj25\n16", color = blue];
	Obj26 [label="LeftPar\nObj26\n19", color = blue];
	Obj27 [label="C\nObj27\n18", color = blue];
	Obj3 [label="a\nObj3\n27", color = blue];
	Obj4 [label="X\nObj4\n20", color = blue];
	Obj5 [label="X\nObj5\n21", color = blue];
	Obj6 [label="n\nObj6\n22", color = blue];
	Obj7 [label="LeftPar\nObj7\n23", color = blue];
	Obj8 [label="v\nObj8\n28", color = blue];
	Obj9 [label="r\nObj9\n1", color = blue];
	
	/* EDGES (OBJECT RELATIONSHIPS)    */
	Obj7 -> Obj18 [label="PUNC\n(_)\n",color=red,fontcolor=red,penwidth=3];
	Obj18 -> Obj5 [label="UPPER\n(_)\n",color=red,fontcolor=red,penwidth=3];
	Obj12 -> Obj7 [label="HORIZONTAL\n(_)\n",color=red,fontcolor=red,penwidth=3];
	Obj12 -> Obj25 [label="RSUP\n(HORIZONTAL)\n",color=red,fontcolor=red,penwidth=3];
	Obj4 -> Obj17 [label="HORIZONTAL"];
	Obj22 -> Obj8 [label="HORIZONTAL"];
	Obj20 -> Obj10 [label="HORIZONTAL"];
	Obj21 -> Obj26 [label="HORIZONTAL"];
	Obj2 -> Obj19 [label="HORIZONTAL"];
	Obj3 -> Obj12 [label="HORIZONTAL"];
	Obj8 -> Obj1 [label="HORIZONTAL"];
	Obj4 -> Obj11 [label="RSUB"];
	Obj18 -> Obj2 [label="HORIZONTAL"];
	Obj26 -> Obj4 [label="HORIZONTAL"];
	Obj7 -> Obj27 [label="HORIZONTAL"];
	Obj9 -> Obj3 [label="HORIZONTAL"];
	Obj6 -> Obj13 [label="HORIZONTAL"];
	Obj23 -> Obj15 [label="HORIZONTAL"];
	Obj1 -> Obj16 [label="HORIZONTAL"];
	Obj24 -> Obj22 [label="HORIZONTAL"];
	Obj16 -> Obj21 [label="HORIZONTAL"];
	Obj17 -> Obj0 [label="HORIZONTAL"];
	Obj27 -> Obj20 [label="HORIZONTAL"];
	Obj19 -> Obj23 [label="HORIZONTAL"];
	Obj8 -> Obj14 [label="RSUB"];
	Obj15 -> Obj6 [label="HORIZONTAL"];
	Obj13 -> Obj24 [label="HORIZONTAL"];
	
}
