digraph dag {
	rankdir=LR; ranksep=1.0;
	edge[fontsize=13,weight=1]; node[fontsize=13,shape=box]; graph[ordering=out];

	/* NODES (OBJECTS) */
	Obj0 [label="beta\nObj0\n11", color = blue];
	Obj1 [label="s\nObj1\n10", color = blue];
	Obj2 [label="langle\nObj2\n1", color = blue];
	Obj3 [label="comma\nObj3\n0", color = blue];
	Obj4 [label="ldots\nObj4\n2 3 4", color = blue];
	Obj5 [label="comma\nObj5\n5", color = blue];
	Obj6 [label="plus\nObj6\n7", color = blue];
	Obj7 [label="rangle\nObj7\n6", color = blue];
	Obj8 [label="one\nObj8\n9", color = blue];
	Obj9 [label="beta\nObj9\n8", color = blue];
	
	/* EDGES (OBJECT RELATIONSHIPS)    */
	Obj8 -> Obj5 [label="RSUB\n(_)\n",color=red,fontcolor=red,penwidth=3];
	Obj9 -> Obj1 [label="RSUB"];
	Obj7 -> Obj6 [label="RSUB"];
	Obj5 -> Obj4 [label="HORIZONTAL"];
	Obj2 -> Obj0 [label="HORIZONTAL"];
	Obj0 -> Obj9 [label="HORIZONTAL"];
	Obj0 -> Obj8 [label="RSUB"];
	Obj9 -> Obj7 [label="HORIZONTAL"];
	Obj4 -> Obj3 [label="HORIZONTAL"];
	
}
