digraph dag {
	rankdir=LR; ranksep=1.0;
	edge[fontsize=13,weight=1]; node[fontsize=13,shape=box]; graph[ordering=out];

	/* NODES (OBJECTS) */
	Obj0 [label="p\nObj0\n11", color = blue];
	Obj1 [label="vert\nObj1\n10", color = blue];
	Obj10 [label="p\nObj10\n4", color = blue];
	Obj11 [label="K\nObj11\n7", color = blue];
	Obj12 [label="vert\nObj12\n6", color = blue];
	Obj13 [label="vert\nObj13\n9", color = blue];
	Obj14 [label="vert\nObj14\n8", color = blue];
	Obj2 [label="p\nObj2\n13", color = blue];
	Obj3 [label="q\nObj3\n12", color = blue];
	Obj4 [label="vert\nObj4\n15", color = blue];
	Obj5 [label="vert\nObj5\n14", color = blue];
	Obj6 [label="leq\nObj6\n0 1", color = blue];
	Obj7 [label="K\nObj7\n3", color = blue];
	Obj8 [label="vert\nObj8\n2", color = blue];
	Obj9 [label="vert\nObj9\n5", color = blue];
	
	/* EDGES (OBJECT RELATIONSHIPS)    */
	Obj14 -> Obj0 [label="PUNC\n(_)\n",color=red,fontcolor=red,penwidth=3];
	Obj7 -> Obj6 [label="HORIZONTAL\n(_)\n",color=red,fontcolor=red,penwidth=3];
	Obj14 -> Obj7 [label="RSUB"];
	Obj9 -> Obj11 [label="RSUB"];
	Obj6 -> Obj13 [label="HORIZONTAL"];
	Obj8 -> Obj14 [label="HORIZONTAL"];
	Obj4 -> Obj3 [label="HORIZONTAL"];
	Obj11 -> Obj10 [label="RSUB"];
	Obj13 -> Obj4 [label="HORIZONTAL"];
	Obj2 -> Obj8 [label="HORIZONTAL"];
	Obj5 -> Obj2 [label="HORIZONTAL"];
	Obj1 -> Obj5 [label="HORIZONTAL"];
	Obj12 -> Obj9 [label="HORIZONTAL"];
	Obj3 -> Obj12 [label="HORIZONTAL"];
	
}
