digraph dag {
	rankdir=LR; ranksep=1.0;
	edge[fontsize=13,weight=1]; node[fontsize=13,shape=box]; graph[ordering=out];

	/* NODES (OBJECTS) */
	Obj0 [label="r\nObj0\n11", color = blue];
	Obj1 [label="RightPar\nObj1\n10", color = blue];
	Obj10 [label="LeftPar\nObj10\n6", color = blue];
	Obj11 [label="zero\nObj11\n9", color = blue];
	Obj12 [label="r\nObj12\n8", color = blue];
	Obj2 [label="l\nObj2\n12", color = blue];
	Obj3 [label="H\nObj3\n1", color = blue];
	Obj4 [label="o\nObj4\n0", color = blue];
	Obj5 [label="epsilon\nObj5\n3", color = blue];
	Obj6 [label="V\nObj6\n2", color = blue];
	Obj7 [label="P\nObj7\n5", color = blue];
	Obj8 [label="comma\nObj8\n4", color = blue];
	Obj9 [label="comma\nObj9\n7", color = blue];
	
	/* EDGES (OBJECT RELATIONSHIPS)    */
	Obj12 -> Obj8 [label="RSUP\n(_)\n",color=red,fontcolor=red,penwidth=3];
	Obj2 -> Obj10 [label="HORIZONTAL"];
	Obj5 -> Obj9 [label="PUNC"];
	Obj7 -> Obj0 [label="RSUB"];
	Obj7 -> Obj1 [label="HORIZONTAL"];
	Obj5 -> Obj12 [label="HORIZONTAL"];
	Obj10 -> Obj6 [label="HORIZONTAL"];
	Obj6 -> Obj5 [label="RSUB"];
	Obj7 -> Obj11 [label="RSUP"];
	Obj3 -> Obj4 [label="HORIZONTAL"];
	Obj6 -> Obj7 [label="HORIZONTAL"];
	Obj4 -> Obj2 [label="HORIZONTAL"];
	
}
