digraph dag {
	rankdir=LR; ranksep=1.0;
	edge[fontsize=13,weight=1]; node[fontsize=13,shape=box]; graph[ordering=out];

	/* NODES (OBJECTS) */
	Obj0 [label="equal\nObj0\n10 11", color = blue];
	Obj1 [label="comma\nObj1\n13", color = blue];
	Obj10 [label="three\nObj10\n5", color = blue];
	Obj11 [label="plus\nObj11\n4", color = blue];
	Obj12 [label="LeftPar\nObj12\n7", color = blue];
	Obj13 [label="three\nObj13\n6", color = blue];
	Obj14 [label="three\nObj14\n9", color = blue];
	Obj15 [label="y\nObj15\n8", color = blue];
	Obj2 [label="p\nObj2\n12", color = blue];
	Obj3 [label="x\nObj3\n15", color = blue];
	Obj4 [label="x\nObj4\n14", color = blue];
	Obj5 [label="minus\nObj5\n17", color = blue];
	Obj6 [label="y\nObj6\n16", color = blue];
	Obj7 [label="zero\nObj7\n1", color = blue];
	Obj8 [label="RightPar\nObj8\n0", color = blue];
	Obj9 [label="x\nObj9\n2 3", color = blue];
	
	/* EDGES (OBJECT RELATIONSHIPS)    */
	Obj7 -> Obj12 [label="RSUP\n(_)\n",color=red,fontcolor=red,penwidth=3];
	Obj3 -> Obj6 [label="HORIZONTAL"];
	Obj5 -> Obj13 [label="HORIZONTAL"];
	Obj15 -> Obj5 [label="HORIZONTAL"];
	Obj8 -> Obj0 [label="HORIZONTAL"];
	Obj13 -> Obj9 [label="HORIZONTAL"];
	Obj3 -> Obj1 [label="PUNC"];
	Obj15 -> Obj14 [label="RSUP"];
	Obj11 -> Obj15 [label="HORIZONTAL"];
	Obj4 -> Obj11 [label="HORIZONTAL"];
	Obj0 -> Obj4 [label="HORIZONTAL"];
	Obj2 -> Obj7 [label="RSUB"];
	Obj12 -> Obj3 [label="HORIZONTAL"];
	Obj6 -> Obj8 [label="HORIZONTAL"];
	Obj4 -> Obj10 [label="RSUP"];
	
}
