digraph dag {
	rankdir=LR; ranksep=1.0;
	edge[fontsize=13,weight=1]; node[fontsize=13,shape=box]; graph[ordering=out];

	/* NODES (OBJECTS) */
	Obj0 [label="vert\nObj0\n20", color = blue];
	Obj1 [label="RightPar\nObj1\n21", color = blue];
	Obj10 [label="prime\nObj10\n6", color = blue];
	Obj11 [label="RightPar\nObj11\n9", color = blue];
	Obj12 [label="comma\nObj12\n8", color = blue];
	Obj13 [label="one\nObj13\n11", color = blue];
	Obj14 [label="period\nObj14\n10", color = blue];
	Obj15 [label="vert\nObj15\n13", color = blue];
	Obj16 [label="LeftPar\nObj16\n12", color = blue];
	Obj17 [label="u\nObj17\n15", color = blue];
	Obj18 [label="k\nObj18\n14", color = blue];
	Obj19 [label="t\nObj19\n17", color = blue];
	Obj2 [label="LeftPar\nObj2\n22", color = blue];
	Obj20 [label="vert\nObj20\n16", color = blue];
	Obj21 [label="H\nObj21\n19", color = blue];
	Obj22 [label="psi\nObj22\n18", color = blue];
	Obj3 [label="k\nObj3\n23", color = blue];
	Obj4 [label="vert\nObj4\n1", color = blue];
	Obj5 [label="F\nObj5\n0", color = blue];
	Obj6 [label="equal\nObj6\n2 3", color = blue];
	Obj7 [label="t\nObj7\n5", color = blue];
	Obj8 [label="RightPar\nObj8\n4", color = blue];
	Obj9 [label="LeftPar\nObj9\n7", color = blue];
	
	/* EDGES (OBJECT RELATIONSHIPS)    */
	Obj21 -> Obj14 [label="HORIZONTAL\n(_)\n",color=red,fontcolor=red,penwidth=3];
	Obj2 -> Obj13 [label="RSUP\n(_)\n",color=red,fontcolor=red,penwidth=3];
	Obj2 -> Obj8 [label="HORIZONTAL\n(_)\n",color=red,fontcolor=red,penwidth=3];
	Obj3 -> Obj7 [label="HORIZONTAL"];
	Obj0 -> Obj5 [label="HORIZONTAL"];
	Obj4 -> Obj0 [label="HORIZONTAL"];
	Obj5 -> Obj3 [label="RSUB"];
	Obj16 -> Obj17 [label="HORIZONTAL"];
	Obj9 -> Obj19 [label="HORIZONTAL"];
	Obj3 -> Obj12 [label="PUNC"];
	Obj22 -> Obj18 [label="RSUB"];
	Obj19 -> Obj1 [label="HORIZONTAL"];
	Obj5 -> Obj10 [label="RSUP"];
	Obj17 -> Obj11 [label="HORIZONTAL"];
	Obj1 -> Obj6 [label="HORIZONTAL"];
	Obj15 -> Obj21 [label="RSUB"];
	Obj11 -> Obj20 [label="HORIZONTAL"];
	Obj20 -> Obj15 [label="HORIZONTAL"];
	Obj22 -> Obj9 [label="HORIZONTAL"];
	Obj15 -> Obj2 [label="HORIZONTAL"];
	Obj6 -> Obj4 [label="HORIZONTAL"];
	Obj5 -> Obj16 [label="HORIZONTAL"];
	
}
