digraph dag {
	rankdir=LR; ranksep=1.0;
	edge[fontsize=13,weight=1]; node[fontsize=13,shape=box]; graph[ordering=out];

	/* NODES (OBJECTS) */
	Obj0 [label="semicolon\nObj0\n10 9", color = blue];
	Obj1 [label="vert\nObj1\n1", color = blue];
	Obj2 [label="pi\nObj2\n0", color = blue];
	Obj3 [label="X\nObj3\n3", color = blue];
	Obj4 [label="leq\nObj4\n2", color = blue];
	Obj5 [label="RightPar\nObj5\n5", color = blue];
	Obj6 [label="X\nObj6\n4", color = blue];
	Obj7 [label="vert\nObj7\n7", color = blue];
	Obj8 [label="LeftPar\nObj8\n6", color = blue];
	Obj9 [label="two\nObj9\n8", color = blue];
	
	/* EDGES (OBJECT RELATIONSHIPS)    */
	Obj5 -> Obj0 [label="RSUB\n(_)\n",color=red,fontcolor=red,penwidth=3];
	Obj9 -> Obj2 [label="RSUP"];
	Obj8 -> Obj3 [label="HORIZONTAL"];
	Obj6 -> Obj7 [label="HORIZONTAL"];
	Obj1 -> Obj6 [label="HORIZONTAL"];
	Obj2 -> Obj8 [label="HORIZONTAL"];
	Obj7 -> Obj4 [label="HORIZONTAL"];
	Obj3 -> Obj5 [label="HORIZONTAL"];
	Obj4 -> Obj9 [label="HORIZONTAL"];
	
}
