digraph dag {
	rankdir=LR; ranksep=1.0;
	edge[fontsize=13,weight=1]; node[fontsize=13,shape=box]; graph[ordering=out];

	/* NODES (OBJECTS) */
	Obj0 [label="in\nObj0\n11", color = blue];
	Obj1 [label="minus\nObj1\n10", color = blue];
	Obj10 [label="LeftPar\nObj10\n0", color = blue];
	Obj11 [label="minus\nObj11\n3", color = blue];
	Obj12 [label="E\nObj12\n2", color = blue];
	Obj13 [label="equal\nObj13\n5 6", color = blue];
	Obj14 [label="one\nObj14\n4", color = blue];
	Obj15 [label="one\nObj15\n7", color = blue];
	Obj16 [label="c\nObj16\n9", color = blue];
	Obj17 [label="n\nObj17\n8", color = blue];
	Obj2 [label="comma\nObj2\n13", color = blue];
	Obj3 [label="c\nObj3\n12", color = blue];
	Obj4 [label="RightPar\nObj4\n20", color = blue];
	Obj5 [label="gamma\nObj5\n14", color = blue];
	Obj6 [label="ldots\nObj6\n15 16 17", color = blue];
	Obj7 [label="comma\nObj7\n19", color = blue];
	Obj8 [label="one\nObj8\n18", color = blue];
	Obj9 [label="comma\nObj9\n1", color = blue];
	
	/* EDGES (OBJECT RELATIONSHIPS)    */
	Obj8 -> Obj7 [label="RSUB\n(_)\n",color=red,fontcolor=red,penwidth=3];
	Obj14 -> Obj9 [label="PUNC\n(_)\n",color=red,fontcolor=red,penwidth=3];
	Obj15 -> Obj4 [label="HORIZONTAL"];
	Obj6 -> Obj2 [label="HORIZONTAL"];
	Obj16 -> Obj14 [label="RSUB"];
	Obj10 -> Obj16 [label="HORIZONTAL"];
	Obj16 -> Obj3 [label="HORIZONTAL"];
	Obj11 -> Obj15 [label="HORIZONTAL"];
	Obj3 -> Obj17 [label="RSUB"];
	Obj0 -> Obj12 [label="HORIZONTAL"];
	Obj5 -> Obj13 [label="HORIZONTAL"];
	Obj9 -> Obj6 [label="HORIZONTAL"];
	Obj3 -> Obj11 [label="HORIZONTAL"];
	Obj1 -> Obj8 [label="HORIZONTAL"];
	Obj4 -> Obj0 [label="HORIZONTAL"];
	Obj13 -> Obj10 [label="HORIZONTAL"];
	Obj17 -> Obj1 [label="HORIZONTAL"];
	
}
