digraph dag {
	rankdir=LR; ranksep=1.0;
	edge[fontsize=13,weight=1]; node[fontsize=13,shape=box]; graph[ordering=out];

	/* NODES (OBJECTS) */
	Obj0 [label="comma\nObj0\n10", color = blue];
	Obj1 [label="one\nObj1\n1", color = blue];
	Obj10 [label="c\nObj10\n8", color = blue];
	Obj2 [label="l\nObj2\n0", color = blue];
	Obj3 [label="comma\nObj3\n3", color = blue];
	Obj4 [label="one\nObj4\n2", color = blue];
	Obj5 [label="c\nObj5\n5", color = blue];
	Obj6 [label="l\nObj6\n4", color = blue];
	Obj7 [label="comma\nObj7\n7", color = blue];
	Obj8 [label="zero\nObj8\n6", color = blue];
	Obj9 [label="zero\nObj9\n9", color = blue];
	
	/* EDGES (OBJECT RELATIONSHIPS)    */
	Obj9 -> Obj7 [label="PUNC\n(_)\n",color=red,fontcolor=red,penwidth=3];
	Obj5 -> Obj9 [label="RSUB"];
	Obj6 -> Obj4 [label="RSUB"];
	Obj2 -> Obj0 [label="PUNC"];
	Obj6 -> Obj5 [label="HORIZONTAL"];
	Obj10 -> Obj1 [label="RSUB"];
	Obj2 -> Obj8 [label="RSUB"];
	Obj5 -> Obj10 [label="HORIZONTAL"];
	Obj2 -> Obj6 [label="HORIZONTAL"];
	Obj6 -> Obj3 [label="PUNC"];
	
}
