digraph dag {
	rankdir=LR; ranksep=1.0;
	edge[fontsize=13,weight=1]; node[fontsize=13,shape=box]; graph[ordering=out];

	/* NODES (OBJECTS) */
	Obj0 [label="V\nObj0\n24 25", color = blue];
	Obj1 [label="in\nObj1\n20", color = blue];
	Obj10 [label="MiddleLeftPar\nObj10\n4", color = blue];
	Obj11 [label="cup\nObj11\n7", color = blue];
	Obj12 [label="c\nObj12\n6", color = blue];
	Obj13 [label="A\nObj13\n10 11 9", color = blue];
	Obj14 [label="MiddleRightPar\nObj14\n8", color = blue];
	Obj15 [label="MiddleLeftPar\nObj15\n13", color = blue];
	Obj16 [label="E\nObj16\n12", color = blue];
	Obj17 [label="Gamma\nObj17\n15", color = blue];
	Obj18 [label="c\nObj18\n14", color = blue];
	Obj19 [label="alpha\nObj19\n17", color = blue];
	Obj2 [label="MiddleLeftPar\nObj2\n21", color = blue];
	Obj20 [label="alpha\nObj20\n16", color = blue];
	Obj21 [label="equal\nObj21\n18 19", color = blue];
	Obj3 [label="overline\nObj3\n22", color = blue];
	Obj4 [label="partial\nObj4\n23", color = blue];
	Obj5 [label="n\nObj5\n1", color = blue];
	Obj6 [label="in\nObj6\n0", color = blue];
	Obj7 [label="MiddleRightPar\nObj7\n3", color = blue];
	Obj8 [label="Gamma\nObj8\n2", color = blue];
	Obj9 [label="MiddleRightPar\nObj9\n5", color = blue];
	
	/* EDGES (OBJECT RELATIONSHIPS)    */
	Obj9 -> Obj12 [label="RSUB\n(HORIZONTAL)\n",color=red,fontcolor=red,penwidth=3];
	Obj13 -> Obj21 [label="HORIZONTAL\n(_)\n",color=red,fontcolor=red,penwidth=3];
	Obj2 -> Obj8 [label="HORIZONTAL"];
	Obj8 -> Obj20 [label="RSUB"];
	Obj16 -> Obj14 [label="HORIZONTAL"];
	Obj10 -> Obj17 [label="HORIZONTAL"];
	Obj1 -> Obj13 [label="HORIZONTAL"];
	Obj6 -> Obj4 [label="HORIZONTAL"];
	Obj17 -> Obj3 [label="UPPER"];
	Obj17 -> Obj9 [label="HORIZONTAL"];
	Obj0 -> Obj5 [label="RSUB"];
	Obj15 -> Obj16 [label="HORIZONTAL"];
	Obj11 -> Obj10 [label="HORIZONTAL"];
	Obj12 -> Obj6 [label="HORIZONTAL"];
	Obj17 -> Obj18 [label="RSUB"];
	Obj19 -> Obj1 [label="HORIZONTAL"];
	Obj14 -> Obj11 [label="HORIZONTAL"];
	Obj21 -> Obj15 [label="HORIZONTAL"];
	Obj4 -> Obj0 [label="HORIZONTAL"];
	Obj8 -> Obj7 [label="HORIZONTAL"];
	Obj7 -> Obj19 [label="RSUB"];
	
}
