digraph dag {
	rankdir=LR; ranksep=1.0;
	edge[fontsize=13,weight=1]; node[fontsize=13,shape=box]; graph[ordering=out];

	/* NODES (OBJECTS) */
	Obj0 [label="LeftPar\nObj0\n11", color = blue];
	Obj1 [label="n\nObj1\n10", color = blue];
	Obj10 [label="minus\nObj10\n3", color = blue];
	Obj11 [label="one\nObj11\n2", color = blue];
	Obj12 [label="in\nObj12\n5", color = blue];
	Obj13 [label="RightPar\nObj13\n4", color = blue];
	Obj14 [label="equal\nObj14\n6 7", color = blue];
	Obj15 [label="comma\nObj15\n9", color = blue];
	Obj16 [label="minus\nObj16\n15", color = blue];
	Obj17 [label="one\nObj17\n8", color = blue];
	Obj2 [label="comma\nObj2\n13", color = blue];
	Obj3 [label="c\nObj3\n12", color = blue];
	Obj4 [label="ldots\nObj4\n18 19 20", color = blue];
	Obj5 [label="c\nObj5\n14", color = blue];
	Obj6 [label="E\nObj6\n17", color = blue];
	Obj7 [label="gamma\nObj7\n16", color = blue];
	Obj8 [label="one\nObj8\n1", color = blue];
	Obj9 [label="comma\nObj9\n0", color = blue];
	
	/* EDGES (OBJECT RELATIONSHIPS)    */
	Obj8 -> Obj9 [label="PUNC\n(_)\n",color=red,fontcolor=red,penwidth=3];
	Obj10 -> Obj15 [label="LSUP\n(_)\n",color=red,fontcolor=red,penwidth=3];
	Obj0 -> Obj3 [label="HORIZONTAL"];
	Obj17 -> Obj13 [label="HORIZONTAL"];
	Obj13 -> Obj12 [label="HORIZONTAL"];
	Obj7 -> Obj14 [label="HORIZONTAL"];
	Obj3 -> Obj8 [label="RSUB"];
	Obj12 -> Obj6 [label="HORIZONTAL"];
	Obj14 -> Obj0 [label="HORIZONTAL"];
	Obj16 -> Obj11 [label="HORIZONTAL"];
	Obj1 -> Obj16 [label="HORIZONTAL"];
	Obj5 -> Obj10 [label="HORIZONTAL"];
	Obj10 -> Obj17 [label="HORIZONTAL"];
	Obj4 -> Obj2 [label="HORIZONTAL"];
	Obj9 -> Obj4 [label="HORIZONTAL"];
	Obj3 -> Obj5 [label="HORIZONTAL"];
	Obj5 -> Obj1 [label="RSUB"];
	
}
