digraph dag {
	rankdir=LR; ranksep=1.0;
	edge[fontsize=13,weight=1]; node[fontsize=13,shape=box]; graph[ordering=out];

	/* NODES (OBJECTS) */
	Obj0 [label="comma\nObj0\n1", color = blue];
	Obj1 [label="n\nObj1\n0", color = blue];
	Obj2 [label="comma\nObj2\n3", color = blue];
	Obj3 [label="one\nObj3\n2", color = blue];
	Obj4 [label="ldots\nObj4\n5 6 7", color = blue];
	Obj5 [label="z\nObj5\n4", color = blue];
	Obj6 [label="z\nObj6\n8", color = blue];
	
	/* EDGES (OBJECT RELATIONSHIPS)    */
	Obj4 -> Obj6 [label="LSUP\n(_)\n",color=red,fontcolor=red,penwidth=3];
	Obj6 -> Obj5 [label="HORIZONTAL"];
	Obj0 -> Obj4 [label="HORIZONTAL"];
	Obj4 -> Obj2 [label="HORIZONTAL"];
	Obj6 -> Obj3 [label="RSUB"];
	Obj5 -> Obj1 [label="RSUB"];
	
}
