digraph dag {
	rankdir=LR; ranksep=1.0;
	edge[fontsize=13,weight=1]; node[fontsize=13,shape=box]; graph[ordering=out];

	/* NODES (OBJECTS) */
	Obj0 [label="equal\nObj0\n0 1", color = blue];
	Obj1 [label="p\nObj1\n3", color = blue];
	Obj2 [label="varphi\nObj2\n2", color = blue];
	
	/* EDGES (OBJECT RELATIONSHIPS)    */
	Obj1 -> Obj0 [label="HORIZONTAL\n(_)\n",color=red,fontcolor=red,penwidth=3];
	Obj2 -> Obj1 [label="HORIZONTAL\n(RSUB)\n",color=red,fontcolor=red,penwidth=3];
	
}
