digraph dag {
	rankdir=LR; ranksep=1.0;
	edge[fontsize=13,weight=1]; node[fontsize=13,shape=box]; graph[ordering=out];

	/* NODES (OBJECTS) */
	Obj0 [label="j\nObj0\n19 20", color = blue];
	Obj1 [label="L\nObj1\n21", color = blue];
	Obj10 [label="a\nObj10\n6", color = blue];
	Obj11 [label="colon\nObj11\n10 9", color = blue];
	Obj12 [label="A\nObj12\n8", color = blue];
	Obj13 [label="j\nObj13\n11 12", color = blue];
	Obj14 [label="prime\nObj14\n13", color = blue];
	Obj15 [label="hat\nObj15\n15", color = blue];
	Obj16 [label="zero\nObj16\n14", color = blue];
	Obj17 [label="j\nObj17\n17 18", color = blue];
	Obj18 [label="A\nObj18\n16", color = blue];
	Obj2 [label="prime\nObj2\n22", color = blue];
	Obj3 [label="prime\nObj3\n1", color = blue];
	Obj4 [label="hat\nObj4\n0", color = blue];
	Obj5 [label="lambda\nObj5\n3", color = blue];
	Obj6 [label="rightarrow\nObj6\n2", color = blue];
	Obj7 [label="times\nObj7\n5", color = blue];
	Obj8 [label="hat\nObj8\n4", color = blue];
	Obj9 [label="l\nObj9\n7", color = blue];
	
	/* EDGES (OBJECT RELATIONSHIPS)    */
	Obj8 -> Obj3 [label="HORIZONTAL\n(_)\n",color=red,fontcolor=red,penwidth=3];
	Obj18 -> Obj4 [label="UPPER"];
	Obj10 -> Obj2 [label="RSUP"];
	Obj5 -> Obj8 [label="UPPER"];
	Obj18 -> Obj6 [label="HORIZONTAL"];
	Obj6 -> Obj12 [label="HORIZONTAL"];
	Obj9 -> Obj0 [label="RSUB"];
	Obj10 -> Obj13 [label="RSUB"];
	Obj1 -> Obj7 [label="HORIZONTAL"];
	Obj9 -> Obj14 [label="RSUP"];
	Obj18 -> Obj10 [label="RSUP"];
	Obj1 -> Obj16 [label="RSUB"];
	Obj5 -> Obj11 [label="HORIZONTAL"];
	Obj1 -> Obj9 [label="RSUP"];
	Obj7 -> Obj18 [label="HORIZONTAL"];
	Obj11 -> Obj1 [label="HORIZONTAL"];
	Obj12 -> Obj15 [label="UPPER"];
	Obj5 -> Obj17 [label="RSUB"];
	
}
