digraph dag {
	rankdir=LR; ranksep=1.0;
	edge[fontsize=13,weight=1]; node[fontsize=13,shape=box]; graph[ordering=out];

	/* NODES (OBJECTS) */
	Obj0 [label="u\nObj0\n24", color = blue];
	Obj1 [label="zero\nObj1\n25", color = blue];
	Obj10 [label="p\nObj10\n1", color = blue];
	Obj11 [label="RightPar\nObj11\n0", color = blue];
	Obj12 [label="zero\nObj12\n3", color = blue];
	Obj13 [label="slash\nObj13\n2", color = blue];
	Obj14 [label="zero\nObj14\n5", color = blue];
	Obj15 [label="slash\nObj15\n4", color = blue];
	Obj16 [label="zero\nObj16\n7", color = blue];
	Obj17 [label="RightPar\nObj17\n6", color = blue];
	Obj18 [label="comma\nObj18\n9", color = blue];
	Obj19 [label="one\nObj19\n8", color = blue];
	Obj2 [label="one\nObj2\n26", color = blue];
	Obj20 [label="zero\nObj20\n11", color = blue];
	Obj21 [label="epsilon\nObj21\n10", color = blue];
	Obj22 [label="comma\nObj22\n13", color = blue];
	Obj23 [label="zero\nObj23\n12", color = blue];
	Obj24 [label="q\nObj24\n15", color = blue];
	Obj25 [label="LeftPar\nObj25\n14", color = blue];
	Obj26 [label="plus\nObj26\n17", color = blue];
	Obj27 [label="zero\nObj27\n16", color = blue];
	Obj28 [label="RightPar\nObj28\n32", color = blue];
	Obj29 [label="epsilon\nObj29\n31", color = blue];
	Obj3 [label="k\nObj3\n27", color = blue];
	Obj30 [label="vec\nObj30\n30", color = blue];
	Obj31 [label="Delta\nObj31\n33", color = blue];
	Obj32 [label="n\nObj32\n18", color = blue];
	Obj4 [label="leq\nObj4\n19 20", color = blue];
	Obj5 [label="zero\nObj5\n21", color = blue];
	Obj6 [label="D\nObj6\n22", color = blue];
	Obj7 [label="LeftPar\nObj7\n23", color = blue];
	Obj8 [label="LeftPar\nObj8\n28", color = blue];
	Obj9 [label="k\nObj9\n29", color = blue];
	
	/* EDGES (OBJECT RELATIONSHIPS)    */
	Obj24 -> Obj22 [label="UNDER\n(_)\n",color=red,fontcolor=red,penwidth=3];
	Obj31 -> Obj32 [label="HORIZONTAL\n(RSUP)\n",color=red,fontcolor=red,penwidth=3];
	Obj25 -> Obj29 [label="HORIZONTAL"];
	Obj3 -> Obj7 [label="HORIZONTAL"];
	Obj8 -> Obj0 [label="HORIZONTAL"];
	Obj24 -> Obj28 [label="HORIZONTAL"];
	Obj9 -> Obj8 [label="HORIZONTAL"];
	Obj7 -> Obj10 [label="HORIZONTAL"];
	Obj19 -> Obj20 [label="HORIZONTAL"];
	Obj9 -> Obj31 [label="RSUB"];
	Obj16 -> Obj17 [label="HORIZONTAL"];
	Obj10 -> Obj23 [label="RSUB"];
	Obj3 -> Obj6 [label="RSUB"];
	Obj5 -> Obj27 [label="HORIZONTAL"];
	Obj6 -> Obj12 [label="RSUB"];
	Obj28 -> Obj26 [label="HORIZONTAL"];
	Obj2 -> Obj5 [label="HORIZONTAL"];
	Obj0 -> Obj16 [label="HORIZONTAL"];
	Obj4 -> Obj25 [label="HORIZONTAL"];
	Obj15 -> Obj19 [label="HORIZONTAL"];
	Obj21 -> Obj13 [label="HORIZONTAL"];
	Obj13 -> Obj2 [label="HORIZONTAL"];
	Obj17 -> Obj4 [label="HORIZONTAL"];
	Obj16 -> Obj30 [label="UPPER"];
	Obj10 -> Obj24 [label="HORIZONTAL"];
	Obj26 -> Obj21 [label="HORIZONTAL"];
	Obj0 -> Obj18 [label="PUNC"];
	Obj29 -> Obj15 [label="HORIZONTAL"];
	Obj11 -> Obj3 [label="HORIZONTAL"];
	Obj14 -> Obj11 [label="HORIZONTAL"];
	Obj20 -> Obj14 [label="HORIZONTAL"];
	Obj24 -> Obj1 [label="RSUB"];
	
}
