digraph dag {
	rankdir=LR; ranksep=1.0;
	edge[fontsize=13,weight=1]; node[fontsize=13,shape=box]; graph[ordering=out];

	/* NODES (OBJECTS) */
	Obj0 [label="one\nObj0\n11", color = blue];
	Obj1 [label="overline\nObj1\n10", color = blue];
	Obj10 [label="gamma\nObj10\n0", color = blue];
	Obj11 [label="LeftPar\nObj11\n3", color = blue];
	Obj12 [label="LeftPar\nObj12\n2", color = blue];
	Obj13 [label="equal\nObj13\n5 6", color = blue];
	Obj14 [label="RightPar\nObj14\n4", color = blue];
	Obj15 [label="p\nObj15\n7", color = blue];
	Obj16 [label="RightPar\nObj16\n9", color = blue];
	Obj17 [label="l\nObj17\n8", color = blue];
	Obj2 [label="x\nObj2\n13", color = blue];
	Obj3 [label="c\nObj3\n12", color = blue];
	Obj4 [label="LeftPar\nObj4\n15", color = blue];
	Obj5 [label="RightPar\nObj5\n14", color = blue];
	Obj6 [label="l\nObj6\n17", color = blue];
	Obj7 [label="c\nObj7\n16", color = blue];
	Obj8 [label="G\nObj8\n18", color = blue];
	Obj9 [label="comma\nObj9\n1", color = blue];
	
	/* EDGES (OBJECT RELATIONSHIPS)    */
	Obj10 -> Obj0 [label="RSUB\n(_)\n",color=red,fontcolor=red,penwidth=3];
	Obj15 -> Obj4 [label="HORIZONTAL"];
	Obj7 -> Obj5 [label="HORIZONTAL"];
	Obj8 -> Obj1 [label="UPPER"];
	Obj5 -> Obj8 [label="HORIZONTAL"];
	Obj4 -> Obj7 [label="HORIZONTAL"];
	Obj3 -> Obj9 [label="PUNC"];
	Obj8 -> Obj2 [label="RSUB"];
	Obj13 -> Obj15 [label="HORIZONTAL"];
	Obj16 -> Obj13 [label="HORIZONTAL"];
	Obj10 -> Obj12 [label="HORIZONTAL"];
	Obj17 -> Obj16 [label="HORIZONTAL"];
	Obj11 -> Obj3 [label="HORIZONTAL"];
	Obj12 -> Obj17 [label="HORIZONTAL"];
	Obj8 -> Obj11 [label="HORIZONTAL"];
	Obj6 -> Obj14 [label="HORIZONTAL"];
	Obj3 -> Obj6 [label="HORIZONTAL"];
	
}
