digraph dag {
	rankdir=LR; ranksep=1.0;
	edge[fontsize=13,weight=1]; node[fontsize=13,shape=box]; graph[ordering=out];

	/* NODES (OBJECTS) */
	Obj0 [label="zero\nObj0\n20", color = blue];
	Obj1 [label="minus\nObj1\n21", color = blue];
	Obj10 [label="plus\nObj10\n8", color = blue];
	Obj11 [label="xi\nObj11\n11", color = blue];
	Obj12 [label="x\nObj12\n10", color = blue];
	Obj13 [label="epsilon\nObj13\n13", color = blue];
	Obj14 [label="D\nObj14\n12", color = blue];
	Obj15 [label="zero\nObj15\n15", color = blue];
	Obj16 [label="zero\nObj16\n14", color = blue];
	Obj17 [label="equal\nObj17\n16 17", color = blue];
	Obj18 [label="comma\nObj18\n19", color = blue];
	Obj19 [label="LeftPar\nObj19\n18", color = blue];
	Obj2 [label="BigRightPar\nObj2\n1", color = blue];
	Obj3 [label="prime\nObj3\n0", color = blue];
	Obj4 [label="one\nObj4\n3", color = blue];
	Obj5 [label="BigLeftPar\nObj5\n2", color = blue];
	Obj6 [label="semicolon\nObj6\n4 5", color = blue];
	Obj7 [label="K\nObj7\n7", color = blue];
	Obj8 [label="RightPar\nObj8\n6", color = blue];
	Obj9 [label="rho\nObj9\n9", color = blue];
	
	/* EDGES (OBJECT RELATIONSHIPS)    */
	Obj0 -> Obj18 [label="PUNC\n(_)\n",color=red,fontcolor=red,penwidth=3];
	Obj11 -> Obj8 [label="HORIZONTAL"];
	Obj14 -> Obj6 [label="HORIZONTAL"];
	Obj5 -> Obj7 [label="HORIZONTAL"];
	Obj11 -> Obj15 [label="RSUB"];
	Obj9 -> Obj17 [label="HORIZONTAL"];
	Obj12 -> Obj11 [label="HORIZONTAL"];
	Obj6 -> Obj12 [label="HORIZONTAL"];
	Obj1 -> Obj4 [label="HORIZONTAL"];
	Obj14 -> Obj16 [label="RSUB"];
	Obj13 -> Obj2 [label="HORIZONTAL"];
	Obj7 -> Obj19 [label="HORIZONTAL"];
	Obj10 -> Obj13 [label="HORIZONTAL"];
	Obj2 -> Obj1 [label="RSUP"];
	Obj12 -> Obj0 [label="RSUB"];
	Obj14 -> Obj3 [label="RSUP"];
	Obj17 -> Obj5 [label="HORIZONTAL"];
	Obj19 -> Obj14 [label="HORIZONTAL"];
	Obj8 -> Obj10 [label="HORIZONTAL"];
	
}
