digraph dag {
	rankdir=LR; ranksep=1.0;
	edge[fontsize=13,weight=1]; node[fontsize=13,shape=box]; graph[ordering=out];

	/* NODES (OBJECTS) */
	Obj0 [label="comma\nObj0\n11", color = blue];
	Obj1 [label="equal\nObj1\n10 9", color = blue];
	Obj10 [label="LeftPar\nObj10\n8", color = blue];
	Obj2 [label="RightPar\nObj2\n1", color = blue];
	Obj3 [label="x\nObj3\n0", color = blue];
	Obj4 [label="sigma\nObj4\n3", color = blue];
	Obj5 [label="h\nObj5\n2", color = blue];
	Obj6 [label="two\nObj6\n5", color = blue];
	Obj7 [label="y\nObj7\n4", color = blue];
	Obj8 [label="y\nObj8\n7", color = blue];
	Obj9 [label="x\nObj9\n6", color = blue];
	
	/* EDGES (OBJECT RELATIONSHIPS)    */
	Obj9 -> Obj8 [label="RSUB\n(HORIZONTAL)\n",color=red,fontcolor=red,penwidth=3];
	Obj7 -> Obj2 [label="HORIZONTAL"];
	Obj5 -> Obj6 [label="RSUB"];
	Obj3 -> Obj7 [label="HORIZONTAL"];
	Obj2 -> Obj1 [label="HORIZONTAL"];
	Obj3 -> Obj0 [label="PUNC"];
	Obj5 -> Obj10 [label="HORIZONTAL"];
	Obj10 -> Obj3 [label="HORIZONTAL"];
	Obj8 -> Obj4 [label="RSUP"];
	Obj1 -> Obj9 [label="HORIZONTAL"];
	
}
