digraph dag {
	rankdir=LR; ranksep=1.0;
	edge[fontsize=13,weight=1]; node[fontsize=13,shape=box]; graph[ordering=out];

	/* NODES (OBJECTS) */
	Obj0 [label="LeftPar\nObj0\n24", color = blue];
	Obj1 [label="gamma\nObj1\n20", color = blue];
	Obj10 [label="w\nObj10\n7", color = blue];
	Obj11 [label="F\nObj11\n8 9", color = blue];
	Obj12 [label="k\nObj12\n11 12", color = blue];
	Obj13 [label="F\nObj13\n10", color = blue];
	Obj14 [label="RightPar\nObj14\n13", color = blue];
	Obj15 [label="w\nObj15\n14 15 16", color = blue];
	Obj16 [label="one\nObj16\n17", color = blue];
	Obj17 [label="c\nObj17\n19", color = blue];
	Obj18 [label="plus\nObj18\n18", color = blue];
	Obj2 [label="one\nObj2\n21", color = blue];
	Obj3 [label="n\nObj3\n22", color = blue];
	Obj4 [label="slash\nObj4\n23", color = blue];
	Obj5 [label="in\nObj5\n1", color = blue];
	Obj6 [label="comma\nObj6\n0", color = blue];
	Obj7 [label="n\nObj7\n3", color = blue];
	Obj8 [label="comma\nObj8\n2", color = blue];
	Obj9 [label="ldots\nObj9\n4 5 6", color = blue];
	
	/* EDGES (OBJECT RELATIONSHIPS)    */
	Obj9 -> Obj15 [label="LSUP\n(_)\n",color=red,fontcolor=red,penwidth=3];
	Obj1 -> Obj0 [label="HORIZONTAL"];
	Obj0 -> Obj11 [label="HORIZONTAL"];
	Obj11 -> Obj14 [label="HORIZONTAL"];
	Obj4 -> Obj1 [label="HORIZONTAL"];
	Obj10 -> Obj5 [label="HORIZONTAL"];
	Obj8 -> Obj9 [label="HORIZONTAL"];
	Obj15 -> Obj16 [label="RSUB"];
	Obj13 -> Obj4 [label="HORIZONTAL"];
	Obj5 -> Obj13 [label="HORIZONTAL"];
	Obj17 -> Obj18 [label="HORIZONTAL"];
	Obj10 -> Obj12 [label="RSUB"];
	Obj11 -> Obj3 [label="RSUB"];
	Obj9 -> Obj6 [label="HORIZONTAL"];
	Obj1 -> Obj17 [label="RSUB"];
	Obj18 -> Obj2 [label="HORIZONTAL"];
	Obj13 -> Obj7 [label="RSUB"];
	Obj15 -> Obj10 [label="HORIZONTAL"];
	
}
