digraph dag {
	rankdir=LR; ranksep=1.0;
	edge[fontsize=13,weight=1]; node[fontsize=13,shape=box]; graph[ordering=out];

	/* NODES (OBJECTS) */
	Obj0 [label="comma\nObj0\n11", color = blue];
	Obj1 [label="zero\nObj1\n10", color = blue];
	Obj10 [label="RightPar\nObj10\n8", color = blue];
	Obj2 [label="equal\nObj2\n0 1", color = blue];
	Obj3 [label="one\nObj3\n3", color = blue];
	Obj4 [label="RightPar\nObj4\n2", color = blue];
	Obj5 [label="LeftPar\nObj5\n5", color = blue];
	Obj6 [label="LeftPar\nObj6\n4", color = blue];
	Obj7 [label="vartheta\nObj7\n7", color = blue];
	Obj8 [label="one\nObj8\n6", color = blue];
	Obj9 [label="three\nObj9\n9", color = blue];
	
	/* EDGES (OBJECT RELATIONSHIPS)    */
	Obj10 -> Obj4 [label="HORIZONTAL\n(_)\n",color=red,fontcolor=red,penwidth=3];
	Obj5 -> Obj3 [label="RSUP\n(_)\n",color=red,fontcolor=red,penwidth=3];
	Obj9 -> Obj5 [label="HORIZONTAL\n(_)\n",color=red,fontcolor=red,penwidth=3];
	Obj5 -> Obj8 [label="RSUB\n(_)\n",color=red,fontcolor=red,penwidth=3];
	Obj5 -> Obj10 [label="HORIZONTAL\n(_)\n",color=red,fontcolor=red,penwidth=3];
	Obj9 -> Obj0 [label="PUNC"];
	Obj7 -> Obj1 [label="RSUB"];
	Obj7 -> Obj2 [label="HORIZONTAL"];
	Obj2 -> Obj6 [label="HORIZONTAL"];
	Obj6 -> Obj9 [label="HORIZONTAL"];
	
}
