digraph dag {
	rankdir=LR; ranksep=1.0;
	edge[fontsize=13,weight=1]; node[fontsize=13,shape=box]; graph[ordering=out];

	/* NODES (OBJECTS) */
	Obj0 [label="equal\nObj0\n0 1", color = blue];
	Obj1 [label="i\nObj1\n3 4", color = blue];
	Obj2 [label="C\nObj2\n2", color = blue];
	Obj3 [label="m\nObj3\n5", color = blue];
	Obj4 [label="one\nObj4\n7", color = blue];
	Obj5 [label="d\nObj5\n6", color = blue];
	Obj6 [label="M\nObj6\n8", color = blue];
	
	/* EDGES (OBJECT RELATIONSHIPS)    */
	Obj3 -> Obj2 [label="RSUB\n(_)\n",color=red,fontcolor=red,penwidth=3];
	Obj3 -> Obj6 [label="HORIZONTAL"];
	Obj6 -> Obj0 [label="HORIZONTAL"];
	Obj0 -> Obj4 [label="HORIZONTAL"];
	Obj1 -> Obj3 [label="HORIZONTAL"];
	Obj5 -> Obj1 [label="HORIZONTAL"];
	
}
