digraph dag {
	rankdir=LR; ranksep=1.0;
	edge[fontsize=13,weight=1]; node[fontsize=13,shape=box]; graph[ordering=out];

	/* NODES (OBJECTS) */
	Obj0 [label="semicolon\nObj0\n1 2", color = blue];
	Obj1 [label="Gamma\nObj1\n0", color = blue];
	Obj2 [label="zero\nObj2\n3", color = blue];
	
	/* EDGES (OBJECT RELATIONSHIPS)    */
	Obj2 -> Obj0 [label="HORIZONTAL\n(_)\n",color=red,fontcolor=red,penwidth=3];
	Obj1 -> Obj2 [label="RSUB"];
	
}
