digraph dag {
	rankdir=LR; ranksep=1.0;
	edge[fontsize=13,weight=1]; node[fontsize=13,shape=box]; graph[ordering=out];

	/* NODES (OBJECTS) */
	Obj0 [label="one\nObj0\n1", color = blue];
	Obj1 [label="seven\nObj1\n0", color = blue];
	Obj2 [label="ast\nObj2\n3", color = blue];
	Obj3 [label="two\nObj3\n2", color = blue];
	Obj4 [label="LeftPar\nObj4\n5", color = blue];
	Obj5 [label="c\nObj5\n4", color = blue];
	Obj6 [label="RightPar\nObj6\n6", color = blue];
	
	/* EDGES (OBJECT RELATIONSHIPS)    */
	Obj2 -> Obj4 [label="RSUB\n(_)\n",color=red,fontcolor=red,penwidth=3];
	Obj5 -> Obj0 [label="RSUB"];
	Obj1 -> Obj6 [label="HORIZONTAL"];
	Obj3 -> Obj1 [label="HORIZONTAL"];
	Obj5 -> Obj2 [label="RSUP"];
	Obj4 -> Obj3 [label="HORIZONTAL"];
	
}
