digraph dag {
	rankdir=LR; ranksep=1.0;
	edge[fontsize=13,weight=1]; node[fontsize=13,shape=box]; graph[ordering=out];

	/* NODES (OBJECTS) */
	Obj0 [label="m\nObj0\n24", color = blue];
	Obj1 [label="lambda\nObj1\n25", color = blue];
	Obj10 [label="m\nObj10\n0", color = blue];
	Obj11 [label="a\nObj11\n3", color = blue];
	Obj12 [label="one\nObj12\n2", color = blue];
	Obj13 [label="LeftPar\nObj13\n5", color = blue];
	Obj14 [label="m\nObj14\n4", color = blue];
	Obj15 [label="LeftPar\nObj15\n7", color = blue];
	Obj16 [label="comma\nObj16\n6", color = blue];
	Obj17 [label="m\nObj17\n9", color = blue];
	Obj18 [label="y\nObj18\n8", color = blue];
	Obj19 [label="d\nObj19\n11", color = blue];
	Obj2 [label="equal\nObj2\n26 27", color = blue];
	Obj20 [label="int\nObj20\n10", color = blue];
	Obj21 [label="RightPar\nObj21\n13", color = blue];
	Obj22 [label="RightPar\nObj22\n12", color = blue];
	Obj23 [label="x\nObj23\n15", color = blue];
	Obj24 [label="b\nObj24\n14", color = blue];
	Obj25 [label="y\nObj25\n17", color = blue];
	Obj26 [label="RightPar\nObj26\n16", color = blue];
	Obj27 [label="LeftPar\nObj27\n33", color = blue];
	Obj28 [label="s\nObj28\n18", color = blue];
	Obj29 [label="one\nObj29\n31", color = blue];
	Obj3 [label="u\nObj3\n20", color = blue];
	Obj30 [label="sum\nObj30\n30", color = blue];
	Obj31 [label="RightPar\nObj31\n34", color = blue];
	Obj32 [label="x\nObj32\n19", color = blue];
	Obj33 [label="rho\nObj33\n32", color = blue];
	Obj4 [label="LeftPar\nObj4\n21", color = blue];
	Obj5 [label="lambda\nObj5\n22", color = blue];
	Obj6 [label="y\nObj6\n23", color = blue];
	Obj7 [label="s\nObj7\n28", color = blue];
	Obj8 [label="u\nObj8\n29", color = blue];
	Obj9 [label="comma\nObj9\n1", color = blue];
	
	/* EDGES (OBJECT RELATIONSHIPS)    */
	Obj17 -> Obj20 [label="HORIZONTAL\n(_)\n",color=red,fontcolor=red,penwidth=3];
	Obj33 -> Obj17 [label="HORIZONTAL\n(RSUB)\n",color=red,fontcolor=red,penwidth=3];
	Obj26 -> Obj33 [label="HORIZONTAL"];
	Obj23 -> Obj21 [label="HORIZONTAL"];
	Obj5 -> Obj26 [label="HORIZONTAL"];
	Obj22 -> Obj19 [label="HORIZONTAL"];
	Obj30 -> Obj10 [label="UNDER"];
	Obj28 -> Obj29 [label="RSUB"];
	Obj1 -> Obj0 [label="RSUB"];
	Obj6 -> Obj1 [label="HORIZONTAL"];
	Obj8 -> Obj4 [label="HORIZONTAL"];
	Obj13 -> Obj25 [label="HORIZONTAL"];
	Obj31 -> Obj3 [label="HORIZONTAL"];
	Obj6 -> Obj16 [label="PUNC"];
	Obj20 -> Obj24 [label="RSUP"];
	Obj30 -> Obj28 [label="HORIZONTAL"];
	Obj32 -> Obj9 [label="PUNC"];
	Obj5 -> Obj14 [label="RSUB"];
	Obj19 -> Obj18 [label="HORIZONTAL"];
	Obj7 -> Obj27 [label="HORIZONTAL"];
	Obj15 -> Obj32 [label="HORIZONTAL"];
	Obj1 -> Obj31 [label="HORIZONTAL"];
	Obj28 -> Obj15 [label="HORIZONTAL"];
	Obj7 -> Obj12 [label="RSUB"];
	Obj32 -> Obj5 [label="HORIZONTAL"];
	Obj21 -> Obj2 [label="HORIZONTAL"];
	Obj20 -> Obj7 [label="HORIZONTAL"];
	Obj20 -> Obj11 [label="RSUB"];
	Obj27 -> Obj6 [label="HORIZONTAL"];
	Obj2 -> Obj30 [label="HORIZONTAL"];
	Obj3 -> Obj13 [label="HORIZONTAL"];
	Obj25 -> Obj22 [label="HORIZONTAL"];
	Obj4 -> Obj23 [label="HORIZONTAL"];
	
}
