digraph dag {
	rankdir=LR; ranksep=1.0;
	edge[fontsize=13,weight=1]; node[fontsize=13,shape=box]; graph[ordering=out];

	/* NODES (OBJECTS) */
	Obj0 [label="x\nObj0\n24", color = blue];
	Obj1 [label="one\nObj1\n25", color = blue];
	Obj10 [label="comma\nObj10\n0", color = blue];
	Obj11 [label="minus\nObj11\n2 3 4", color = blue];
	Obj12 [label="one\nObj12\n5", color = blue];
	Obj13 [label="in\nObj13\n7", color = blue];
	Obj14 [label="n\nObj14\n6", color = blue];
	Obj15 [label="one\nObj15\n9", color = blue];
	Obj16 [label="comma\nObj16\n8", color = blue];
	Obj17 [label="BigLeftPar\nObj17\n12", color = blue];
	Obj18 [label="n\nObj18\n11", color = blue];
	Obj19 [label="H\nObj19\n10", color = blue];
	Obj2 [label="x\nObj2\n26", color = blue];
	Obj20 [label="comma\nObj20\n13", color = blue];
	Obj21 [label="n\nObj21\n38", color = blue];
	Obj22 [label="one\nObj22\n15", color = blue];
	Obj23 [label="RightPar\nObj23\n14", color = blue];
	Obj24 [label="minus\nObj24\n17", color = blue];
	Obj25 [label="comma\nObj25\n16", color = blue];
	Obj26 [label="minus\nObj26\n33", color = blue];
	Obj27 [label="x\nObj27\n32", color = blue];
	Obj28 [label="x\nObj28\n31", color = blue];
	Obj29 [label="one\nObj29\n30", color = blue];
	Obj3 [label="ldots\nObj3\n27 28 29", color = blue];
	Obj30 [label="BigRightPar\nObj30\n37", color = blue];
	Obj31 [label="n\nObj31\n36", color = blue];
	Obj32 [label="comma\nObj32\n35", color = blue];
	Obj33 [label="n\nObj33\n34", color = blue];
	Obj34 [label="x\nObj34\n19", color = blue];
	Obj35 [label="LeftPar\nObj35\n18", color = blue];
	Obj4 [label="k\nObj4\n20", color = blue];
	Obj5 [label="comma\nObj5\n21", color = blue];
	Obj6 [label="comma\nObj6\n22", color = blue];
	Obj7 [label="x\nObj7\n23", color = blue];
	Obj8 [label="ldots\nObj8\n39 40 41", color = blue];
	Obj9 [label="x\nObj9\n1", color = blue];
	
	/* EDGES (OBJECT RELATIONSHIPS)    */
	Obj12 -> Obj20 [label="PUNC\n(_)\n",color=red,fontcolor=red,penwidth=3];
	Obj34 -> Obj16 [label="UNDER\n(_)\n",color=red,fontcolor=red,penwidth=3];
	Obj15 -> Obj25 [label="PUNC\n(_)\n",color=red,fontcolor=red,penwidth=3];
	Obj22 -> Obj5 [label="PUNC\n(_)\n",color=red,fontcolor=red,penwidth=3];
	Obj18 -> Obj6 [label="HORIZONTAL\n(_)\n",color=red,fontcolor=red,penwidth=3];
	Obj4 -> Obj17 [label="HORIZONTAL"];
	Obj31 -> Obj24 [label="HORIZONTAL"];
	Obj28 -> Obj2 [label="HORIZONTAL"];
	Obj9 -> Obj11 [label="RSUP"];
	Obj2 -> Obj34 [label="HORIZONTAL"];
	Obj19 -> Obj35 [label="HORIZONTAL"];
	Obj13 -> Obj4 [label="HORIZONTAL"];
	Obj9 -> Obj14 [label="RSUB"];
	Obj2 -> Obj31 [label="RSUB"];
	Obj5 -> Obj3 [label="HORIZONTAL"];
	Obj23 -> Obj13 [label="HORIZONTAL"];
	Obj7 -> Obj33 [label="RSUB"];
	Obj26 -> Obj15 [label="HORIZONTAL"];
	Obj33 -> Obj26 [label="HORIZONTAL"];
	Obj34 -> Obj21 [label="RSUB"];
	Obj9 -> Obj30 [label="HORIZONTAL"];
	Obj27 -> Obj18 [label="RSUB"];
	Obj28 -> Obj12 [label="RSUB"];
	Obj0 -> Obj22 [label="RSUB"];
	Obj7 -> Obj27 [label="HORIZONTAL"];
	Obj35 -> Obj28 [label="HORIZONTAL"];
	Obj0 -> Obj7 [label="HORIZONTAL"];
	Obj3 -> Obj10 [label="HORIZONTAL"];
	Obj20 -> Obj8 [label="HORIZONTAL"];
	Obj8 -> Obj32 [label="HORIZONTAL"];
	Obj27 -> Obj9 [label="HORIZONTAL"];
	Obj11 -> Obj29 [label="HORIZONTAL"];
	Obj17 -> Obj0 [label="HORIZONTAL"];
	Obj34 -> Obj23 [label="HORIZONTAL"];
	Obj24 -> Obj1 [label="HORIZONTAL"];
	
}
