digraph dag {
	rankdir=LR; ranksep=1.0;
	edge[fontsize=13,weight=1]; node[fontsize=13,shape=box]; graph[ordering=out];

	/* NODES (OBJECTS) */
	Obj0 [label="zero\nObj0\n10", color = blue];
	Obj1 [label="LeftPar\nObj1\n1", color = blue];
	Obj10 [label="RightPar\nObj10\n8", color = blue];
	Obj2 [label="comma\nObj2\n0", color = blue];
	Obj3 [label="A\nObj3\n3", color = blue];
	Obj4 [label="o\nObj4\n2", color = blue];
	Obj5 [label="zero\nObj5\n5", color = blue];
	Obj6 [label="H\nObj6\n4", color = blue];
	Obj7 [label="C\nObj7\n7", color = blue];
	Obj8 [label="B\nObj8\n6", color = blue];
	Obj9 [label="m\nObj9\n9", color = blue];
	
	/* EDGES (OBJECT RELATIONSHIPS)    */
	Obj9 -> Obj7 [label="RSUB\n(_)\n",color=red,fontcolor=red,penwidth=3];
	Obj3 -> Obj8 [label="HORIZONTAL"];
	Obj9 -> Obj1 [label="HORIZONTAL"];
	Obj3 -> Obj0 [label="RSUB"];
	Obj1 -> Obj3 [label="HORIZONTAL"];
	Obj6 -> Obj4 [label="HORIZONTAL"];
	Obj3 -> Obj2 [label="PUNC"];
	Obj8 -> Obj5 [label="RSUB"];
	Obj8 -> Obj10 [label="HORIZONTAL"];
	Obj4 -> Obj9 [label="HORIZONTAL"];
	
}
