digraph dag {
	rankdir=LR; ranksep=1.0;
	edge[fontsize=13,weight=1]; node[fontsize=13,shape=box]; graph[ordering=out];

	/* NODES (OBJECTS) */
	Obj0 [label="i\nObj0\n23 24", color = blue];
	Obj1 [label="one\nObj1\n25", color = blue];
	Obj10 [label="one\nObj10\n7", color = blue];
	Obj11 [label="mu\nObj11\n6", color = blue];
	Obj12 [label="i\nObj12\n10 9", color = blue];
	Obj13 [label="RightPar\nObj13\n8", color = blue];
	Obj14 [label="minus\nObj14\n11", color = blue];
	Obj15 [label="comma\nObj15\n13", color = blue];
	Obj16 [label="LeftPar\nObj16\n12", color = blue];
	Obj17 [label="RightPar\nObj17\n15", color = blue];
	Obj18 [label="overline\nObj18\n14", color = blue];
	Obj19 [label="i\nObj19\n16 17", color = blue];
	Obj2 [label="m\nObj2\n26", color = blue];
	Obj20 [label="n\nObj20\n19", color = blue];
	Obj21 [label="minus\nObj21\n18", color = blue];
	Obj3 [label="colon\nObj3\n20 21", color = blue];
	Obj4 [label="n\nObj4\n22", color = blue];
	Obj5 [label="mapsto\nObj5\n1", color = blue];
	Obj6 [label="comma\nObj6\n0", color = blue];
	Obj7 [label="i\nObj7\n3 4", color = blue];
	Obj8 [label="LeftPar\nObj8\n2", color = blue];
	Obj9 [label="m\nObj9\n5", color = blue];
	
	/* EDGES (OBJECT RELATIONSHIPS)    */
	Obj12 -> Obj6 [label="PUNC\n(_)\n",color=red,fontcolor=red,penwidth=3];
	Obj1 -> Obj21 [label="HORIZONTAL"];
	Obj10 -> Obj14 [label="HORIZONTAL"];
	Obj20 -> Obj10 [label="RSUB"];
	Obj20 -> Obj17 [label="HORIZONTAL"];
	Obj3 -> Obj8 [label="HORIZONTAL"];
	Obj4 -> Obj0 [label="RSUB"];
	Obj2 -> Obj20 [label="HORIZONTAL"];
	Obj8 -> Obj9 [label="HORIZONTAL"];
	Obj21 -> Obj12 [label="HORIZONTAL"];
	Obj4 -> Obj13 [label="HORIZONTAL"];
	Obj11 -> Obj18 [label="UPPER"];
	Obj16 -> Obj2 [label="HORIZONTAL"];
	Obj2 -> Obj1 [label="RSUB"];
	Obj11 -> Obj3 [label="HORIZONTAL"];
	Obj9 -> Obj15 [label="PUNC"];
	Obj9 -> Obj7 [label="RSUB"];
	Obj5 -> Obj16 [label="HORIZONTAL"];
	Obj9 -> Obj4 [label="HORIZONTAL"];
	Obj14 -> Obj19 [label="HORIZONTAL"];
	Obj13 -> Obj5 [label="HORIZONTAL"];
	
}
