digraph dag {
	rankdir=LR; ranksep=1.0;
	edge[fontsize=13,weight=1]; node[fontsize=13,shape=box]; graph[ordering=out];

	/* NODES (OBJECTS) */
	Obj0 [label="comma\nObj0\n1", color = blue];
	Obj1 [label="one\nObj1\n0", color = blue];
	Obj2 [label="u\nObj2\n3", color = blue];
	Obj3 [label="comma\nObj3\n2", color = blue];
	Obj4 [label="ldots\nObj4\n5 6 7", color = blue];
	Obj5 [label="two\nObj5\n4", color = blue];
	Obj6 [label="u\nObj6\n8", color = blue];
	
	/* EDGES (OBJECT RELATIONSHIPS)    */
	Obj5 -> Obj4 [label="HORIZONTAL\n(_)\n",color=red,fontcolor=red,penwidth=3];
	Obj4 -> Obj0 [label="UNDER\n(_)\n",color=red,fontcolor=red,penwidth=3];
	Obj1 -> Obj3 [label="HORIZONTAL\n(_)\n",color=red,fontcolor=red,penwidth=3];
	Obj6 -> Obj5 [label="RSUB"];
	Obj2 -> Obj1 [label="RSUB"];
	Obj2 -> Obj6 [label="HORIZONTAL"];
	
}
