digraph dag {
	rankdir=LR; ranksep=1.0;
	edge[fontsize=13,weight=1]; node[fontsize=13,shape=box]; graph[ordering=out];

	/* NODES (OBJECTS) */
	Obj0 [label="four\nObj0\n1", color = blue];
	Obj1 [label="LeftPar\nObj1\n0", color = blue];
	Obj2 [label="ast\nObj2\n3", color = blue];
	Obj3 [label="V\nObj3\n2", color = blue];
	Obj4 [label="period\nObj4\n5", color = blue];
	Obj5 [label="three\nObj5\n4", color = blue];
	Obj6 [label="two\nObj6\n7", color = blue];
	Obj7 [label="RightPar\nObj7\n6", color = blue];
	
	/* EDGES (OBJECT RELATIONSHIPS)    */
	Obj2 -> Obj4 [label="RSUP\n(_)\n",color=red,fontcolor=red,penwidth=3];
	Obj2 -> Obj1 [label="HORIZONTAL"];
	Obj6 -> Obj7 [label="HORIZONTAL"];
	Obj1 -> Obj6 [label="HORIZONTAL"];
	Obj3 -> Obj2 [label="RSUP"];
	Obj5 -> Obj0 [label="HORIZONTAL"];
	Obj3 -> Obj5 [label="RSUB"];
	
}
