digraph dag {
	rankdir=LR; ranksep=1.0;
	edge[fontsize=13,weight=1]; node[fontsize=13,shape=box]; graph[ordering=out];

	/* NODES (OBJECTS) */
	Obj0 [label="one\nObj0\n1", color = blue];
	Obj1 [label="comma\nObj1\n0", color = blue];
	Obj2 [label="a\nObj2\n3", color = blue];
	Obj3 [label="comma\nObj3\n2", color = blue];
	Obj4 [label="s\nObj4\n5", color = blue];
	Obj5 [label="a\nObj5\n4", color = blue];
	Obj6 [label="cdots\nObj6\n6 7 8", color = blue];
	
	/* EDGES (OBJECT RELATIONSHIPS)    */
	Obj1 -> Obj3 [label="PUNC\n(_)\n",color=red,fontcolor=red,penwidth=3];
	Obj6 -> Obj2 [label="HORIZONTAL"];
	Obj5 -> Obj6 [label="HORIZONTAL"];
	Obj6 -> Obj1 [label="PUNC"];
	Obj5 -> Obj0 [label="RSUB"];
	Obj2 -> Obj4 [label="RSUB"];
	
}
