digraph dag {
	rankdir=LR; ranksep=1.0;
	edge[fontsize=13,weight=1]; node[fontsize=13,shape=box]; graph[ordering=out];

	/* NODES (OBJECTS) */
	Obj0 [label="r\nObj0\n24", color = blue];
	Obj1 [label="MiddleLeftPar\nObj1\n25", color = blue];
	Obj10 [label="leq\nObj10\n2 3", color = blue];
	Obj11 [label="zero\nObj11\n5", color = blue];
	Obj12 [label="in\nObj12\n4", color = blue];
	Obj13 [label="one\nObj13\n7", color = blue];
	Obj14 [label="comma\nObj14\n6", color = blue];
	Obj15 [label="P\nObj15\n9", color = blue];
	Obj16 [label="plus\nObj16\n8", color = blue];
	Obj17 [label="w\nObj17\n11", color = blue];
	Obj18 [label="z\nObj18\n10", color = blue];
	Obj19 [label="f\nObj19\n13", color = blue];
	Obj2 [label="equal\nObj2\n26 27", color = blue];
	Obj20 [label="in\nObj20\n12", color = blue];
	Obj21 [label="RightPar\nObj21\n15", color = blue];
	Obj22 [label="LeftPar\nObj22\n14", color = blue];
	Obj23 [label="LeftPar\nObj23\n17", color = blue];
	Obj24 [label="f\nObj24\n16", color = blue];
	Obj25 [label="l\nObj25\n33", color = blue];
	Obj26 [label="MiddleRightPar\nObj26\n18", color = blue];
	Obj27 [label="one\nObj27\n31", color = blue];
	Obj28 [label="RightPar\nObj28\n30", color = blue];
	Obj29 [label="one\nObj29\n19", color = blue];
	Obj3 [label="colon\nObj3\n20 21", color = blue];
	Obj30 [label="RightPar\nObj30\n32", color = blue];
	Obj4 [label="z\nObj4\n22", color = blue];
	Obj5 [label="B\nObj5\n23", color = blue];
	Obj6 [label="a\nObj6\n28", color = blue];
	Obj7 [label="w\nObj7\n29", color = blue];
	Obj8 [label="LeftPar\nObj8\n1", color = blue];
	Obj9 [label="d\nObj9\n0", color = blue];
	
	/* EDGES (OBJECT RELATIONSHIPS)    */
	Obj14 -> Obj22 [label="HORIZONTAL\n(_)\n",color=red,fontcolor=red,penwidth=3];
	Obj25 -> Obj23 [label="RSUP\n(_)\n",color=red,fontcolor=red,penwidth=3];
	Obj7 -> Obj14 [label="PUNC"];
	Obj20 -> Obj5 [label="HORIZONTAL"];
	Obj18 -> Obj21 [label="HORIZONTAL"];
	Obj30 -> Obj10 [label="HORIZONTAL"];
	Obj9 -> Obj8 [label="HORIZONTAL"];
	Obj0 -> Obj27 [label="RSUB"];
	Obj22 -> Obj18 [label="HORIZONTAL"];
	Obj17 -> Obj12 [label="HORIZONTAL"];
	Obj19 -> Obj25 [label="RSUB"];
	Obj29 -> Obj26 [label="HORIZONTAL"];
	Obj15 -> Obj0 [label="RSUB"];
	Obj6 -> Obj16 [label="HORIZONTAL"];
	Obj5 -> Obj2 [label="HORIZONTAL"];
	Obj21 -> Obj30 [label="HORIZONTAL"];
	Obj1 -> Obj17 [label="HORIZONTAL"];
	Obj15 -> Obj11 [label="RSUP"];
	Obj12 -> Obj15 [label="HORIZONTAL"];
	Obj4 -> Obj28 [label="HORIZONTAL"];
	Obj23 -> Obj4 [label="HORIZONTAL"];
	Obj28 -> Obj20 [label="HORIZONTAL"];
	Obj16 -> Obj29 [label="HORIZONTAL"];
	Obj2 -> Obj1 [label="HORIZONTAL"];
	Obj3 -> Obj9 [label="HORIZONTAL"];
	Obj15 -> Obj3 [label="HORIZONTAL"];
	Obj8 -> Obj7 [label="HORIZONTAL"];
	Obj7 -> Obj24 [label="HORIZONTAL"];
	Obj10 -> Obj6 [label="HORIZONTAL"];
	Obj18 -> Obj13 [label="RSUB"];
	
}
