digraph dag {
	rankdir=LR; ranksep=1.0;
	edge[fontsize=13,weight=1]; node[fontsize=13,shape=box]; graph[ordering=out];

	/* NODES (OBJECTS) */
	Obj0 [label="n\nObj0\n1", color = blue];
	Obj1 [label="one\nObj1\n0", color = blue];
	Obj2 [label="ldots\nObj2\n3 4 5", color = blue];
	Obj3 [label="x\nObj3\n2", color = blue];
	Obj4 [label="x\nObj4\n7", color = blue];
	Obj5 [label="comma\nObj5\n6", color = blue];
	Obj6 [label="comma\nObj6\n8", color = blue];
	
	/* EDGES (OBJECT RELATIONSHIPS)    */
	Obj4 -> Obj5 [label="UNDER\n(_)\n",color=red,fontcolor=red,penwidth=3];
	Obj3 -> Obj1 [label="RSUB"];
	Obj5 -> Obj2 [label="HORIZONTAL"];
	Obj4 -> Obj0 [label="RSUB"];
	Obj2 -> Obj6 [label="HORIZONTAL"];
	Obj3 -> Obj4 [label="HORIZONTAL"];
	
}
