digraph dag {
	rankdir=LR; ranksep=1.0;
	edge[fontsize=13,weight=1]; node[fontsize=13,shape=box]; graph[ordering=out];

	/* NODES (OBJECTS) */
	Obj0 [label="fractionalLine\nObj0\n30", color = blue];
	Obj1 [label="i\nObj1\n27 28", color = blue];
	Obj10 [label="i\nObj10\n49 50", color = blue];
	Obj11 [label="one\nObj11\n46", color = blue];
	Obj12 [label="comma\nObj12\n47", color = blue];
	Obj13 [label="LeftPar\nObj13\n44", color = blue];
	Obj14 [label="two\nObj14\n45", color = blue];
	Obj15 [label="LeftPar\nObj15\n42", color = blue];
	Obj16 [label="k\nObj16\n43", color = blue];
	Obj17 [label="slash\nObj17\n40", color = blue];
	Obj18 [label="LeftPar\nObj18\n41", color = blue];
	Obj19 [label="u\nObj19\n1", color = blue];
	Obj2 [label="RightPar\nObj2\n29", color = blue];
	Obj20 [label="e\nObj20\n0", color = blue];
	Obj21 [label="minus\nObj21\n3", color = blue];
	Obj22 [label="one\nObj22\n2", color = blue];
	Obj23 [label="minus\nObj23\n5", color = blue];
	Obj24 [label="minus\nObj24\n4", color = blue];
	Obj25 [label="x\nObj25\n7", color = blue];
	Obj26 [label="two\nObj26\n6", color = blue];
	Obj27 [label="comma\nObj27\n9", color = blue];
	Obj28 [label="MiddleLeftPar\nObj28\n8", color = blue];
	Obj29 [label="RightPar\nObj29\n39", color = blue];
	Obj3 [label="LeftPar\nObj3\n34", color = blue];
	Obj30 [label="pi\nObj30\n12", color = blue];
	Obj31 [label="two\nObj31\n14", color = blue];
	Obj32 [label="equal\nObj32\n10 11", color = blue];
	Obj33 [label="u\nObj33\n13", color = blue];
	Obj34 [label="i\nObj34\n37 38", color = blue];
	Obj35 [label="RightPar\nObj35\n15", color = blue];
	Obj36 [label="k\nObj36\n48", color = blue];
	Obj37 [label="delta\nObj37\n17", color = blue];
	Obj38 [label="delta\nObj38\n16", color = blue];
	Obj39 [label="RightPar\nObj39\n33", color = blue];
	Obj4 [label="u\nObj4\n24", color = blue];
	Obj40 [label="LeftPar\nObj40\n18", color = blue];
	Obj41 [label="LeftPar\nObj41\n31", color = blue];
	Obj42 [label="k\nObj42\n23", color = blue];
	Obj43 [label="minus\nObj43\n51", color = blue];
	Obj44 [label="k\nObj44\n36", color = blue];
	Obj45 [label="RightPar\nObj45\n35", color = blue];
	Obj46 [label="k\nObj46\n52", color = blue];
	Obj47 [label="RightPar\nObj47\n19", color = blue];
	Obj48 [label="e\nObj48\n32", color = blue];
	Obj5 [label="MiddleRightPar\nObj5\n25", color = blue];
	Obj6 [label="x\nObj6\n26", color = blue];
	Obj7 [label="RightPar\nObj7\n20", color = blue];
	Obj8 [label="LeftPar\nObj8\n21", color = blue];
	Obj9 [label="x\nObj9\n22", color = blue];
	
	/* EDGES (OBJECT RELATIONSHIPS)    */
	Obj2 -> Obj19 [label="RSUB\n(_)\n",color=red,fontcolor=red,penwidth=3];
	Obj7 -> Obj33 [label="RSUB\n(_)\n",color=red,fontcolor=red,penwidth=3];
	Obj26 -> Obj29 [label="HORIZONTAL\n(_)\n",color=red,fontcolor=red,penwidth=3];
	Obj14 -> Obj3 [label="HORIZONTAL\n(_)\n",color=red,fontcolor=red,penwidth=3];
	Obj26 -> Obj10 [label="RSUP\n(HORIZONTAL)\n",color=red,fontcolor=red,penwidth=3];
	Obj34 -> Obj38 [label="HORIZONTAL"];
	Obj48 -> Obj24 [label="RSUP"];
	Obj9 -> Obj39 [label="HORIZONTAL"];
	Obj29 -> Obj28 [label="HORIZONTAL"];
	Obj28 -> Obj20 [label="HORIZONTAL"];
	Obj4 -> Obj42 [label="RSUB"];
	Obj44 -> Obj45 [label="HORIZONTAL"];
	Obj25 -> Obj21 [label="HORIZONTAL"];
	Obj33 -> Obj8 [label="HORIZONTAL"];
	Obj37 -> Obj41 [label="HORIZONTAL"];
	Obj1 -> Obj37 [label="HORIZONTAL"];
	Obj39 -> Obj32 [label="HORIZONTAL"];
	Obj6 -> Obj36 [label="HORIZONTAL"];
	Obj6 -> Obj12 [label="PUNC"];
	Obj45 -> Obj5 [label="HORIZONTAL"];
	Obj35 -> Obj0 [label="RSUP"];
	Obj30 -> Obj35 [label="HORIZONTAL"];
	Obj24 -> Obj34 [label="HORIZONTAL"];
	Obj4 -> Obj13 [label="HORIZONTAL"];
	Obj15 -> Obj31 [label="HORIZONTAL"];
	Obj8 -> Obj6 [label="HORIZONTAL"];
	Obj0 -> Obj22 [label="UPPER"];
	Obj47 -> Obj43 [label="HORIZONTAL"];
	Obj41 -> Obj46 [label="HORIZONTAL"];
	Obj29 -> Obj23 [label="RSUP"];
	Obj36 -> Obj47 [label="HORIZONTAL"];
	Obj18 -> Obj16 [label="HORIZONTAL"];
	Obj43 -> Obj48 [label="HORIZONTAL"];
	Obj13 -> Obj9 [label="HORIZONTAL"];
	Obj20 -> Obj1 [label="RSUP"];
	Obj16 -> Obj2 [label="HORIZONTAL"];
	Obj32 -> Obj15 [label="HORIZONTAL"];
	Obj31 -> Obj17 [label="HORIZONTAL"];
	Obj38 -> Obj18 [label="HORIZONTAL"];
	Obj23 -> Obj11 [label="HORIZONTAL"];
	Obj46 -> Obj7 [label="HORIZONTAL"];
	Obj3 -> Obj26 [label="HORIZONTAL"];
	Obj25 -> Obj27 [label="PUNC"];
	Obj40 -> Obj25 [label="HORIZONTAL"];
	Obj21 -> Obj44 [label="HORIZONTAL"];
	Obj19 -> Obj40 [label="HORIZONTAL"];
	Obj0 -> Obj14 [label="UNDER"];
	Obj17 -> Obj30 [label="HORIZONTAL"];
	
}
