digraph dag {
	rankdir=LR; ranksep=1.0;
	edge[fontsize=13,weight=1]; node[fontsize=13,shape=box]; graph[ordering=out];

	/* NODES (OBJECTS) */
	Obj0 [label="rightarrow\nObj0\n11", color = blue];
	Obj1 [label="LeftPar\nObj1\n10", color = blue];
	Obj10 [label="comma\nObj10\n4", color = blue];
	Obj11 [label="RightPar\nObj11\n7", color = blue];
	Obj12 [label="zero\nObj12\n6", color = blue];
	Obj13 [label="zero\nObj13\n9", color = blue];
	Obj14 [label="k\nObj14\n8", color = blue];
	Obj2 [label="xi\nObj2\n13", color = blue];
	Obj3 [label="RightPar\nObj3\n12", color = blue];
	Obj4 [label="x\nObj4\n14", color = blue];
	Obj5 [label="xi\nObj5\n1", color = blue];
	Obj6 [label="LeftPar\nObj6\n0", color = blue];
	Obj7 [label="comma\nObj7\n3", color = blue];
	Obj8 [label="x\nObj8\n2", color = blue];
	Obj9 [label="k\nObj9\n5", color = blue];
	
	/* EDGES (OBJECT RELATIONSHIPS)    */
	Obj9 -> Obj10 [label="PUNC\n(_)\n",color=red,fontcolor=red,penwidth=3];
	Obj12 -> Obj7 [label="PUNC\n(_)\n",color=red,fontcolor=red,penwidth=3];
	Obj5 -> Obj14 [label="RSUB"];
	Obj2 -> Obj3 [label="HORIZONTAL"];
	Obj8 -> Obj9 [label="RSUB"];
	Obj5 -> Obj11 [label="HORIZONTAL"];
	Obj1 -> Obj4 [label="HORIZONTAL"];
	Obj8 -> Obj5 [label="HORIZONTAL"];
	Obj4 -> Obj12 [label="RSUB"];
	Obj11 -> Obj0 [label="HORIZONTAL"];
	Obj0 -> Obj1 [label="HORIZONTAL"];
	Obj6 -> Obj8 [label="HORIZONTAL"];
	Obj2 -> Obj13 [label="RSUB"];
	Obj4 -> Obj2 [label="HORIZONTAL"];
	
}
