digraph dag {
	rankdir=LR; ranksep=1.0;
	edge[fontsize=13,weight=1]; node[fontsize=13,shape=box]; graph[ordering=out];

	/* NODES (OBJECTS) */
	Obj0 [label="equal\nObj0\n0 1", color = blue];
	Obj1 [label="T\nObj1\n3 4", color = blue];
	Obj2 [label="B\nObj2\n2", color = blue];
	Obj3 [label="T\nObj3\n5 6", color = blue];
	
	/* EDGES (OBJECT RELATIONSHIPS)    */
	Obj1 -> Obj0 [label="RSUB\n(HORIZONTAL)\n",color=red,fontcolor=red,penwidth=3];
	Obj0 -> Obj3 [label="HORIZONTAL"];
	Obj3 -> Obj2 [label="RSUB"];
	
}
