digraph dag {
	rankdir=LR; ranksep=1.0;
	edge[fontsize=13,weight=1]; node[fontsize=13,shape=box]; graph[ordering=out];

	/* NODES (OBJECTS) */
	Obj0 [label="RightPar\nObj0\n24", color = blue];
	Obj1 [label="B\nObj1\n25", color = blue];
	Obj10 [label="Q\nObj10\n3 4", color = blue];
	Obj11 [label="ast\nObj11\n2", color = blue];
	Obj12 [label="ast\nObj12\n5", color = blue];
	Obj13 [label="T\nObj13\n7", color = blue];
	Obj14 [label="x\nObj14\n6", color = blue];
	Obj15 [label="alpha\nObj15\n9", color = blue];
	Obj16 [label="Q\nObj16\n8", color = blue];
	Obj17 [label="n\nObj17\n10 11", color = blue];
	Obj18 [label="comma\nObj18\n13", color = blue];
	Obj19 [label="sum\nObj19\n12", color = blue];
	Obj2 [label="equal\nObj2\n26 27", color = blue];
	Obj20 [label="LeftPar\nObj20\n15", color = blue];
	Obj21 [label="n\nObj21\n14", color = blue];
	Obj22 [label="LeftPar\nObj22\n17", color = blue];
	Obj23 [label="RightPar\nObj23\n16", color = blue];
	Obj24 [label="RightPar\nObj24\n33", color = blue];
	Obj25 [label="RightPar\nObj25\n18", color = blue];
	Obj26 [label="leqq\nObj26\n30 31 32", color = blue];
	Obj27 [label="alpha\nObj27\n37", color = blue];
	Obj28 [label="fractionalLine\nObj28\n36", color = blue];
	Obj29 [label="T\nObj29\n35", color = blue];
	Obj3 [label="x\nObj3\n19 20", color = blue];
	Obj30 [label="LeftPar\nObj30\n34", color = blue];
	Obj4 [label="n\nObj4\n21", color = blue];
	Obj5 [label="semicolon\nObj5\n22 23", color = blue];
	Obj6 [label="LeftPar\nObj6\n28", color = blue];
	Obj7 [label="ast\nObj7\n29", color = blue];
	Obj8 [label="in\nObj8\n1", color = blue];
	Obj9 [label="n\nObj9\n0", color = blue];
	
	/* EDGES (OBJECT RELATIONSHIPS)    */
	Obj22 -> Obj16 [label="RSUB\n(_)\n",color=red,fontcolor=red,penwidth=3];
	Obj11 -> Obj28 [label="UPPER\n(_)\n",color=red,fontcolor=red,penwidth=3];
	Obj2 -> Obj4 [label="RSUB\n(_)\n",color=red,fontcolor=red,penwidth=3];
	Obj24 -> Obj27 [label="RSUP"];
	Obj23 -> Obj2 [label="HORIZONTAL"];
	Obj30 -> Obj21 [label="HORIZONTAL"];
	Obj1 -> Obj15 [label="RSUB"];
	Obj8 -> Obj29 [label="HORIZONTAL"];
	Obj10 -> Obj12 [label="RSUP"];
	Obj0 -> Obj8 [label="HORIZONTAL"];
	Obj2 -> Obj19 [label="HORIZONTAL"];
	Obj20 -> Obj17 [label="HORIZONTAL"];
	Obj1 -> Obj7 [label="RSUP"];
	Obj4 -> Obj26 [label="HORIZONTAL"];
	Obj21 -> Obj25 [label="HORIZONTAL"];
	Obj5 -> Obj10 [label="HORIZONTAL"];
	Obj14 -> Obj5 [label="HORIZONTAL"];
	Obj3 -> Obj18 [label="PUNC"];
	Obj19 -> Obj22 [label="HORIZONTAL"];
	Obj1 -> Obj6 [label="HORIZONTAL"];
	Obj16 -> Obj11 [label="RSUP"];
	Obj6 -> Obj3 [label="HORIZONTAL"];
	Obj17 -> Obj0 [label="HORIZONTAL"];
	Obj16 -> Obj30 [label="HORIZONTAL"];
	Obj26 -> Obj14 [label="HORIZONTAL"];
	Obj13 -> Obj23 [label="HORIZONTAL"];
	Obj10 -> Obj20 [label="HORIZONTAL"];
	Obj28 -> Obj9 [label="UPPER"];
	Obj28 -> Obj24 [label="HORIZONTAL"];
	Obj3 -> Obj13 [label="HORIZONTAL"];
	
}
