digraph dag {
	rankdir=LR; ranksep=1.0;
	edge[fontsize=13,weight=1]; node[fontsize=13,shape=box]; graph[ordering=out];

	/* NODES (OBJECTS) */
	Obj0 [label="i\nObj0\n10 11", color = blue];
	Obj1 [label="equal\nObj1\n13 14", color = blue];
	Obj10 [label="i\nObj10\n8 9", color = blue];
	Obj2 [label="k\nObj2\n12", color = blue];
	Obj3 [label="K\nObj3\n15", color = blue];
	Obj4 [label="a\nObj4\n1", color = blue];
	Obj5 [label="A\nObj5\n0", color = blue];
	Obj6 [label="i\nObj6\n2 3", color = blue];
	Obj7 [label="one\nObj7\n5", color = blue];
	Obj8 [label="sum\nObj8\n4", color = blue];
	Obj9 [label="equal\nObj9\n6 7", color = blue];
	
	/* EDGES (OBJECT RELATIONSHIPS)    */
	Obj8 -> Obj2 [label="HORIZONTAL\n(_)\n",color=red,fontcolor=red,penwidth=3];
	Obj7 -> Obj4 [label="HORIZONTAL\n(_)\n",color=red,fontcolor=red,penwidth=3];
	Obj4 -> Obj5 [label="HORIZONTAL"];
	Obj4 -> Obj6 [label="RSUB"];
	Obj3 -> Obj1 [label="HORIZONTAL"];
	Obj1 -> Obj8 [label="HORIZONTAL"];
	Obj9 -> Obj7 [label="HORIZONTAL"];
	Obj10 -> Obj9 [label="HORIZONTAL"];
	Obj5 -> Obj0 [label="RSUB"];
	Obj8 -> Obj10 [label="RSUB"];
	
}
