digraph dag {
	rankdir=LR; ranksep=1.0;
	edge[fontsize=13,weight=1]; node[fontsize=13,shape=box]; graph[ordering=out];

	/* NODES (OBJECTS) */
	Obj0 [label="comma\nObj0\n10", color = blue];
	Obj1 [label="two\nObj1\n1", color = blue];
	Obj2 [label="one\nObj2\n0", color = blue];
	Obj3 [label="LeftPar\nObj3\n3", color = blue];
	Obj4 [label="a\nObj4\n2", color = blue];
	Obj5 [label="comma\nObj5\n5", color = blue];
	Obj6 [label="a\nObj6\n4", color = blue];
	Obj7 [label="ldots\nObj7\n6 7 8", color = blue];
	Obj8 [label="RightPar\nObj8\n9", color = blue];
	
	/* EDGES (OBJECT RELATIONSHIPS)    */
	Obj4 -> Obj5 [label="UNDER\n(_)\n",color=red,fontcolor=red,penwidth=3];
	Obj8 -> Obj0 [label="LSUB\n(_)\n",color=red,fontcolor=red,penwidth=3];
	Obj3 -> Obj6 [label="HORIZONTAL"];
	Obj4 -> Obj8 [label="HORIZONTAL"];
	Obj6 -> Obj2 [label="RSUB"];
	Obj6 -> Obj4 [label="HORIZONTAL"];
	Obj0 -> Obj7 [label="HORIZONTAL"];
	Obj4 -> Obj1 [label="RSUB"];
	
}
