digraph dag {
	rankdir=LR; ranksep=1.0;
	edge[fontsize=13,weight=1]; node[fontsize=13,shape=box]; graph[ordering=out];

	/* NODES (OBJECTS) */
	Obj0 [label="Delta\nObj0\n10 11 12 13 8 9", color = blue];
	Obj1 [label="delta\nObj1\n15", color = blue];
	Obj10 [label="gamma\nObj10\n7", color = blue];
	Obj2 [label="RightPar\nObj2\n14", color = blue];
	Obj3 [label="comma\nObj3\n17", color = blue];
	Obj4 [label="LeftPar\nObj4\n16", color = blue];
	Obj5 [label="in\nObj5\n1", color = blue];
	Obj6 [label="zero\nObj6\n0", color = blue];
	Obj7 [label="zero\nObj7\n3", color = blue];
	Obj8 [label="c\nObj8\n2", color = blue];
	Obj9 [label="epsilon\nObj9\n4 5 6", color = blue];
	
	/* EDGES (OBJECT RELATIONSHIPS)    */
	Obj1 -> Obj4 [label="HORIZONTAL\n(_)\n",color=red,fontcolor=red,penwidth=3];
	Obj6 -> Obj9 [label="HORIZONTAL\n(_)\n",color=red,fontcolor=red,penwidth=3];
	Obj6 -> Obj3 [label="RSUB\n(_)\n",color=red,fontcolor=red,penwidth=3];
	Obj10 -> Obj6 [label="HORIZONTAL\n(RSUB)\n",color=red,fontcolor=red,penwidth=3];
	Obj9 -> Obj2 [label="HORIZONTAL"];
	Obj1 -> Obj7 [label="RSUB"];
	Obj4 -> Obj10 [label="HORIZONTAL"];
	Obj8 -> Obj5 [label="HORIZONTAL"];
	Obj0 -> Obj1 [label="RSUB"];
	Obj5 -> Obj0 [label="HORIZONTAL"];
	
}
