digraph dag {
	rankdir=LR; ranksep=1.0;
	edge[fontsize=13,weight=1]; node[fontsize=13,shape=box]; graph[ordering=out];

	/* NODES (OBJECTS) */
	Obj0 [label="RightPar\nObj0\n1", color = blue];
	Obj1 [label="LeftPar\nObj1\n0", color = blue];
	Obj2 [label="V\nObj2\n3", color = blue];
	Obj3 [label="f\nObj3\n2", color = blue];
	Obj4 [label="V\nObj4\n5", color = blue];
	Obj5 [label="Subset\nObj5\n4", color = blue];
	
	/* EDGES (OBJECT RELATIONSHIPS)    */
	Obj2 -> Obj3 [label="UNDER\n(_)\n",color=red,fontcolor=red,penwidth=3];
	Obj5 -> Obj4 [label="HORIZONTAL"];
	Obj1 -> Obj2 [label="HORIZONTAL"];
	Obj2 -> Obj0 [label="HORIZONTAL"];
	Obj0 -> Obj5 [label="HORIZONTAL"];
	
}
