digraph dag {
	rankdir=LR; ranksep=1.0;
	edge[fontsize=13,weight=1]; node[fontsize=13,shape=box]; graph[ordering=out];

	/* NODES (OBJECTS) */
	Obj0 [label="rho\nObj0\n11", color = blue];
	Obj1 [label="comma\nObj1\n10", color = blue];
	Obj10 [label="partial\nObj10\n4", color = blue];
	Obj11 [label="P\nObj11\n6 7", color = blue];
	Obj12 [label="epsilon\nObj12\n9", color = blue];
	Obj13 [label="LeftPar\nObj13\n8", color = blue];
	Obj2 [label="RightPar\nObj2\n13", color = blue];
	Obj3 [label="greater\nObj3\n12", color = blue];
	Obj4 [label="r\nObj4\n14", color = blue];
	Obj5 [label="r\nObj5\n1", color = blue];
	Obj6 [label="zero\nObj6\n0", color = blue];
	Obj7 [label="comma\nObj7\n3", color = blue];
	Obj8 [label="zero\nObj8\n2", color = blue];
	Obj9 [label="V\nObj9\n5", color = blue];
	
	/* EDGES (OBJECT RELATIONSHIPS)    */
	Obj5 -> Obj1 [label="RSUP\n(_)\n",color=red,fontcolor=red,penwidth=3];
	Obj11 -> Obj8 [label="RSUP"];
	Obj9 -> Obj10 [label="HORIZONTAL"];
	Obj2 -> Obj3 [label="HORIZONTAL"];
	Obj0 -> Obj13 [label="HORIZONTAL"];
	Obj10 -> Obj11 [label="HORIZONTAL"];
	Obj11 -> Obj4 [label="RSUB"];
	Obj12 -> Obj7 [label="PUNC"];
	Obj13 -> Obj9 [label="HORIZONTAL"];
	Obj11 -> Obj2 [label="HORIZONTAL"];
	Obj3 -> Obj6 [label="HORIZONTAL"];
	Obj12 -> Obj5 [label="HORIZONTAL"];
	Obj9 -> Obj12 [label="RSUB"];
	
}
