digraph dag {
	rankdir=LR; ranksep=1.0;
	edge[fontsize=13,weight=1]; node[fontsize=13,shape=box]; graph[ordering=out];

	/* NODES (OBJECTS) */
	Obj0 [label="equal\nObj0\n11 12", color = blue];
	Obj1 [label="LeftPar\nObj1\n10", color = blue];
	Obj10 [label="one\nObj10\n7", color = blue];
	Obj11 [label="lambda\nObj11\n6", color = blue];
	Obj12 [label="comma\nObj12\n9", color = blue];
	Obj13 [label="BigRightPar\nObj13\n8", color = blue];
	Obj2 [label="Delta\nObj2\n13", color = blue];
	Obj3 [label="minus\nObj3\n15", color = blue];
	Obj4 [label="RightPar\nObj4\n14", color = blue];
	Obj5 [label="m\nObj5\n0 1", color = blue];
	Obj6 [label="m\nObj6\n3", color = blue];
	Obj7 [label="m\nObj7\n2", color = blue];
	Obj8 [label="lambda\nObj8\n5", color = blue];
	Obj9 [label="LeftPar\nObj9\n4", color = blue];
	
	/* EDGES (OBJECT RELATIONSHIPS)    */
	Obj10 -> Obj12 [label="HORIZONTAL\n(_)\n",color=red,fontcolor=red,penwidth=3];
	Obj9 -> Obj2 [label="HORIZONTAL"];
	Obj3 -> Obj10 [label="HORIZONTAL"];
	Obj11 -> Obj6 [label="RSUB"];
	Obj8 -> Obj5 [label="RSUB"];
	Obj2 -> Obj0 [label="HORIZONTAL"];
	Obj11 -> Obj13 [label="HORIZONTAL"];
	Obj13 -> Obj4 [label="HORIZONTAL"];
	Obj2 -> Obj7 [label="RSUB"];
	Obj1 -> Obj8 [label="HORIZONTAL"];
	Obj5 -> Obj3 [label="HORIZONTAL"];
	Obj0 -> Obj1 [label="HORIZONTAL"];
	Obj8 -> Obj11 [label="HORIZONTAL"];
	
}
