digraph dag {
	rankdir=LR; ranksep=1.0;
	edge[fontsize=13,weight=1]; node[fontsize=13,shape=box]; graph[ordering=out];

	/* NODES (OBJECTS) */
	Obj0 [label="K\nObj0\n10", color = blue];
	Obj1 [label="r\nObj1\n0 1 2", color = blue];
	Obj2 [label="a\nObj2\n3", color = blue];
	Obj3 [label="sqrt\nObj3\n5", color = blue];
	Obj4 [label="B\nObj4\n4", color = blue];
	Obj5 [label="BigRightPar\nObj5\n7", color = blue];
	Obj6 [label="LeftPar\nObj6\n6", color = blue];
	Obj7 [label="BigLeftPar\nObj7\n9", color = blue];
	Obj8 [label="RightPar\nObj8\n8", color = blue];
	
	/* EDGES (OBJECT RELATIONSHIPS)    */
	Obj2 -> Obj5 [label="HORIZONTAL\n(_)\n",color=red,fontcolor=red,penwidth=3];
	Obj5 -> Obj8 [label="HORIZONTAL"];
	Obj6 -> Obj0 [label="HORIZONTAL"];
	Obj1 -> Obj6 [label="HORIZONTAL"];
	Obj7 -> Obj3 [label="HORIZONTAL"];
	Obj3 -> Obj2 [label="UNDER"];
	Obj4 -> Obj1 [label="HORIZONTAL"];
	Obj0 -> Obj7 [label="HORIZONTAL"];
	
}
