digraph dag {
	rankdir=LR; ranksep=1.0;
	edge[fontsize=13,weight=1]; node[fontsize=13,shape=box]; graph[ordering=out];

	/* NODES (OBJECTS) */
	Obj0 [label="x\nObj0\n11", color = blue];
	Obj1 [label="BigRightPar\nObj1\n10", color = blue];
	Obj10 [label="comma\nObj10\n4", color = blue];
	Obj11 [label="G\nObj11\n7", color = blue];
	Obj12 [label="x\nObj12\n6", color = blue];
	Obj13 [label="minus\nObj13\n9", color = blue];
	Obj14 [label="one\nObj14\n8", color = blue];
	Obj2 [label="BigLeftPar\nObj2\n13", color = blue];
	Obj3 [label="one\nObj3\n12", color = blue];
	Obj4 [label="n\nObj4\n15", color = blue];
	Obj5 [label="k\nObj5\n14", color = blue];
	Obj6 [label="BigRightPar\nObj6\n16", color = blue];
	Obj7 [label="ldots\nObj7\n1 2 3", color = blue];
	Obj8 [label="BigLeftPar\nObj8\n0", color = blue];
	Obj9 [label="comma\nObj9\n5", color = blue];
	
	/* EDGES (OBJECT RELATIONSHIPS)    */
	Obj0 -> Obj10 [label="LSUP\n(_)\n",color=red,fontcolor=red,penwidth=3];
	Obj6 -> Obj2 [label="HORIZONTAL"];
	Obj12 -> Obj0 [label="HORIZONTAL"];
	Obj5 -> Obj8 [label="HORIZONTAL"];
	Obj7 -> Obj9 [label="HORIZONTAL"];
	Obj11 -> Obj6 [label="HORIZONTAL"];
	Obj13 -> Obj14 [label="HORIZONTAL"];
	Obj10 -> Obj7 [label="HORIZONTAL"];
	Obj2 -> Obj12 [label="HORIZONTAL"];
	Obj0 -> Obj4 [label="RSUB"];
	Obj4 -> Obj13 [label="HORIZONTAL"];
	Obj12 -> Obj3 [label="RSUB"];
	Obj8 -> Obj11 [label="HORIZONTAL"];
	Obj0 -> Obj1 [label="HORIZONTAL"];
	
}
