digraph dag {
	rankdir=LR; ranksep=1.0;
	edge[fontsize=13,weight=1]; node[fontsize=13,shape=box]; graph[ordering=out];

	/* NODES (OBJECTS) */
	Obj0 [label="m\nObj0\n11", color = blue];
	Obj1 [label="comma\nObj1\n10", color = blue];
	Obj10 [label="x\nObj10\n8", color = blue];
	Obj2 [label="m\nObj2\n12", color = blue];
	Obj3 [label="n\nObj3\n1", color = blue];
	Obj4 [label="x\nObj4\n0", color = blue];
	Obj5 [label="plus\nObj5\n3", color = blue];
	Obj6 [label="comma\nObj6\n2", color = blue];
	Obj7 [label="ldots\nObj7\n5 6 7", color = blue];
	Obj8 [label="one\nObj8\n4", color = blue];
	Obj9 [label="plus\nObj9\n9", color = blue];
	
	/* EDGES (OBJECT RELATIONSHIPS)    */
	Obj10 -> Obj6 [label="LSUP\n(_)\n",color=red,fontcolor=red,penwidth=3];
	Obj6 -> Obj7 [label="HORIZONTAL"];
	Obj7 -> Obj1 [label="HORIZONTAL"];
	Obj9 -> Obj8 [label="HORIZONTAL"];
	Obj4 -> Obj10 [label="HORIZONTAL"];
	Obj0 -> Obj9 [label="HORIZONTAL"];
	Obj10 -> Obj0 [label="RSUB"];
	Obj5 -> Obj3 [label="HORIZONTAL"];
	Obj2 -> Obj5 [label="HORIZONTAL"];
	Obj4 -> Obj2 [label="RSUB"];
	
}
