digraph dag {
	rankdir=LR; ranksep=1.0;
	edge[fontsize=13,weight=1]; node[fontsize=13,shape=box]; graph[ordering=out];

	/* NODES (OBJECTS) */
	Obj0 [label="BigLeftPar\nObj0\n1", color = blue];
	Obj1 [label="two\nObj1\n0", color = blue];
	Obj2 [label="x\nObj2\n3", color = blue];
	Obj3 [label="x\nObj3\n2", color = blue];
	Obj4 [label="BigRightPar\nObj4\n5", color = blue];
	Obj5 [label="comma\nObj5\n4", color = blue];
	Obj6 [label="one\nObj6\n6", color = blue];
	
	/* EDGES (OBJECT RELATIONSHIPS)    */
	Obj2 -> Obj5 [label="UNDER\n(_)\n",color=red,fontcolor=red,penwidth=3];
	Obj3 -> Obj6 [label="RSUB"];
	Obj0 -> Obj3 [label="HORIZONTAL"];
	Obj2 -> Obj1 [label="RSUB"];
	Obj3 -> Obj2 [label="HORIZONTAL"];
	Obj2 -> Obj4 [label="HORIZONTAL"];
	
}
