digraph dag {
	rankdir=LR; ranksep=1.0;
	edge[fontsize=13,weight=1]; node[fontsize=13,shape=box]; graph[ordering=out];

	/* NODES (OBJECTS) */
	Obj0 [label="x\nObj0\n11", color = blue];
	Obj1 [label="BigLeftPar\nObj1\n10", color = blue];
	Obj10 [label="comma\nObj10\n9", color = blue];
	Obj11 [label="one\nObj11\n8", color = blue];
	Obj2 [label="comma\nObj2\n13", color = blue];
	Obj3 [label="BigRightPar\nObj3\n12", color = blue];
	Obj4 [label="ldots\nObj4\n1 2 3", color = blue];
	Obj5 [label="one\nObj5\n0", color = blue];
	Obj6 [label="k\nObj6\n5", color = blue];
	Obj7 [label="minus\nObj7\n4", color = blue];
	Obj8 [label="x\nObj8\n7", color = blue];
	Obj9 [label="n\nObj9\n6", color = blue];
	
	/* EDGES (OBJECT RELATIONSHIPS)    */
	Obj0 -> Obj10 [label="UNDER\n(_)\n",color=red,fontcolor=red,penwidth=3];
	Obj0 -> Obj3 [label="HORIZONTAL"];
	Obj6 -> Obj1 [label="HORIZONTAL"];
	Obj10 -> Obj4 [label="HORIZONTAL"];
	Obj0 -> Obj9 [label="RSUB"];
	Obj8 -> Obj0 [label="HORIZONTAL"];
	Obj7 -> Obj11 [label="HORIZONTAL"];
	Obj8 -> Obj5 [label="RSUB"];
	Obj1 -> Obj8 [label="HORIZONTAL"];
	Obj9 -> Obj7 [label="HORIZONTAL"];
	Obj4 -> Obj2 [label="HORIZONTAL"];
	
}
