digraph dag {
	rankdir=LR; ranksep=1.0;
	edge[fontsize=13,weight=1]; node[fontsize=13,shape=box]; graph[ordering=out];

	/* NODES (OBJECTS) */
	Obj0 [label="j\nObj0\n23 24", color = blue];
	Obj1 [label="zero\nObj1\n25", color = blue];
	Obj10 [label="m\nObj10\n0", color = blue];
	Obj11 [label="equal\nObj11\n3 4", color = blue];
	Obj12 [label="zero\nObj12\n2", color = blue];
	Obj13 [label="LeftPar\nObj13\n5", color = blue];
	Obj14 [label="j\nObj14\n7 8", color = blue];
	Obj15 [label="RightPar\nObj15\n6", color = blue];
	Obj16 [label="k\nObj16\n9", color = blue];
	Obj17 [label="lambda\nObj17\n11", color = blue];
	Obj18 [label="LeftPar\nObj18\n10", color = blue];
	Obj19 [label="lambda\nObj19\n13", color = blue];
	Obj2 [label="d\nObj2\n26", color = blue];
	Obj20 [label="beta\nObj20\n12", color = blue];
	Obj21 [label="rho\nObj21\n15", color = blue];
	Obj22 [label="lambda\nObj22\n14", color = blue];
	Obj23 [label="n\nObj23\n17", color = blue];
	Obj24 [label="comma\nObj24\n16", color = blue];
	Obj25 [label="m\nObj25\n19", color = blue];
	Obj26 [label="m\nObj26\n18", color = blue];
	Obj27 [label="rho\nObj27\n31", color = blue];
	Obj28 [label="n\nObj28\n30", color = blue];
	Obj29 [label="n\nObj29\n36", color = blue];
	Obj3 [label="RightPar\nObj3\n27", color = blue];
	Obj30 [label="RightPar\nObj30\n35", color = blue];
	Obj31 [label="LeftPar\nObj31\n34", color = blue];
	Obj32 [label="k\nObj32\n33", color = blue];
	Obj33 [label="LeftPar\nObj33\n32", color = blue];
	Obj4 [label="lambda\nObj4\n20", color = blue];
	Obj5 [label="RightPar\nObj5\n21", color = blue];
	Obj6 [label="beta\nObj6\n22", color = blue];
	Obj7 [label="int\nObj7\n28", color = blue];
	Obj8 [label="lambda\nObj8\n29", color = blue];
	Obj9 [label="sum\nObj9\n1", color = blue];
	
	/* EDGES (OBJECT RELATIONSHIPS)    */
	Obj21 -> Obj26 [label="HORIZONTAL\n(RSUB)\n",color=red,fontcolor=red,penwidth=3];
	Obj23 -> Obj31 [label="HORIZONTAL\n(_)\n",color=red,fontcolor=red,penwidth=3];
	Obj18 -> Obj8 [label="HORIZONTAL"];
	Obj2 -> Obj21 [label="HORIZONTAL"];
	Obj3 -> Obj20 [label="HORIZONTAL"];
	Obj13 -> Obj19 [label="HORIZONTAL"];
	Obj25 -> Obj28 [label="HORIZONTAL"];
	Obj8 -> Obj30 [label="HORIZONTAL"];
	Obj7 -> Obj9 [label="HORIZONTAL"];
	Obj14 -> Obj16 [label="HORIZONTAL"];
	Obj30 -> Obj11 [label="HORIZONTAL"];
	Obj26 -> Obj23 [label="HORIZONTAL"];
	Obj17 -> Obj15 [label="HORIZONTAL"];
	Obj7 -> Obj22 [label="RSUP"];
	Obj10 -> Obj0 [label="HORIZONTAL"];
	Obj5 -> Obj2 [label="HORIZONTAL"];
	Obj27 -> Obj18 [label="HORIZONTAL"];
	Obj29 -> Obj32 [label="HORIZONTAL"];
	Obj21 -> Obj1 [label="RSUP"];
	Obj4 -> Obj3 [label="HORIZONTAL"];
	Obj25 -> Obj24 [label="PUNC"];
	Obj31 -> Obj17 [label="HORIZONTAL"];
	Obj6 -> Obj33 [label="HORIZONTAL"];
	Obj9 -> Obj6 [label="HORIZONTAL"];
	Obj7 -> Obj12 [label="RSUB"];
	Obj27 -> Obj14 [label="RSUB"];
	Obj20 -> Obj13 [label="HORIZONTAL"];
	Obj19 -> Obj5 [label="HORIZONTAL"];
	Obj33 -> Obj4 [label="HORIZONTAL"];
	Obj11 -> Obj7 [label="HORIZONTAL"];
	Obj6 -> Obj10 [label="RSUB"];
	Obj9 -> Obj25 [label="UNDER"];
	Obj20 -> Obj29 [label="RSUB"];
	
}
