digraph dag {
	rankdir=LR; ranksep=1.0;
	edge[fontsize=13,weight=1]; node[fontsize=13,shape=box]; graph[ordering=out];

	/* NODES (OBJECTS) */
	Obj0 [label="LeftPar\nObj0\n24", color = blue];
	Obj1 [label="equal\nObj1\n25 26", color = blue];
	Obj10 [label="e\nObj10\n3", color = blue];
	Obj11 [label="ast\nObj11\n5", color = blue];
	Obj12 [label="RightPar\nObj12\n4", color = blue];
	Obj13 [label="comma\nObj13\n7", color = blue];
	Obj14 [label="e\nObj14\n6", color = blue];
	Obj15 [label="in\nObj15\n9", color = blue];
	Obj16 [label="two\nObj16\n8", color = blue];
	Obj17 [label="T\nObj17\n11", color = blue];
	Obj18 [label="mu\nObj18\n10", color = blue];
	Obj19 [label="T\nObj19\n13", color = blue];
	Obj2 [label="sum\nObj2\n27", color = blue];
	Obj20 [label="n\nObj20\n12", color = blue];
	Obj21 [label="d\nObj21\n15", color = blue];
	Obj22 [label="e\nObj22\n14", color = blue];
	Obj23 [label="Gamma\nObj23\n17", color = blue];
	Obj24 [label="d\nObj24\n16", color = blue];
	Obj25 [label="alpha\nObj25\n18", color = blue];
	Obj3 [label="semicolon\nObj3\n19 20", color = blue];
	Obj4 [label="ast\nObj4\n21", color = blue];
	Obj5 [label="LeftPar\nObj5\n22", color = blue];
	Obj6 [label="n\nObj6\n23", color = blue];
	Obj7 [label="alpha\nObj7\n28", color = blue];
	Obj8 [label="equal\nObj8\n1 2", color = blue];
	Obj9 [label="RightPar\nObj9\n0", color = blue];
	
	/* EDGES (OBJECT RELATIONSHIPS)    */
	Obj1 -> Obj21 [label="UNDER\n(_)\n",color=red,fontcolor=red,penwidth=3];
	Obj21 -> Obj11 [label="HORIZONTAL"];
	Obj24 -> Obj15 [label="HORIZONTAL"];
	Obj22 -> Obj8 [label="HORIZONTAL"];
	Obj9 -> Obj1 [label="HORIZONTAL"];
	Obj10 -> Obj7 [label="RSUP"];
	Obj5 -> Obj6 [label="HORIZONTAL"];
	Obj11 -> Obj22 [label="HORIZONTAL"];
	Obj3 -> Obj24 [label="HORIZONTAL"];
	Obj14 -> Obj12 [label="HORIZONTAL"];
	Obj17 -> Obj9 [label="HORIZONTAL"];
	Obj23 -> Obj4 [label="RSUP"];
	Obj8 -> Obj20 [label="HORIZONTAL"];
	Obj6 -> Obj13 [label="PUNC"];
	Obj15 -> Obj19 [label="HORIZONTAL"];
	Obj18 -> Obj16 [label="RSUP"];
	Obj6 -> Obj17 [label="HORIZONTAL"];
	Obj1 -> Obj2 [label="HORIZONTAL"];
	Obj23 -> Obj5 [label="HORIZONTAL"];
	Obj20 -> Obj3 [label="HORIZONTAL"];
	Obj23 -> Obj25 [label="RSUB"];
	Obj2 -> Obj10 [label="HORIZONTAL"];
	Obj10 -> Obj18 [label="HORIZONTAL"];
	Obj18 -> Obj0 [label="HORIZONTAL"];
	Obj0 -> Obj14 [label="HORIZONTAL"];
	
}
