digraph dag {
	rankdir=LR; ranksep=1.0;
	edge[fontsize=13,weight=1]; node[fontsize=13,shape=box]; graph[ordering=out];

	/* NODES (OBJECTS) */
	Obj0 [label="k\nObj0\n11", color = blue];
	Obj1 [label="in\nObj1\n10", color = blue];
	Obj10 [label="c\nObj10\n9", color = blue];
	Obj11 [label="k\nObj11\n8", color = blue];
	Obj2 [label="Delta\nObj2\n1", color = blue];
	Obj3 [label="k\nObj3\n0", color = blue];
	Obj4 [label="comma\nObj4\n3", color = blue];
	Obj5 [label="in\nObj5\n2", color = blue];
	Obj6 [label="D\nObj6\n5", color = blue];
	Obj7 [label="x\nObj7\n4", color = blue];
	Obj8 [label="ast\nObj8\n7", color = blue];
	Obj9 [label="c\nObj9\n6", color = blue];
	
	/* EDGES (OBJECT RELATIONSHIPS)    */
	Obj9 -> Obj0 [label="HORIZONTAL\n(RSUB)\n",color=red,fontcolor=red,penwidth=3];
	Obj7 -> Obj5 [label="HORIZONTAL"];
	Obj5 -> Obj6 [label="HORIZONTAL"];
	Obj10 -> Obj1 [label="HORIZONTAL"];
	Obj2 -> Obj8 [label="RSUP"];
	Obj7 -> Obj11 [label="RSUB"];
	Obj2 -> Obj7 [label="HORIZONTAL"];
	Obj10 -> Obj3 [label="RSUB"];
	Obj1 -> Obj2 [label="HORIZONTAL"];
	Obj6 -> Obj9 [label="RSUB"];
	Obj2 -> Obj4 [label="PUNC"];
	
}
