digraph dag {
	rankdir=LR; ranksep=1.0;
	edge[fontsize=13,weight=1]; node[fontsize=13,shape=box]; graph[ordering=out];

	/* NODES (OBJECTS) */
	Obj0 [label="n\nObj0\n11", color = blue];
	Obj1 [label="comma\nObj1\n10", color = blue];
	Obj10 [label="one\nObj10\n0", color = blue];
	Obj11 [label="ldots\nObj11\n2 3 4", color = blue];
	Obj12 [label="equal\nObj12\n5 6", color = blue];
	Obj13 [label="LeftPar\nObj13\n7", color = blue];
	Obj14 [label="a\nObj14\n9", color = blue];
	Obj15 [label="minus\nObj15\n8", color = blue];
	Obj2 [label="a\nObj2\n13", color = blue];
	Obj3 [label="comma\nObj3\n12", color = blue];
	Obj4 [label="alpha\nObj4\n15", color = blue];
	Obj5 [label="one\nObj5\n14", color = blue];
	Obj6 [label="RightPar\nObj6\n17", color = blue];
	Obj7 [label="comma\nObj7\n16", color = blue];
	Obj8 [label="a\nObj8\n18", color = blue];
	Obj9 [label="n\nObj9\n1", color = blue];
	
	/* EDGES (OBJECT RELATIONSHIPS)    */
	Obj10 -> Obj3 [label="PUNC\n(_)\n",color=red,fontcolor=red,penwidth=3];
	Obj5 -> Obj7 [label="RSUB\n(_)\n",color=red,fontcolor=red,penwidth=3];
	Obj12 -> Obj13 [label="HORIZONTAL"];
	Obj15 -> Obj5 [label="HORIZONTAL"];
	Obj14 -> Obj9 [label="RSUB"];
	Obj8 -> Obj2 [label="HORIZONTAL"];
	Obj2 -> Obj0 [label="RSUB"];
	Obj13 -> Obj8 [label="HORIZONTAL"];
	Obj14 -> Obj6 [label="HORIZONTAL"];
	Obj0 -> Obj15 [label="HORIZONTAL"];
	Obj4 -> Obj12 [label="HORIZONTAL"];
	Obj3 -> Obj11 [label="HORIZONTAL"];
	Obj11 -> Obj1 [label="HORIZONTAL"];
	Obj8 -> Obj10 [label="RSUB"];
	Obj2 -> Obj14 [label="HORIZONTAL"];
	
}
