digraph dag {
	rankdir=LR; ranksep=1.0;
	edge[fontsize=13,weight=1]; node[fontsize=13,shape=box]; graph[ordering=out];

	/* NODES (OBJECTS) */
	Obj0 [label="s\nObj0\n1", color = blue];
	Obj1 [label="y\nObj1\n0", color = blue];
	Obj2 [label="equal\nObj2\n2 3", color = blue];
	Obj3 [label="x\nObj3\n5", color = blue];
	Obj4 [label="zero\nObj4\n4", color = blue];
	
	/* EDGES (OBJECT RELATIONSHIPS)    */
	Obj0 -> Obj1 [label="RSUB\n(HORIZONTAL)\n",color=red,fontcolor=red,penwidth=3];
	Obj3 -> Obj2 [label="HORIZONTAL"];
	Obj2 -> Obj0 [label="HORIZONTAL"];
	Obj1 -> Obj4 [label="RSUB"];
	
}
