digraph dag {
	rankdir=LR; ranksep=1.0;
	edge[fontsize=13,weight=1]; node[fontsize=13,shape=box]; graph[ordering=out];

	/* NODES (OBJECTS) */
	Obj0 [label="less\nObj0\n10", color = blue];
	Obj1 [label="ll\nObj1\n0 1", color = blue];
	Obj2 [label="epsilon\nObj2\n2 3", color = blue];
	Obj3 [label="ll\nObj3\n5 6", color = blue];
	Obj4 [label="delta\nObj4\n4", color = blue];
	Obj5 [label="zero\nObj5\n7", color = blue];
	Obj6 [label="epsilon\nObj6\n9", color = blue];
	Obj7 [label="zero\nObj7\n8", color = blue];
	
	/* EDGES (OBJECT RELATIONSHIPS)    */
	Obj4 -> Obj2 [label="PUNC\n(_)\n",color=red,fontcolor=red,penwidth=3];
	Obj2 -> Obj1 [label="HORIZONTAL"];
	Obj7 -> Obj0 [label="HORIZONTAL"];
	Obj1 -> Obj6 [label="HORIZONTAL"];
	Obj6 -> Obj5 [label="RSUB"];
	Obj0 -> Obj4 [label="HORIZONTAL"];
	Obj4 -> Obj3 [label="HORIZONTAL"];
	
}
