digraph dag {
	rankdir=LR; ranksep=1.0;
	edge[fontsize=13,weight=1]; node[fontsize=13,shape=box]; graph[ordering=out];

	/* NODES (OBJECTS) */
	Obj0 [label="two\nObj0\n10 11", color = blue];
	Obj1 [label="u\nObj1\n1", color = blue];
	Obj2 [label="k\nObj2\n0", color = blue];
	Obj3 [label="x\nObj3\n3", color = blue];
	Obj4 [label="BigLeftPar\nObj4\n2", color = blue];
	Obj5 [label="BigRightPar\nObj5\n4 5", color = blue];
	Obj6 [label="u\nObj6\n7", color = blue];
	Obj7 [label="in\nObj7\n6", color = blue];
	Obj8 [label="one\nObj8\n9", color = blue];
	Obj9 [label="comma\nObj9\n8", color = blue];
	
	/* EDGES (OBJECT RELATIONSHIPS)    */
	Obj8 -> Obj9 [label="HORIZONTAL\n(_)\n",color=red,fontcolor=red,penwidth=3];
	Obj1 -> Obj0 [label="RSUB"];
	Obj6 -> Obj1 [label="HORIZONTAL"];
	Obj7 -> Obj2 [label="HORIZONTAL"];
	Obj1 -> Obj7 [label="HORIZONTAL"];
	Obj2 -> Obj4 [label="HORIZONTAL"];
	Obj4 -> Obj3 [label="HORIZONTAL"];
	Obj3 -> Obj5 [label="HORIZONTAL"];
	Obj6 -> Obj8 [label="RSUB"];
	
}
