digraph dag {
	rankdir=LR; ranksep=1.0;
	edge[fontsize=13,weight=1]; node[fontsize=13,shape=box]; graph[ordering=out];

	/* NODES (OBJECTS) */
	Obj0 [label="Delta\nObj0\n1", color = blue];
	Obj1 [label="varphi\nObj1\n0", color = blue];
	Obj2 [label="LeftPar\nObj2\n3", color = blue];
	Obj3 [label="RightPar\nObj3\n2", color = blue];
	Obj4 [label="R\nObj4\n4", color = blue];
	
	/* EDGES (OBJECT RELATIONSHIPS)    */
	Obj0 -> Obj4 [label="RSUB\n(_)\n",color=red,fontcolor=red,penwidth=3];
	Obj0 -> Obj3 [label="HORIZONTAL"];
	Obj1 -> Obj2 [label="HORIZONTAL"];
	Obj2 -> Obj0 [label="HORIZONTAL"];
	
}
