digraph dag {
	rankdir=LR; ranksep=1.0;
	edge[fontsize=13,weight=1]; node[fontsize=13,shape=box]; graph[ordering=out];

	/* NODES (OBJECTS) */
	Obj0 [label="LeftPar\nObj0\n24", color = blue];
	Obj1 [label="x\nObj1\n25", color = blue];
	Obj10 [label="LeftPar\nObj10\n2", color = blue];
	Obj11 [label="sqrt\nObj11\n5", color = blue];
	Obj12 [label="x\nObj12\n4", color = blue];
	Obj13 [label="sum\nObj13\n7", color = blue];
	Obj14 [label="S\nObj14\n6", color = blue];
	Obj15 [label="comma\nObj15\n9", color = blue];
	Obj16 [label="alpha\nObj16\n8", color = blue];
	Obj17 [label="fractionalLine\nObj17\n11", color = blue];
	Obj18 [label="n\nObj18\n10", color = blue];
	Obj19 [label="two\nObj19\n13", color = blue];
	Obj2 [label="theta\nObj2\n26", color = blue];
	Obj20 [label="RightPar\nObj20\n12", color = blue];
	Obj21 [label="plus\nObj21\n15", color = blue];
	Obj22 [label="epsilon\nObj22\n14", color = blue];
	Obj23 [label="S\nObj23\n17 18", color = blue];
	Obj24 [label="R\nObj24\n16", color = blue];
	Obj25 [label="n\nObj25\n19", color = blue];
	Obj3 [label="cdot\nObj3\n27", color = blue];
	Obj4 [label="equal\nObj4\n20 21", color = blue];
	Obj5 [label="one\nObj5\n22", color = blue];
	Obj6 [label="n\nObj6\n23", color = blue];
	Obj7 [label="prime\nObj7\n1", color = blue];
	Obj8 [label="alpha\nObj8\n0", color = blue];
	Obj9 [label="RightPar\nObj9\n3", color = blue];
	
	/* EDGES (OBJECT RELATIONSHIPS)    */
	Obj11 -> Obj1 [label="HORIZONTAL\n(UNDER)\n",color=red,fontcolor=red,penwidth=3];
	Obj1 -> Obj3 [label="HORIZONTAL\n(_)\n",color=red,fontcolor=red,penwidth=3];
	Obj13 -> Obj11 [label="UNDER"];
	Obj24 -> Obj8 [label="RSUB"];
	Obj10 -> Obj12 [label="HORIZONTAL"];
	Obj24 -> Obj10 [label="HORIZONTAL"];
	Obj9 -> Obj4 [label="HORIZONTAL"];
	Obj17 -> Obj2 [label="UPPER"];
	Obj17 -> Obj6 [label="UNDER"];
	Obj2 -> Obj0 [label="HORIZONTAL"];
	Obj21 -> Obj5 [label="HORIZONTAL"];
	Obj25 -> Obj20 [label="HORIZONTAL"];
	Obj6 -> Obj19 [label="RSUP"];
	Obj12 -> Obj15 [label="PUNC"];
	Obj12 -> Obj23 [label="HORIZONTAL"];
	Obj3 -> Obj18 [label="HORIZONTAL"];
	Obj22 -> Obj14 [label="HORIZONTAL"];
	Obj24 -> Obj7 [label="RSUP"];
	Obj23 -> Obj9 [label="HORIZONTAL"];
	Obj0 -> Obj25 [label="HORIZONTAL"];
	Obj13 -> Obj17 [label="HORIZONTAL"];
	Obj16 -> Obj21 [label="HORIZONTAL"];
	Obj19 -> Obj16 [label="HORIZONTAL"];
	Obj18 -> Obj22 [label="HORIZONTAL"];
	Obj4 -> Obj13 [label="HORIZONTAL"];
	
}
