digraph dag {
	rankdir=LR; ranksep=1.0;
	edge[fontsize=13,weight=1]; node[fontsize=13,shape=box]; graph[ordering=out];

	/* NODES (OBJECTS) */
	Obj0 [label="S\nObj0\n58", color = blue];
	Obj1 [label="alpha\nObj1\n30", color = blue];
	Obj10 [label="plus\nObj10\n65", color = blue];
	Obj11 [label="alpha\nObj11\n34", color = blue];
	Obj12 [label="RightPar\nObj12\n53", color = blue];
	Obj13 [label="alpha\nObj13\n24", color = blue];
	Obj14 [label="x\nObj14\n25", color = blue];
	Obj15 [label="LeftPar\nObj15\n26", color = blue];
	Obj16 [label="LeftPar\nObj16\n27", color = blue];
	Obj17 [label="two\nObj17\n20", color = blue];
	Obj18 [label="six\nObj18\n21", color = blue];
	Obj19 [label="plus\nObj19\n48", color = blue];
	Obj2 [label="alpha\nObj2\n54", color = blue];
	Obj20 [label="LeftPar\nObj20\n23", color = blue];
	Obj21 [label="RightPar\nObj21\n46", color = blue];
	Obj22 [label="prime\nObj22\n47", color = blue];
	Obj23 [label="alpha\nObj23\n44", color = blue];
	Obj24 [label="x\nObj24\n45", color = blue];
	Obj25 [label="fractionalLine\nObj25\n42", color = blue];
	Obj26 [label="psi\nObj26\n29", color = blue];
	Obj27 [label="semicolon\nObj27\n40 41", color = blue];
	Obj28 [label="comma\nObj28\n1", color = blue];
	Obj29 [label="one\nObj29\n0", color = blue];
	Obj3 [label="slash\nObj3\n28", color = blue];
	Obj30 [label="prime\nObj30\n3", color = blue];
	Obj31 [label="one\nObj31\n2", color = blue];
	Obj32 [label="fractionalLine\nObj32\n5", color = blue];
	Obj33 [label="plus\nObj33\n4", color = blue];
	Obj34 [label="in\nObj34\n7", color = blue];
	Obj35 [label="one\nObj35\n6", color = blue];
	Obj36 [label="x\nObj36\n10 9", color = blue];
	Obj37 [label="fractionalLine\nObj37\n8", color = blue];
	Obj38 [label="RightPar\nObj38\n49", color = blue];
	Obj39 [label="B\nObj39\n13", color = blue];
	Obj4 [label="sqrt\nObj4\n43", color = blue];
	Obj40 [label="equal\nObj40\n37 38", color = blue];
	Obj41 [label="RightPar\nObj41\n59", color = blue];
	Obj42 [label="n\nObj42\n14", color = blue];
	Obj43 [label="plus\nObj43\n11", color = blue];
	Obj44 [label="S\nObj44\n39", color = blue];
	Obj45 [label="O\nObj45\n12", color = blue];
	Obj46 [label="n\nObj46\n15", color = blue];
	Obj47 [label="R\nObj47\n22", color = blue];
	Obj48 [label="leqq\nObj48\n16 17 18", color = blue];
	Obj49 [label="sum\nObj49\n55", color = blue];
	Obj5 [label="one\nObj5\n60", color = blue];
	Obj50 [label="plus\nObj50\n57", color = blue];
	Obj51 [label="n\nObj51\n56", color = blue];
	Obj52 [label="comma\nObj52\n51", color = blue];
	Obj53 [label="x\nObj53\n36", color = blue];
	Obj54 [label="two\nObj54\n35", color = blue];
	Obj55 [label="two\nObj55\n52", color = blue];
	Obj56 [label="RightPar\nObj56\n19", color = blue];
	Obj57 [label="S\nObj57\n31", color = blue];
	Obj58 [label="n\nObj58\n32", color = blue];
	Obj59 [label="LeftPar\nObj59\n33", color = blue];
	Obj6 [label="LeftPar\nObj6\n61", color = blue];
	Obj60 [label="x\nObj60\n50", color = blue];
	Obj7 [label="pi\nObj7\n62", color = blue];
	Obj8 [label="alpha\nObj8\n63", color = blue];
	Obj9 [label="one\nObj9\n64", color = blue];
	
	/* EDGES (OBJECT RELATIONSHIPS)    */
	Obj4 -> Obj53 [label="HORIZONTAL\n(UNDER)\n",color=red,fontcolor=red,penwidth=3];
	Obj9 -> Obj26 [label="HORIZONTAL\n(_)\n",color=red,fontcolor=red,penwidth=3];
	Obj53 -> Obj27 [label="HORIZONTAL\n(_)\n",color=red,fontcolor=red,penwidth=3];
	Obj0 -> Obj42 [label="HORIZONTAL\n(_)\n",color=red,fontcolor=red,penwidth=3];
	Obj49 -> Obj32 [label="HORIZONTAL"];
	Obj54 -> Obj8 [label="HORIZONTAL"];
	Obj29 -> Obj3 [label="HORIZONTAL"];
	Obj3 -> Obj17 [label="HORIZONTAL"];
	Obj39 -> Obj6 [label="HORIZONTAL"];
	Obj45 -> Obj20 [label="HORIZONTAL"];
	Obj39 -> Obj13 [label="RSUB"];
	Obj57 -> Obj56 [label="HORIZONTAL"];
	Obj48 -> Obj4 [label="HORIZONTAL"];
	Obj50 -> Obj31 [label="HORIZONTAL"];
	Obj25 -> Obj21 [label="HORIZONTAL"];
	Obj19 -> Obj45 [label="HORIZONTAL"];
	Obj39 -> Obj22 [label="RSUP"];
	Obj40 -> Obj37 [label="HORIZONTAL"];
	Obj58 -> Obj12 [label="HORIZONTAL"];
	Obj44 -> Obj41 [label="HORIZONTAL"];
	Obj36 -> Obj44 [label="HORIZONTAL"];
	Obj14 -> Obj57 [label="HORIZONTAL"];
	Obj2 -> Obj33 [label="HORIZONTAL"];
	Obj37 -> Obj18 [label="UPPER"];
	Obj59 -> Obj58 [label="HORIZONTAL"];
	Obj36 -> Obj28 [label="PUNC"];
	Obj8 -> Obj43 [label="HORIZONTAL"];
	Obj49 -> Obj51 [label="UNDER"];
	Obj20 -> Obj60 [label="HORIZONTAL"];
	Obj10 -> Obj29 [label="HORIZONTAL"];
	Obj25 -> Obj2 [label="UNDER"];
	Obj25 -> Obj24 [label="UPPER"];
	Obj34 -> Obj0 [label="HORIZONTAL"];
	Obj47 -> Obj30 [label="RSUP"];
	Obj26 -> Obj59 [label="HORIZONTAL"];
	Obj47 -> Obj1 [label="RSUB"];
	Obj33 -> Obj5 [label="HORIZONTAL"];
	Obj60 -> Obj23 [label="RSUP"];
	Obj43 -> Obj9 [label="HORIZONTAL"];
	Obj56 -> Obj40 [label="HORIZONTAL"];
	Obj42 -> Obj54 [label="RSUP"];
	Obj7 -> Obj55 [label="RSUP"];
	Obj21 -> Obj49 [label="HORIZONTAL"];
	Obj27 -> Obj46 [label="HORIZONTAL"];
	Obj60 -> Obj47 [label="HORIZONTAL"];
	Obj32 -> Obj19 [label="HORIZONTAL"];
	Obj47 -> Obj15 [label="HORIZONTAL"];
	Obj37 -> Obj7 [label="UNDER"];
	Obj11 -> Obj50 [label="HORIZONTAL"];
	Obj46 -> Obj34 [label="HORIZONTAL"];
	Obj16 -> Obj25 [label="HORIZONTAL"];
	Obj51 -> Obj48 [label="HORIZONTAL"];
	Obj23 -> Obj10 [label="HORIZONTAL"];
	Obj14 -> Obj52 [label="PUNC"];
	Obj41 -> Obj38 [label="HORIZONTAL"];
	Obj37 -> Obj16 [label="HORIZONTAL"];
	Obj24 -> Obj11 [label="RSUP"];
	Obj15 -> Obj36 [label="HORIZONTAL"];
	Obj6 -> Obj14 [label="HORIZONTAL"];
	Obj32 -> Obj35 [label="UPPER"];
	
}
