digraph dag {
	rankdir=LR; ranksep=1.0;
	edge[fontsize=13,weight=1]; node[fontsize=13,shape=box]; graph[ordering=out];

	/* NODES (OBJECTS) */
	Obj0 [label="cdots\nObj0\n1 2 3", color = blue];
	Obj1 [label="p\nObj1\n0", color = blue];
	Obj2 [label="s\nObj2\n5", color = blue];
	Obj3 [label="one\nObj3\n4", color = blue];
	Obj4 [label="p\nObj4\n7", color = blue];
	Obj5 [label="comma\nObj5\n6", color = blue];
	Obj6 [label="comma\nObj6\n8", color = blue];
	
	/* EDGES (OBJECT RELATIONSHIPS)    */
	Obj0 -> Obj5 [label="UNDER\n(_)\n",color=red,fontcolor=red,penwidth=3];
	Obj0 -> Obj6 [label="PUNC"];
	Obj4 -> Obj0 [label="HORIZONTAL"];
	Obj0 -> Obj1 [label="HORIZONTAL"];
	Obj4 -> Obj3 [label="RSUB"];
	Obj1 -> Obj2 [label="RSUB"];
	
}
