digraph dag {
	rankdir=LR; ranksep=1.0;
	edge[fontsize=13,weight=1]; node[fontsize=13,shape=box]; graph[ordering=out];

	/* NODES (OBJECTS) */
	Obj0 [label="one\nObj0\n11", color = blue];
	Obj1 [label="LeftPar\nObj1\n10", color = blue];
	Obj10 [label="tau\nObj10\n0", color = blue];
	Obj11 [label="RightPar\nObj11\n3", color = blue];
	Obj12 [label="LeftPar\nObj12\n2", color = blue];
	Obj13 [label="tau\nObj13\n5", color = blue];
	Obj14 [label="phi\nObj14\n4", color = blue];
	Obj15 [label="LeftPar\nObj15\n7", color = blue];
	Obj16 [label="one\nObj16\n6", color = blue];
	Obj17 [label="phi\nObj17\n9", color = blue];
	Obj18 [label="tau\nObj18\n8", color = blue];
	Obj2 [label="equal\nObj2\n13 14", color = blue];
	Obj3 [label="tau\nObj3\n12", color = blue];
	Obj4 [label="tau\nObj4\n15", color = blue];
	Obj5 [label="RightPar\nObj5\n17", color = blue];
	Obj6 [label="phi\nObj6\n16", color = blue];
	Obj7 [label="tau\nObj7\n19", color = blue];
	Obj8 [label="RightPar\nObj8\n18", color = blue];
	Obj9 [label="one\nObj9\n1", color = blue];
	
	/* EDGES (OBJECT RELATIONSHIPS)    */
	Obj15 -> Obj16 [label="HORIZONTAL\n(_)\n",color=red,fontcolor=red,penwidth=3];
	Obj6 -> Obj1 [label="HORIZONTAL\n(_)\n",color=red,fontcolor=red,penwidth=3];
	Obj5 -> Obj7 [label="UNDER\n(_)\n",color=red,fontcolor=red,penwidth=3];
	Obj3 -> Obj8 [label="HORIZONTAL\n(_)\n",color=red,fontcolor=red,penwidth=3];
	Obj16 -> Obj5 [label="HORIZONTAL\n(_)\n",color=red,fontcolor=red,penwidth=3];
	Obj10 -> Obj11 [label="HORIZONTAL\n(_)\n",color=red,fontcolor=red,penwidth=3];
	Obj12 -> Obj10 [label="HORIZONTAL\n(_)\n",color=red,fontcolor=red,penwidth=3];
	Obj3 -> Obj0 [label="RSUB\n(_)\n",color=red,fontcolor=red,penwidth=3];
	Obj10 -> Obj13 [label="RSUB\n(_)\n",color=red,fontcolor=red,penwidth=3];
	Obj17 -> Obj15 [label="HORIZONTAL\n(_)\n",color=red,fontcolor=red,penwidth=3];
	Obj8 -> Obj17 [label="HORIZONTAL\n(_)\n",color=red,fontcolor=red,penwidth=3];
	Obj5 -> Obj2 [label="HORIZONTAL\n(_)\n",color=red,fontcolor=red,penwidth=3];
	Obj12 -> Obj4 [label="RSUP\n(_)\n",color=red,fontcolor=red,penwidth=3];
	Obj15 -> Obj18 [label="RSUP\n(_)\n",color=red,fontcolor=red,penwidth=3];
	Obj1 -> Obj9 [label="RSUP\n(_)\n",color=red,fontcolor=red,penwidth=3];
	Obj1 -> Obj3 [label="HORIZONTAL\n(_)\n",color=red,fontcolor=red,penwidth=3];
	Obj14 -> Obj12 [label="HORIZONTAL\n(_)\n",color=red,fontcolor=red,penwidth=3];
	Obj2 -> Obj14 [label="HORIZONTAL"];
	
}
