digraph dag {
	rankdir=LR; ranksep=1.0;
	edge[fontsize=13,weight=1]; node[fontsize=13,shape=box]; graph[ordering=out];

	/* NODES (OBJECTS) */
	Obj0 [label="C\nObj0\n1", color = blue];
	Obj1 [label="LeftPar\nObj1\n0", color = blue];
	Obj2 [label="RightPar\nObj2\n3", color = blue];
	Obj3 [label="D\nObj3\n2", color = blue];
	Obj4 [label="varphi\nObj4\n5", color = blue];
	Obj5 [label="rightarrow\nObj5\n4", color = blue];
	Obj6 [label="colon\nObj6\n6 7", color = blue];
	Obj7 [label="k\nObj7\n8", color = blue];
	
	/* EDGES (OBJECT RELATIONSHIPS)    */
	Obj3 -> Obj1 [label="RSUP\n(HORIZONTAL)\n",color=red,fontcolor=red,penwidth=3];
	Obj1 -> Obj7 [label="HORIZONTAL"];
	Obj4 -> Obj6 [label="HORIZONTAL"];
	Obj0 -> Obj5 [label="HORIZONTAL"];
	Obj7 -> Obj2 [label="HORIZONTAL"];
	Obj6 -> Obj0 [label="HORIZONTAL"];
	Obj5 -> Obj3 [label="HORIZONTAL"];
	
}
