digraph dag {
	rankdir=LR; ranksep=1.0;
	edge[fontsize=13,weight=1]; node[fontsize=13,shape=box]; graph[ordering=out];

	/* NODES (OBJECTS) */
	Obj0 [label="LeftPar\nObj0\n11", color = blue];
	Obj1 [label="f\nObj1\n10", color = blue];
	Obj10 [label="one\nObj10\n9", color = blue];
	Obj11 [label="two\nObj11\n8", color = blue];
	Obj2 [label="RightPar\nObj2\n12", color = blue];
	Obj3 [label="D\nObj3\n1", color = blue];
	Obj4 [label="zero\nObj4\n0", color = blue];
	Obj5 [label="equal\nObj5\n2 3", color = blue];
	Obj6 [label="cdot\nObj6\n5", color = blue];
	Obj7 [label="K\nObj7\n4", color = blue];
	Obj8 [label="ast\nObj8\n7", color = blue];
	Obj9 [label="prime\nObj9\n6", color = blue];
	
	/* EDGES (OBJECT RELATIONSHIPS)    */
	Obj8 -> Obj0 [label="RSUB\n(_)\n",color=red,fontcolor=red,penwidth=3];
	Obj7 -> Obj9 [label="RSUP"];
	Obj5 -> Obj4 [label="HORIZONTAL"];
	Obj7 -> Obj2 [label="HORIZONTAL"];
	Obj0 -> Obj7 [label="HORIZONTAL"];
	Obj7 -> Obj11 [label="RSUB"];
	Obj3 -> Obj10 [label="RSUB"];
	Obj1 -> Obj8 [label="RSUP"];
	Obj2 -> Obj6 [label="HORIZONTAL"];
	Obj3 -> Obj5 [label="HORIZONTAL"];
	Obj6 -> Obj3 [label="HORIZONTAL"];
	
}
