digraph dag {
	rankdir=LR; ranksep=1.0;
	edge[fontsize=13,weight=1]; node[fontsize=13,shape=box]; graph[ordering=out];

	/* NODES (OBJECTS) */
	Obj0 [label="j\nObj0\n11 12", color = blue];
	Obj1 [label="LeftPar\nObj1\n10", color = blue];
	Obj10 [label="RightPar\nObj10\n7", color = blue];
	Obj11 [label="k\nObj11\n9", color = blue];
	Obj12 [label="lambda\nObj12\n8", color = blue];
	Obj2 [label="RightPar\nObj2\n13", color = blue];
	Obj3 [label="equal\nObj3\n14 15", color = blue];
	Obj4 [label="LeftPar\nObj4\n1", color = blue];
	Obj5 [label="lambda\nObj5\n0", color = blue];
	Obj6 [label="P\nObj6\n3", color = blue];
	Obj7 [label="RightPar\nObj7\n2", color = blue];
	Obj8 [label="rho\nObj8\n5 6", color = blue];
	Obj9 [label="LeftPar\nObj9\n4", color = blue];
	
	/* EDGES (OBJECT RELATIONSHIPS)    */
	Obj11 -> Obj9 [label="HORIZONTAL\n(_)\n",color=red,fontcolor=red,penwidth=3];
	Obj4 -> Obj8 [label="HORIZONTAL"];
	Obj0 -> Obj11 [label="HORIZONTAL"];
	Obj6 -> Obj1 [label="HORIZONTAL"];
	Obj5 -> Obj7 [label="HORIZONTAL"];
	Obj12 -> Obj10 [label="HORIZONTAL"];
	Obj7 -> Obj3 [label="HORIZONTAL"];
	Obj1 -> Obj5 [label="HORIZONTAL"];
	Obj3 -> Obj4 [label="HORIZONTAL"];
	Obj10 -> Obj2 [label="HORIZONTAL"];
	Obj9 -> Obj12 [label="HORIZONTAL"];
	Obj8 -> Obj0 [label="RSUB"];
	
}
