digraph dag {
	rankdir=LR; ranksep=1.0;
	edge[fontsize=13,weight=1]; node[fontsize=13,shape=box]; graph[ordering=out];

	/* NODES (OBJECTS) */
	Obj0 [label="rho\nObj0\n1", color = blue];
	Obj1 [label="p\nObj1\n0", color = blue];
	Obj2 [label="LeftPar\nObj2\n3", color = blue];
	Obj3 [label="G\nObj3\n2", color = blue];
	Obj4 [label="c\nObj4\n5", color = blue];
	Obj5 [label="RightPar\nObj5\n4", color = blue];
	Obj6 [label="c\nObj6\n7", color = blue];
	Obj7 [label="p\nObj7\n6", color = blue];
	Obj8 [label="comma\nObj8\n9", color = blue];
	Obj9 [label="hat\nObj9\n8", color = blue];
	
	/* EDGES (OBJECT RELATIONSHIPS)    */
	Obj8 -> Obj3 [label="PUNC\n(_)\n",color=red,fontcolor=red,penwidth=3];
	Obj4 -> Obj8 [label="PUNC\n(_)\n",color=red,fontcolor=red,penwidth=3];
	Obj3 -> Obj9 [label="UPPER"];
	Obj2 -> Obj0 [label="HORIZONTAL"];
	Obj1 -> Obj6 [label="HORIZONTAL"];
	Obj3 -> Obj1 [label="RSUB"];
	Obj0 -> Obj7 [label="RSUB"];
	Obj3 -> Obj5 [label="HORIZONTAL"];
	Obj7 -> Obj4 [label="HORIZONTAL"];
	
}
