digraph dag {
	rankdir=LR; ranksep=1.0;
	edge[fontsize=13,weight=1]; node[fontsize=13,shape=box]; graph[ordering=out];

	/* NODES (OBJECTS) */
	Obj0 [label="one\nObj0\n10", color = blue];
	Obj1 [label="Y\nObj1\n1", color = blue];
	Obj2 [label="one\nObj2\n0", color = blue];
	Obj3 [label="w\nObj3\n3", color = blue];
	Obj4 [label="varphi\nObj4\n2", color = blue];
	Obj5 [label="RightPar\nObj5\n5", color = blue];
	Obj6 [label="LeftPar\nObj6\n4", color = blue];
	Obj7 [label="equal\nObj7\n7 8", color = blue];
	Obj8 [label="p\nObj8\n6", color = blue];
	Obj9 [label="Y\nObj9\n9", color = blue];
	
	/* EDGES (OBJECT RELATIONSHIPS)    */
	Obj4 -> Obj8 [label="HORIZONTAL\n(RSUB)\n",color=red,fontcolor=red,penwidth=3];
	Obj8 -> Obj6 [label="HORIZONTAL\n(_)\n",color=red,fontcolor=red,penwidth=3];
	Obj1 -> Obj0 [label="RSUB"];
	Obj9 -> Obj2 [label="RSUB"];
	Obj5 -> Obj7 [label="HORIZONTAL"];
	Obj3 -> Obj1 [label="HORIZONTAL"];
	Obj7 -> Obj3 [label="HORIZONTAL"];
	Obj9 -> Obj5 [label="HORIZONTAL"];
	Obj6 -> Obj9 [label="HORIZONTAL"];
	
}
