digraph dag {
	rankdir=LR; ranksep=1.0;
	edge[fontsize=13,weight=1]; node[fontsize=13,shape=box]; graph[ordering=out];

	/* NODES (OBJECTS) */
	Obj0 [label="RightPar\nObj0\n42", color = blue];
	Obj1 [label="subseteq\nObj1\n28 29", color = blue];
	Obj10 [label="MiddleLeftPar\nObj10\n43", color = blue];
	Obj11 [label="cup\nObj11\n40", color = blue];
	Obj12 [label="lambda\nObj12\n41", color = blue];
	Obj13 [label="W\nObj13\n1", color = blue];
	Obj14 [label="vert\nObj14\n0", color = blue];
	Obj15 [label="comma\nObj15\n3", color = blue];
	Obj16 [label="W\nObj16\n2", color = blue];
	Obj17 [label="x\nObj17\n5", color = blue];
	Obj18 [label="X\nObj18\n4", color = blue];
	Obj19 [label="kappa\nObj19\n7", color = blue];
	Obj2 [label="a\nObj2\n24", color = blue];
	Obj20 [label="J\nObj20\n6", color = blue];
	Obj21 [label="a\nObj21\n9", color = blue];
	Obj22 [label="LeftPar\nObj22\n8", color = blue];
	Obj23 [label="lambda\nObj23\n13", color = blue];
	Obj24 [label="comma\nObj24\n12", color = blue];
	Obj25 [label="vert\nObj25\n11", color = blue];
	Obj26 [label="RightPar\nObj26\n10", color = blue];
	Obj27 [label="LeftPar\nObj27\n39", color = blue];
	Obj28 [label="comma\nObj28\n38", color = blue];
	Obj29 [label="equal\nObj29\n15 16", color = blue];
	Obj3 [label="LeftPar\nObj3\n25", color = blue];
	Obj30 [label="RightPar\nObj30\n14", color = blue];
	Obj31 [label="colon\nObj31\n17 18", color = blue];
	Obj32 [label="LeftPar\nObj32\n33", color = blue];
	Obj33 [label="RightPar\nObj33\n31", color = blue];
	Obj34 [label="a\nObj34\n30", color = blue];
	Obj35 [label="equal\nObj35\n36 37", color = blue];
	Obj36 [label="comma\nObj36\n35", color = blue];
	Obj37 [label="a\nObj37\n34", color = blue];
	Obj38 [label="kappa\nObj38\n19", color = blue];
	Obj39 [label="comma\nObj39\n32", color = blue];
	Obj4 [label="kappa\nObj4\n26", color = blue];
	Obj5 [label="vert\nObj5\n27", color = blue];
	Obj6 [label="J\nObj6\n20", color = blue];
	Obj7 [label="MiddleRightPar\nObj7\n21", color = blue];
	Obj8 [label="x\nObj8\n22", color = blue];
	Obj9 [label="X\nObj9\n23", color = blue];
	
	/* EDGES (OBJECT RELATIONSHIPS)    */
	Obj9 -> Obj12 [label="LSUP\n(_)\n",color=red,fontcolor=red,penwidth=3];
	Obj26 -> Obj33 [label="HORIZONTAL"];
	Obj18 -> Obj30 [label="HORIZONTAL"];
	Obj20 -> Obj27 [label="HORIZONTAL"];
	Obj19 -> Obj15 [label="PUNC"];
	Obj38 -> Obj7 [label="HORIZONTAL"];
	Obj16 -> Obj3 [label="HORIZONTAL"];
	Obj8 -> Obj39 [label="PUNC"];
	Obj31 -> Obj21 [label="HORIZONTAL"];
	Obj23 -> Obj36 [label="PUNC"];
	Obj10 -> Obj13 [label="HORIZONTAL"];
	Obj6 -> Obj32 [label="HORIZONTAL"];
	Obj32 -> Obj37 [label="RSUP"];
	Obj14 -> Obj34 [label="HORIZONTAL"];
	Obj34 -> Obj19 [label="HORIZONTAL"];
	Obj5 -> Obj35 [label="HORIZONTAL"];
	Obj1 -> Obj23 [label="HORIZONTAL"];
	Obj2 -> Obj5 [label="HORIZONTAL"];
	Obj4 -> Obj28 [label="PUNC"];
	Obj25 -> Obj2 [label="HORIZONTAL"];
	Obj32 -> Obj18 [label="HORIZONTAL"];
	Obj17 -> Obj14 [label="HORIZONTAL"];
	Obj13 -> Obj22 [label="HORIZONTAL"];
	Obj4 -> Obj20 [label="HORIZONTAL"];
	Obj9 -> Obj26 [label="HORIZONTAL"];
	Obj27 -> Obj9 [label="HORIZONTAL"];
	Obj21 -> Obj1 [label="HORIZONTAL"];
	Obj23 -> Obj25 [label="HORIZONTAL"];
	Obj33 -> Obj29 [label="HORIZONTAL"];
	Obj3 -> Obj8 [label="HORIZONTAL"];
	Obj30 -> Obj0 [label="HORIZONTAL"];
	Obj34 -> Obj24 [label="PUNC"];
	Obj22 -> Obj17 [label="HORIZONTAL"];
	Obj11 -> Obj10 [label="HORIZONTAL"];
	Obj0 -> Obj31 [label="HORIZONTAL"];
	Obj19 -> Obj6 [label="HORIZONTAL"];
	Obj35 -> Obj38 [label="HORIZONTAL"];
	Obj8 -> Obj4 [label="HORIZONTAL"];
	Obj29 -> Obj11 [label="HORIZONTAL"];
	
}
