digraph dag {
	rankdir=LR; ranksep=1.0;
	edge[fontsize=13,weight=1]; node[fontsize=13,shape=box]; graph[ordering=out];

	/* NODES (OBJECTS) */
	Obj0 [label="equal\nObj0\n10 11", color = blue];
	Obj1 [label="i\nObj1\n12 13", color = blue];
	Obj2 [label="i\nObj2\n1 2", color = blue];
	Obj3 [label="one\nObj3\n0", color = blue];
	Obj4 [label="sum\nObj4\n3", color = blue];
	Obj5 [label="i\nObj5\n4 5", color = blue];
	Obj6 [label="m\nObj6\n6 7", color = blue];
	Obj7 [label="a\nObj7\n9", color = blue];
	Obj8 [label="h\nObj8\n8", color = blue];
	
	/* EDGES (OBJECT RELATIONSHIPS)    */
	Obj3 -> Obj7 [label="HORIZONTAL\n(_)\n",color=red,fontcolor=red,penwidth=3];
	Obj4 -> Obj6 [label="HORIZONTAL\n(_)\n",color=red,fontcolor=red,penwidth=3];
	Obj0 -> Obj3 [label="HORIZONTAL"];
	Obj1 -> Obj0 [label="HORIZONTAL"];
	Obj7 -> Obj8 [label="HORIZONTAL"];
	Obj4 -> Obj1 [label="RSUB"];
	Obj7 -> Obj2 [label="RSUB"];
	Obj8 -> Obj5 [label="RSUB"];
	
}
