digraph dag {
	rankdir=LR; ranksep=1.0;
	edge[fontsize=13,weight=1]; node[fontsize=13,shape=box]; graph[ordering=out];

	/* NODES (OBJECTS) */
	Obj0 [label="M\nObj0\n1", color = blue];
	Obj1 [label="comma\nObj1\n0", color = blue];
	Obj2 [label="LeftPar\nObj2\n2 3", color = blue];
	Obj3 [label="RightPar\nObj3\n5", color = blue];
	Obj4 [label="r\nObj4\n4", color = blue];
	Obj5 [label="p\nObj5\n6", color = blue];
	
	/* EDGES (OBJECT RELATIONSHIPS)    */
	Obj0 -> Obj5 [label="LSUP\n(_)\n",color=red,fontcolor=red,penwidth=3];
	Obj0 -> Obj4 [label="HORIZONTAL"];
	Obj0 -> Obj1 [label="PUNC"];
	Obj2 -> Obj0 [label="HORIZONTAL"];
	Obj4 -> Obj3 [label="HORIZONTAL"];
	
}
