digraph dag {
	rankdir=LR; ranksep=1.0;
	edge[fontsize=13,weight=1]; node[fontsize=13,shape=box]; graph[ordering=out];

	/* NODES (OBJECTS) */
	Obj0 [label="j\nObj0\n24 25", color = blue];
	Obj1 [label="LeftPar\nObj1\n26", color = blue];
	Obj10 [label="lambda\nObj10\n3", color = blue];
	Obj11 [label="l\nObj11\n2", color = blue];
	Obj12 [label="LeftPar\nObj12\n5", color = blue];
	Obj13 [label="infty\nObj13\n4", color = blue];
	Obj14 [label="vert\nObj14\n7", color = blue];
	Obj15 [label="plus\nObj15\n6", color = blue];
	Obj16 [label="rho\nObj16\n9", color = blue];
	Obj17 [label="two\nObj17\n8", color = blue];
	Obj18 [label="d\nObj18\n11", color = blue];
	Obj19 [label="lambda\nObj19\n10", color = blue];
	Obj2 [label="infty\nObj2\n27", color = blue];
	Obj20 [label="I\nObj20\n12 13", color = blue];
	Obj21 [label="equal\nObj21\n15 16", color = blue];
	Obj22 [label="minus\nObj22\n14", color = blue];
	Obj23 [label="l\nObj23\n17", color = blue];
	Obj24 [label="M\nObj24\n19", color = blue];
	Obj25 [label="k\nObj25\n18", color = blue];
	Obj26 [label="vert\nObj26\n31", color = blue];
	Obj27 [label="minus\nObj27\n33", color = blue];
	Obj28 [label="k\nObj28\n32", color = blue];
	Obj3 [label="RightPar\nObj3\n20", color = blue];
	Obj4 [label="RightPar\nObj4\n21", color = blue];
	Obj5 [label="l\nObj5\n22", color = blue];
	Obj6 [label="int\nObj6\n23", color = blue];
	Obj7 [label="minus\nObj7\n28", color = blue];
	Obj8 [label="I\nObj8\n29 30", color = blue];
	Obj9 [label="j\nObj9\n0 1", color = blue];
	
	/* EDGES (OBJECT RELATIONSHIPS)    */
	Obj18 -> Obj12 [label="HORIZONTAL\n(_)\n",color=red,fontcolor=red,penwidth=3];
	Obj18 -> Obj16 [label="RSUB\n(HORIZONTAL)\n",color=red,fontcolor=red,penwidth=3];
	Obj14 -> Obj27 [label="RSUP"];
	Obj19 -> Obj4 [label="HORIZONTAL"];
	Obj1 -> Obj11 [label="HORIZONTAL"];
	Obj10 -> Obj7 [label="HORIZONTAL"];
	Obj0 -> Obj28 [label="HORIZONTAL"];
	Obj8 -> Obj5 [label="HORIZONTAL"];
	Obj6 -> Obj15 [label="RSUP"];
	Obj14 -> Obj8 [label="HORIZONTAL"];
	Obj12 -> Obj19 [label="HORIZONTAL"];
	Obj27 -> Obj17 [label="HORIZONTAL"];
	Obj23 -> Obj14 [label="HORIZONTAL"];
	Obj4 -> Obj21 [label="HORIZONTAL"];
	Obj9 -> Obj25 [label="HORIZONTAL"];
	Obj6 -> Obj22 [label="RSUB"];
	Obj16 -> Obj0 [label="RSUB"];
	Obj6 -> Obj26 [label="HORIZONTAL"];
	Obj20 -> Obj24 [label="HORIZONTAL"];
	Obj5 -> Obj18 [label="HORIZONTAL"];
	Obj7 -> Obj23 [label="HORIZONTAL"];
	Obj21 -> Obj20 [label="HORIZONTAL"];
	Obj22 -> Obj13 [label="HORIZONTAL"];
	Obj24 -> Obj9 [label="RSUB"];
	Obj15 -> Obj2 [label="HORIZONTAL"];
	Obj26 -> Obj10 [label="HORIZONTAL"];
	Obj11 -> Obj3 [label="HORIZONTAL"];
	Obj24 -> Obj1 [label="HORIZONTAL"];
	
}
