digraph dag {
	rankdir=LR; ranksep=1.0;
	edge[fontsize=13,weight=1]; node[fontsize=13,shape=box]; graph[ordering=out];

	/* NODES (OBJECTS) */
	Obj0 [label="C\nObj0\n11", color = blue];
	Obj1 [label="P\nObj1\n10", color = blue];
	Obj10 [label="two\nObj10\n8", color = blue];
	Obj2 [label="r\nObj2\n1", color = blue];
	Obj3 [label="rightarrow\nObj3\n0", color = blue];
	Obj4 [label="p\nObj4\n3", color = blue];
	Obj5 [label="Gamma\nObj5\n2", color = blue];
	Obj6 [label="zero\nObj6\n5 6", color = blue];
	Obj7 [label="rightarrow\nObj7\n4", color = blue];
	Obj8 [label="minus\nObj8\n7", color = blue];
	Obj9 [label="two\nObj9\n9", color = blue];
	
	/* EDGES (OBJECT RELATIONSHIPS)    */
	Obj6 -> Obj3 [label="HORIZONTAL\n(_)\n",color=red,fontcolor=red,penwidth=3];
	Obj5 -> Obj8 [label="RSUB"];
	Obj5 -> Obj7 [label="HORIZONTAL"];
	Obj4 -> Obj6 [label="RSUP"];
	Obj3 -> Obj0 [label="HORIZONTAL"];
	Obj0 -> Obj1 [label="HORIZONTAL"];
	Obj1 -> Obj9 [label="RSUP"];
	Obj8 -> Obj10 [label="HORIZONTAL"];
	Obj7 -> Obj4 [label="HORIZONTAL"];
	Obj4 -> Obj2 [label="RSUB"];
	
}
