digraph dag {
	rankdir=LR; ranksep=1.0;
	edge[fontsize=13,weight=1]; node[fontsize=13,shape=box]; graph[ordering=out];

	/* NODES (OBJECTS) */
	Obj0 [label="V\nObj0\n1", color = blue];
	Obj1 [label="D\nObj1\n0", color = blue];
	Obj2 [label="Subset\nObj2\n2 3", color = blue];
	Obj3 [label="zero\nObj3\n5", color = blue];
	Obj4 [label="zero\nObj4\n4", color = blue];
	
	/* EDGES (OBJECT RELATIONSHIPS)    */
	Obj4 -> Obj2 [label="HORIZONTAL\n(_)\n",color=red,fontcolor=red,penwidth=3];
	Obj2 -> Obj1 [label="HORIZONTAL"];
	Obj0 -> Obj4 [label="RSUB"];
	Obj1 -> Obj3 [label="RSUB"];
	
}
