digraph dag {
	rankdir=LR; ranksep=1.0;
	edge[fontsize=13,weight=1]; node[fontsize=13,shape=box]; graph[ordering=out];

	/* NODES (OBJECTS) */
	Obj0 [label="zeta\nObj0\n30", color = blue];
	Obj1 [label="B\nObj1\n28", color = blue];
	Obj10 [label="minus\nObj10\n21", color = blue];
	Obj11 [label="zero\nObj11\n22", color = blue];
	Obj12 [label="zeta\nObj12\n23", color = blue];
	Obj13 [label="vert\nObj13\n46", color = blue];
	Obj14 [label="plus\nObj14\n47", color = blue];
	Obj15 [label="fractionalLine\nObj15\n44", color = blue];
	Obj16 [label="LeftPar\nObj16\n45", color = blue];
	Obj17 [label="one\nObj17\n42", color = blue];
	Obj18 [label="int\nObj18\n43", color = blue];
	Obj19 [label="R\nObj19\n40", color = blue];
	Obj2 [label="R\nObj2\n29", color = blue];
	Obj20 [label="l\nObj20\n41", color = blue];
	Obj21 [label="zeta\nObj21\n1", color = blue];
	Obj22 [label="psi\nObj22\n0", color = blue];
	Obj23 [label="pi\nObj23\n3", color = blue];
	Obj24 [label="LeftPar\nObj24\n2", color = blue];
	Obj25 [label="B\nObj25\n5", color = blue];
	Obj26 [label="psi\nObj26\n4", color = blue];
	Obj27 [label="g\nObj27\n7 8", color = blue];
	Obj28 [label="o\nObj28\n6", color = blue];
	Obj29 [label="R\nObj29\n9", color = blue];
	Obj3 [label="minus\nObj3\n35", color = blue];
	Obj30 [label="LeftPar\nObj30\n39", color = blue];
	Obj31 [label="d\nObj31\n38", color = blue];
	Obj32 [label="partial\nObj32\n14", color = blue];
	Obj33 [label="psi\nObj33\n11", color = blue];
	Obj34 [label="vert\nObj34\n10", color = blue];
	Obj35 [label="LeftPar\nObj35\n13", color = blue];
	Obj36 [label="RightPar\nObj36\n12", color = blue];
	Obj37 [label="R\nObj37\n15", color = blue];
	Obj38 [label="equal\nObj38\n48 49", color = blue];
	Obj39 [label="LeftPar\nObj39\n17", color = blue];
	Obj4 [label="int\nObj4\n52", color = blue];
	Obj40 [label="fractionalLine\nObj40\n16", color = blue];
	Obj41 [label="minus\nObj41\n33", color = blue];
	Obj42 [label="zeta\nObj42\n32", color = blue];
	Obj43 [label="LeftPar\nObj43\n31", color = blue];
	Obj44 [label="RightPar\nObj44\n51", color = blue];
	Obj45 [label="zeta\nObj45\n36", color = blue];
	Obj46 [label="zero\nObj46\n53", color = blue];
	Obj47 [label="d\nObj47\n34", color = blue];
	Obj48 [label="RightPar\nObj48\n19", color = blue];
	Obj49 [label="zero\nObj49\n37", color = blue];
	Obj5 [label="LeftPar\nObj5\n24", color = blue];
	Obj50 [label="two\nObj50\n18", color = blue];
	Obj51 [label="RightPar\nObj51\n50", color = blue];
	Obj6 [label="Delta\nObj6\n25", color = blue];
	Obj7 [label="RightPar\nObj7\n26", color = blue];
	Obj8 [label="RightPar\nObj8\n27", color = blue];
	Obj9 [label="RightPar\nObj9\n20", color = blue];
	
	/* EDGES (OBJECT RELATIONSHIPS)    */
	Obj37 -> Obj43 [label="HORIZONTAL\n(_)\n",color=red,fontcolor=red,penwidth=3];
	Obj40 -> Obj34 [label="UPPER"];
	Obj35 -> Obj46 [label="HORIZONTAL"];
	Obj14 -> Obj15 [label="HORIZONTAL"];
	Obj6 -> Obj33 [label="HORIZONTAL"];
	Obj28 -> Obj27 [label="HORIZONTAL"];
	Obj30 -> Obj21 [label="HORIZONTAL"];
	Obj31 -> Obj0 [label="HORIZONTAL"];
	Obj12 -> Obj13 [label="HORIZONTAL"];
	Obj3 -> Obj20 [label="HORIZONTAL"];
	Obj40 -> Obj29 [label="UNDER"];
	Obj36 -> Obj31 [label="HORIZONTAL"];
	Obj49 -> Obj48 [label="HORIZONTAL"];
	Obj22 -> Obj30 [label="HORIZONTAL"];
	Obj15 -> Obj17 [label="UPPER"];
	Obj15 -> Obj18 [label="HORIZONTAL"];
	Obj41 -> Obj22 [label="HORIZONTAL"];
	Obj50 -> Obj23 [label="HORIZONTAL"];
	Obj43 -> Obj49 [label="HORIZONTAL"];
	Obj23 -> Obj26 [label="HORIZONTAL"];
	Obj42 -> Obj9 [label="HORIZONTAL"];
	Obj38 -> Obj4 [label="HORIZONTAL"];
	Obj46 -> Obj44 [label="HORIZONTAL"];
	Obj11 -> Obj8 [label="HORIZONTAL"];
	Obj18 -> Obj32 [label="UNDER"];
	Obj47 -> Obj45 [label="HORIZONTAL"];
	Obj4 -> Obj25 [label="UNDER"];
	Obj44 -> Obj38 [label="HORIZONTAL"];
	Obj7 -> Obj36 [label="HORIZONTAL"];
	Obj33 -> Obj5 [label="HORIZONTAL"];
	Obj18 -> Obj16 [label="HORIZONTAL"];
	Obj4 -> Obj39 [label="HORIZONTAL"];
	Obj26 -> Obj35 [label="HORIZONTAL"];
	Obj16 -> Obj41 [label="HORIZONTAL"];
	Obj32 -> Obj1 [label="HORIZONTAL"];
	Obj1 -> Obj24 [label="HORIZONTAL"];
	Obj10 -> Obj50 [label="HORIZONTAL"];
	Obj27 -> Obj40 [label="HORIZONTAL"];
	Obj20 -> Obj28 [label="HORIZONTAL"];
	Obj40 -> Obj51 [label="HORIZONTAL"];
	Obj5 -> Obj42 [label="HORIZONTAL"];
	Obj45 -> Obj14 [label="HORIZONTAL"];
	Obj15 -> Obj2 [label="UNDER"];
	Obj34 -> Obj12 [label="HORIZONTAL"];
	Obj51 -> Obj6 [label="HORIZONTAL"];
	Obj1 -> Obj19 [label="RSUB"];
	Obj21 -> Obj7 [label="HORIZONTAL"];
	Obj25 -> Obj37 [label="RSUB"];
	Obj24 -> Obj11 [label="HORIZONTAL"];
	Obj9 -> Obj47 [label="HORIZONTAL"];
	Obj39 -> Obj3 [label="HORIZONTAL"];
	
}
