digraph dag {
	rankdir=LR; ranksep=1.0;
	edge[fontsize=13,weight=1]; node[fontsize=13,shape=box]; graph[ordering=out];

	/* NODES (OBJECTS) */
	Obj0 [label="geqq\nObj0\n1 2 3", color = blue];
	Obj1 [label="sqrt\nObj1\n0", color = blue];
	Obj2 [label="zero\nObj2\n5", color = blue];
	Obj3 [label="minus\nObj3\n4", color = blue];
	Obj4 [label="omega\nObj4\n7", color = blue];
	Obj5 [label="one\nObj5\n6", color = blue];
	
	/* EDGES (OBJECT RELATIONSHIPS)    */
	Obj5 -> Obj4 [label="HORIZONTAL\n(_)\n",color=red,fontcolor=red,penwidth=3];
	Obj4 -> Obj0 [label="HORIZONTAL"];
	Obj0 -> Obj2 [label="HORIZONTAL"];
	Obj1 -> Obj3 [label="UNDER"];
	Obj3 -> Obj5 [label="HORIZONTAL"];
	
}
