digraph dag {
	rankdir=LR; ranksep=1.0;
	edge[fontsize=13,weight=1]; node[fontsize=13,shape=box]; graph[ordering=out];

	/* NODES (OBJECTS) */
	Obj0 [label="minus\nObj0\n20", color = blue];
	Obj1 [label="m\nObj1\n21", color = blue];
	Obj10 [label="int\nObj10\n9", color = blue];
	Obj11 [label="zero\nObj11\n8", color = blue];
	Obj12 [label="t\nObj12\n11", color = blue];
	Obj13 [label="phi\nObj13\n10", color = blue];
	Obj14 [label="dot\nObj14\n13", color = blue];
	Obj15 [label="fractionalLine\nObj15\n12", color = blue];
	Obj16 [label="F\nObj16\n15", color = blue];
	Obj17 [label="t\nObj17\n14", color = blue];
	Obj18 [label="V\nObj18\n17", color = blue];
	Obj19 [label="phi\nObj19\n16", color = blue];
	Obj2 [label="one\nObj2\n1", color = blue];
	Obj20 [label="minus\nObj20\n19", color = blue];
	Obj21 [label="LeftPar\nObj21\n18", color = blue];
	Obj3 [label="sqrt\nObj3\n0", color = blue];
	Obj4 [label="plus\nObj4\n3", color = blue];
	Obj5 [label="omega\nObj5\n2", color = blue];
	Obj6 [label="RightPar\nObj6\n5", color = blue];
	Obj7 [label="m\nObj7\n4", color = blue];
	Obj8 [label="t\nObj8\n7", color = blue];
	Obj9 [label="e\nObj9\n6", color = blue];
	
	/* EDGES (OBJECT RELATIONSHIPS)    */
	Obj2 -> Obj6 [label="HORIZONTAL\n(_)\n",color=red,fontcolor=red,penwidth=3];
	Obj21 -> Obj3 [label="HORIZONTAL"];
	Obj10 -> Obj13 [label="HORIZONTAL"];
	Obj15 -> Obj18 [label="UNDER"];
	Obj13 -> Obj9 [label="HORIZONTAL"];
	Obj19 -> Obj17 [label="RSUB"];
	Obj13 -> Obj14 [label="UPPER"];
	Obj0 -> Obj12 [label="HORIZONTAL"];
	Obj20 -> Obj2 [label="HORIZONTAL"];
	Obj9 -> Obj16 [label="RSUP"];
	Obj9 -> Obj5 [label="HORIZONTAL"];
	Obj12 -> Obj19 [label="HORIZONTAL"];
	Obj3 -> Obj20 [label="UNDER"];
	Obj15 -> Obj21 [label="UPPER"];
	Obj13 -> Obj8 [label="RSUB"];
	Obj5 -> Obj11 [label="RSUB"];
	Obj4 -> Obj15 [label="HORIZONTAL"];
	Obj5 -> Obj1 [label="RSUP"];
	Obj15 -> Obj10 [label="HORIZONTAL"];
	Obj6 -> Obj7 [label="RSUP"];
	Obj16 -> Obj0 [label="HORIZONTAL"];
	
}
