digraph dag {
	rankdir=LR; ranksep=1.0;
	edge[fontsize=13,weight=1]; node[fontsize=13,shape=box]; graph[ordering=out];

	/* NODES (OBJECTS) */
	Obj0 [label="minus\nObj0\n11", color = blue];
	Obj1 [label="t\nObj1\n10", color = blue];
	Obj2 [label="j\nObj2\n1 2", color = blue];
	Obj3 [label="BigRightPar\nObj3\n0", color = blue];
	Obj4 [label="BigLeftPar\nObj4\n3", color = blue];
	Obj5 [label="t\nObj5\n5", color = blue];
	Obj6 [label="one\nObj6\n4", color = blue];
	Obj7 [label="comma\nObj7\n6 7", color = blue];
	Obj8 [label="j\nObj8\n8 9", color = blue];
	
	/* EDGES (OBJECT RELATIONSHIPS)    */
	Obj6 -> Obj7 [label="PUNC\n(_)\n",color=red,fontcolor=red,penwidth=3];
	Obj8 -> Obj0 [label="HORIZONTAL"];
	Obj1 -> Obj5 [label="HORIZONTAL"];
	Obj4 -> Obj1 [label="HORIZONTAL"];
	Obj0 -> Obj6 [label="HORIZONTAL"];
	Obj1 -> Obj8 [label="RSUB"];
	Obj5 -> Obj3 [label="HORIZONTAL"];
	Obj5 -> Obj2 [label="RSUB"];
	
}
