digraph dag {
	rankdir=LR; ranksep=1.0;
	edge[fontsize=13,weight=1]; node[fontsize=13,shape=box]; graph[ordering=out];

	/* NODES (OBJECTS) */
	Obj0 [label="equal\nObj0\n10 11", color = blue];
	Obj1 [label="x\nObj1\n13", color = blue];
	Obj10 [label="three\nObj10\n4", color = blue];
	Obj11 [label="x\nObj11\n7", color = blue];
	Obj12 [label="RightPar\nObj12\n6", color = blue];
	Obj13 [label="four\nObj13\n9", color = blue];
	Obj14 [label="x\nObj14\n8", color = blue];
	Obj2 [label="MiddleLeftPar\nObj2\n12", color = blue];
	Obj3 [label="LeftPar\nObj3\n15", color = blue];
	Obj4 [label="comma\nObj4\n14", color = blue];
	Obj5 [label="two\nObj5\n1", color = blue];
	Obj6 [label="comma\nObj6\n0", color = blue];
	Obj7 [label="Lambda\nObj7\n3", color = blue];
	Obj8 [label="MiddleRightPar\nObj8\n2", color = blue];
	Obj9 [label="one\nObj9\n5", color = blue];
	
	/* EDGES (OBJECT RELATIONSHIPS)    */
	Obj5 -> Obj6 [label="PUNC\n(_)\n",color=red,fontcolor=red,penwidth=3];
	Obj12 -> Obj0 [label="HORIZONTAL\n(_)\n",color=red,fontcolor=red,penwidth=3];
	Obj9 -> Obj4 [label="RSUP\n(_)\n",color=red,fontcolor=red,penwidth=3];
	Obj7 -> Obj3 [label="HORIZONTAL\n(RSUP)\n",color=red,fontcolor=red,penwidth=3];
	Obj11 -> Obj8 [label="HORIZONTAL"];
	Obj0 -> Obj2 [label="HORIZONTAL"];
	Obj13 -> Obj12 [label="HORIZONTAL"];
	Obj2 -> Obj1 [label="HORIZONTAL"];
	Obj11 -> Obj10 [label="RSUB"];
	Obj14 -> Obj11 [label="HORIZONTAL"];
	Obj14 -> Obj5 [label="RSUB"];
	Obj1 -> Obj9 [label="RSUB"];
	Obj1 -> Obj14 [label="HORIZONTAL"];
	Obj3 -> Obj13 [label="HORIZONTAL"];
	
}
