digraph dag {
	rankdir=LR; ranksep=1.0;
	edge[fontsize=13,weight=1]; node[fontsize=13,shape=box]; graph[ordering=out];

	/* NODES (OBJECTS) */
	Obj0 [label="g\nObj0\n11", color = blue];
	Obj1 [label="slash\nObj1\n10", color = blue];
	Obj10 [label="zero\nObj10\n5", color = blue];
	Obj11 [label="a\nObj11\n4", color = blue];
	Obj12 [label="o\nObj12\n7", color = blue];
	Obj13 [label="comma\nObj13\n6", color = blue];
	Obj14 [label="three\nObj14\n9", color = blue];
	Obj15 [label="a\nObj15\n8", color = blue];
	Obj2 [label="geq\nObj2\n12 13", color = blue];
	Obj3 [label="d\nObj3\n15", color = blue];
	Obj4 [label="two\nObj4\n14", color = blue];
	Obj5 [label="RightPar\nObj5\n16", color = blue];
	Obj6 [label="r\nObj6\n1", color = blue];
	Obj7 [label="xi\nObj7\n0", color = blue];
	Obj8 [label="LeftPar\nObj8\n3", color = blue];
	Obj9 [label="xi\nObj9\n2", color = blue];
	
	/* EDGES (OBJECT RELATIONSHIPS)    */
	Obj7 -> Obj0 [label="HORIZONTAL\n(_)\n",color=red,fontcolor=red,penwidth=3];
	Obj9 -> Obj10 [label="HORIZONTAL"];
	Obj3 -> Obj7 [label="RSUB"];
	Obj10 -> Obj5 [label="HORIZONTAL"];
	Obj15 -> Obj14 [label="RSUB"];
	Obj8 -> Obj9 [label="HORIZONTAL"];
	Obj1 -> Obj11 [label="HORIZONTAL"];
	Obj11 -> Obj4 [label="RSUB"];
	Obj12 -> Obj6 [label="HORIZONTAL"];
	Obj2 -> Obj15 [label="HORIZONTAL"];
	Obj0 -> Obj8 [label="HORIZONTAL"];
	Obj5 -> Obj2 [label="HORIZONTAL"];
	Obj15 -> Obj1 [label="HORIZONTAL"];
	Obj9 -> Obj13 [label="PUNC"];
	Obj6 -> Obj3 [label="HORIZONTAL"];
	
}
