digraph dag {
	rankdir=LR; ranksep=1.0;
	edge[fontsize=13,weight=1]; node[fontsize=13,shape=box]; graph[ordering=out];

	/* NODES (OBJECTS) */
	Obj0 [label="int\nObj0\n20", color = blue];
	Obj1 [label="one\nObj1\n21", color = blue];
	Obj10 [label="dot\nObj10\n7", color = blue];
	Obj11 [label="wedge\nObj11\n6", color = blue];
	Obj12 [label="fractionalLine\nObj12\n9", color = blue];
	Obj13 [label="partial\nObj13\n8", color = blue];
	Obj14 [label="minus\nObj14\n11", color = blue];
	Obj15 [label="one\nObj15\n10", color = blue];
	Obj16 [label="equal\nObj16\n12 13", color = blue];
	Obj17 [label="minus\nObj17\n15", color = blue];
	Obj18 [label="LeftPar\nObj18\n14", color = blue];
	Obj19 [label="omega\nObj19\n17", color = blue];
	Obj2 [label="sqrt\nObj2\n22", color = blue];
	Obj20 [label="phi\nObj20\n16", color = blue];
	Obj21 [label="minus\nObj21\n19", color = blue];
	Obj22 [label="RightPar\nObj22\n18", color = blue];
	Obj3 [label="m\nObj3\n23", color = blue];
	Obj4 [label="Reject2\nObj4\n1", color = blue];
	Obj5 [label="phi\nObj5\n0", color = blue];
	Obj6 [label="V\nObj6\n3", color = blue];
	Obj7 [label="m\nObj7\n2", color = blue];
	Obj8 [label="m\nObj8\n5", color = blue];
	Obj9 [label="M\nObj9\n4", color = blue];
	
	/* EDGES (OBJECT RELATIONSHIPS)    */
	Obj1 -> Obj22 [label="HORIZONTAL\n(_)\n",color=red,fontcolor=red,penwidth=3];
	Obj11 -> Obj19 [label="HORIZONTAL"];
	Obj20 -> Obj10 [label="UPPER"];
	Obj2 -> Obj21 [label="UNDER"];
	Obj0 -> Obj5 [label="HORIZONTAL"];
	Obj12 -> Obj6 [label="UNDER"];
	Obj13 -> Obj4 [label="HORIZONTAL"];
	Obj22 -> Obj3 [label="RSUP"];
	Obj14 -> Obj12 [label="HORIZONTAL"];
	Obj19 -> Obj8 [label="RSUP"];
	Obj12 -> Obj7 [label="UPPER"];
	Obj17 -> Obj15 [label="HORIZONTAL"];
	Obj0 -> Obj9 [label="UNDER"];
	Obj18 -> Obj2 [label="HORIZONTAL"];
	Obj21 -> Obj1 [label="HORIZONTAL"];
	Obj16 -> Obj14 [label="HORIZONTAL"];
	Obj5 -> Obj13 [label="HORIZONTAL"];
	Obj8 -> Obj17 [label="HORIZONTAL"];
	Obj4 -> Obj20 [label="HORIZONTAL"];
	Obj12 -> Obj0 [label="HORIZONTAL"];
	Obj20 -> Obj11 [label="HORIZONTAL"];
	Obj7 -> Obj18 [label="HORIZONTAL"];
	
}
