digraph dag {
	rankdir=LR; ranksep=1.0;
	edge[fontsize=13,weight=1]; node[fontsize=13,shape=box]; graph[ordering=out];

	/* NODES (OBJECTS) */
	Obj0 [label="greater\nObj0\n11", color = blue];
	Obj1 [label="k\nObj1\n10", color = blue];
	Obj10 [label="minus\nObj10\n8", color = blue];
	Obj2 [label="one\nObj2\n12", color = blue];
	Obj3 [label="plus\nObj3\n1", color = blue];
	Obj4 [label="m\nObj4\n0", color = blue];
	Obj5 [label="i\nObj5\n2 3", color = blue];
	Obj6 [label="m\nObj6\n5", color = blue];
	Obj7 [label="plus\nObj7\n4", color = blue];
	Obj8 [label="i\nObj8\n6 7", color = blue];
	Obj9 [label="k\nObj9\n9", color = blue];
	
	/* EDGES (OBJECT RELATIONSHIPS)    */
	Obj7 -> Obj5 [label="UNDER\n(_)\n",color=red,fontcolor=red,penwidth=3];
	Obj6 -> Obj2 [label="UNDER\n(_)\n",color=red,fontcolor=red,penwidth=3];
	Obj2 -> Obj10 [label="UNDER\n(_)\n",color=red,fontcolor=red,penwidth=3];
	Obj3 -> Obj8 [label="UNDER\n(_)\n",color=red,fontcolor=red,penwidth=3];
	Obj6 -> Obj0 [label="HORIZONTAL\n(_)\n",color=red,fontcolor=red,penwidth=3];
	Obj2 -> Obj9 [label="HORIZONTAL\n(_)\n",color=red,fontcolor=red,penwidth=3];
	Obj0 -> Obj9 [label="LSUP\n(_)\n",color=red,fontcolor=red,penwidth=3];
	Obj0 -> Obj2 [label="UNDER\n(_)\n",color=red,fontcolor=red,penwidth=3];
	Obj9 -> Obj7 [label="UNDER\n(_)\n",color=red,fontcolor=red,penwidth=3];
	Obj10 -> Obj9 [label="UNDER\n(_)\n",color=red,fontcolor=red,penwidth=3];
	Obj1 -> Obj3 [label="HORIZONTAL\n(_)\n",color=red,fontcolor=red,penwidth=3];
	Obj9 -> Obj10 [label="HORIZONTAL"];
	Obj5 -> Obj7 [label="HORIZONTAL"];
	Obj8 -> Obj3 [label="HORIZONTAL"];
	Obj7 -> Obj9 [label="HORIZONTAL"];
	Obj3 -> Obj1 [label="HORIZONTAL"];
	Obj0 -> Obj6 [label="HORIZONTAL"];
	Obj10 -> Obj2 [label="HORIZONTAL"];
	Obj6 -> Obj8 [label="RSUB"];
	
}
