digraph dag {
	rankdir=LR; ranksep=1.0;
	edge[fontsize=13,weight=1]; node[fontsize=13,shape=box]; graph[ordering=out];

	/* NODES (OBJECTS) */
	Obj0 [label="u\nObj0\n1", color = blue];
	Obj1 [label="comma\nObj1\n0", color = blue];
	Obj2 [label="u\nObj2\n3", color = blue];
	Obj3 [label="comma\nObj3\n2", color = blue];
	Obj4 [label="u\nObj4\n5", color = blue];
	Obj5 [label="one\nObj5\n4", color = blue];
	Obj6 [label="two\nObj6\n7", color = blue];
	Obj7 [label="three\nObj7\n6", color = blue];
	Obj8 [label="ast\nObj8\n8", color = blue];
	
	/* EDGES (OBJECT RELATIONSHIPS)    */
	Obj0 -> Obj1 [label="UNDER\n(_)\n",color=red,fontcolor=red,penwidth=3];
	Obj6 -> Obj3 [label="HORIZONTAL\n(_)\n",color=red,fontcolor=red,penwidth=3];
	Obj4 -> Obj5 [label="RSUB"];
	Obj0 -> Obj2 [label="HORIZONTAL"];
	Obj0 -> Obj8 [label="RSUP"];
	Obj2 -> Obj7 [label="RSUB"];
	Obj0 -> Obj6 [label="RSUB"];
	Obj4 -> Obj0 [label="HORIZONTAL"];
	
}
