digraph dag {
	rankdir=LR; ranksep=1.0;
	edge[fontsize=13,weight=1]; node[fontsize=13,shape=box]; graph[ordering=out];

	/* NODES (OBJECTS) */
	Obj0 [label="LeftPar\nObj0\n28", color = blue];
	Obj1 [label="equal\nObj1\n42 43", color = blue];
	Obj10 [label="minus\nObj10\n44", color = blue];
	Obj11 [label="two\nObj11\n45", color = blue];
	Obj12 [label="overline\nObj12\n29", color = blue];
	Obj13 [label="w\nObj13\n40", color = blue];
	Obj14 [label="plus\nObj14\n41", color = blue];
	Obj15 [label="w\nObj15\n1", color = blue];
	Obj16 [label="one\nObj16\n0", color = blue];
	Obj17 [label="sqrt\nObj17\n3", color = blue];
	Obj18 [label="one\nObj18\n2", color = blue];
	Obj19 [label="two\nObj19\n5", color = blue];
	Obj2 [label="two\nObj2\n24", color = blue];
	Obj20 [label="three\nObj20\n4", color = blue];
	Obj21 [label="one\nObj21\n7", color = blue];
	Obj22 [label="one\nObj22\n6", color = blue];
	Obj23 [label="overline\nObj23\n9", color = blue];
	Obj24 [label="overline\nObj24\n8", color = blue];
	Obj25 [label="w\nObj25\n13", color = blue];
	Obj26 [label="fractionalLine\nObj26\n38", color = blue];
	Obj27 [label="two\nObj27\n11", color = blue];
	Obj28 [label="two\nObj28\n10", color = blue];
	Obj29 [label="w\nObj29\n39", color = blue];
	Obj3 [label="two\nObj3\n25", color = blue];
	Obj30 [label="z\nObj30\n12", color = blue];
	Obj31 [label="one\nObj31\n15", color = blue];
	Obj32 [label="z\nObj32\n14", color = blue];
	Obj33 [label="fractionalLine\nObj33\n17", color = blue];
	Obj34 [label="z\nObj34\n16", color = blue];
	Obj35 [label="two\nObj35\n33", color = blue];
	Obj36 [label="minus\nObj36\n18", color = blue];
	Obj37 [label="prime\nObj37\n31", color = blue];
	Obj38 [label="two\nObj38\n30", color = blue];
	Obj39 [label="prime\nObj39\n37", color = blue];
	Obj4 [label="w\nObj4\n26", color = blue];
	Obj40 [label="overline\nObj40\n36", color = blue];
	Obj41 [label="prime\nObj41\n35", color = blue];
	Obj42 [label="plus\nObj42\n34", color = blue];
	Obj43 [label="one\nObj43\n19", color = blue];
	Obj44 [label="RightPar\nObj44\n32", color = blue];
	Obj5 [label="w\nObj5\n27", color = blue];
	Obj6 [label="two\nObj6\n20", color = blue];
	Obj7 [label="z\nObj7\n21", color = blue];
	Obj8 [label="w\nObj8\n22", color = blue];
	Obj9 [label="two\nObj9\n23", color = blue];
	
	/* EDGES (OBJECT RELATIONSHIPS)    */
	Obj11 -> Obj33 [label="HORIZONTAL\n(_)\n",color=red,fontcolor=red,penwidth=3];
	Obj1 -> Obj21 [label="HORIZONTAL"];
	Obj36 -> Obj34 [label="HORIZONTAL"];
	Obj14 -> Obj17 [label="HORIZONTAL"];
	Obj29 -> Obj3 [label="RSUB"];
	Obj10 -> Obj7 [label="HORIZONTAL"];
	Obj26 -> Obj43 [label="UPPER"];
	Obj8 -> Obj18 [label="RSUB"];
	Obj33 -> Obj22 [label="UPPER"];
	Obj7 -> Obj27 [label="RSUB"];
	Obj5 -> Obj19 [label="RSUB"];
	Obj34 -> Obj5 [label="HORIZONTAL"];
	Obj30 -> Obj35 [label="RSUB"];
	Obj44 -> Obj2 [label="RSUP"];
	Obj43 -> Obj10 [label="HORIZONTAL"];
	Obj13 -> Obj14 [label="HORIZONTAL"];
	Obj15 -> Obj9 [label="RSUB"];
	Obj30 -> Obj24 [label="UPPER"];
	Obj25 -> Obj31 [label="RSUB"];
	Obj0 -> Obj26 [label="HORIZONTAL"];
	Obj34 -> Obj6 [label="RSUB"];
	Obj30 -> Obj28 [label="RSUP"];
	Obj17 -> Obj11 [label="UNDER"];
	Obj32 -> Obj29 [label="HORIZONTAL"];
	Obj26 -> Obj44 [label="HORIZONTAL"];
	Obj33 -> Obj8 [label="UNDER"];
	Obj29 -> Obj42 [label="HORIZONTAL"];
	Obj33 -> Obj32 [label="HORIZONTAL"];
	Obj13 -> Obj37 [label="RSUP"];
	Obj22 -> Obj36 [label="HORIZONTAL"];
	Obj44 -> Obj13 [label="HORIZONTAL"];
	Obj4 -> Obj39 [label="RSUP"];
	Obj42 -> Obj30 [label="HORIZONTAL"];
	Obj32 -> Obj38 [label="RSUB"];
	Obj4 -> Obj20 [label="RSUB"];
	Obj7 -> Obj12 [label="UPPER"];
	Obj26 -> Obj25 [label="UNDER"];
	Obj34 -> Obj23 [label="UPPER"];
	Obj7 -> Obj15 [label="HORIZONTAL"];
	Obj29 -> Obj41 [label="RSUP"];
	Obj13 -> Obj16 [label="RSUB"];
	Obj30 -> Obj4 [label="HORIZONTAL"];
	Obj4 -> Obj1 [label="HORIZONTAL"];
	Obj32 -> Obj40 [label="UPPER"];
	
}
