digraph dag {
	rankdir=LR; ranksep=1.0;
	edge[fontsize=13,weight=1]; node[fontsize=13,shape=box]; graph[ordering=out];

	/* NODES (OBJECTS) */
	Obj0 [label="r\nObj0\n56", color = blue];
	Obj1 [label="epsilon\nObj1\n28", color = blue];
	Obj10 [label="one\nObj10\n27", color = blue];
	Obj11 [label="less\nObj11\n20", color = blue];
	Obj12 [label="w\nObj12\n21", color = blue];
	Obj13 [label="vert\nObj13\n22", color = blue];
	Obj14 [label="R\nObj14\n23", color = blue];
	Obj15 [label="beta\nObj15\n46", color = blue];
	Obj16 [label="two\nObj16\n47", color = blue];
	Obj17 [label="minus\nObj17\n44", color = blue];
	Obj18 [label="RightPar\nObj18\n45", color = blue];
	Obj19 [label="LeftPar\nObj19\n42", color = blue];
	Obj2 [label="minus\nObj2\n43", color = blue];
	Obj20 [label="delta\nObj20\n29", color = blue];
	Obj21 [label="w\nObj21\n40", color = blue];
	Obj22 [label="RightPar\nObj22\n41", color = blue];
	Obj23 [label="plus\nObj23\n1", color = blue];
	Obj24 [label="comma\nObj24\n0", color = blue];
	Obj25 [label="vert\nObj25\n3", color = blue];
	Obj26 [label="LeftPar\nObj26\n2", color = blue];
	Obj27 [label="minus\nObj27\n5", color = blue];
	Obj28 [label="LeftPar\nObj28\n4", color = blue];
	Obj29 [label="d\nObj29\n7", color = blue];
	Obj3 [label="pi\nObj3\n36", color = blue];
	Obj30 [label="z\nObj30\n6", color = blue];
	Obj31 [label="minus\nObj31\n9", color = blue];
	Obj32 [label="phi\nObj32\n8", color = blue];
	Obj33 [label="w\nObj33\n18", color = blue];
	Obj34 [label="zero\nObj34\n51", color = blue];
	Obj35 [label="four\nObj35\n39", color = blue];
	Obj36 [label="int\nObj36\n38", color = blue];
	Obj37 [label="beta\nObj37\n14", color = blue];
	Obj38 [label="zero\nObj38\n11", color = blue];
	Obj39 [label="C\nObj39\n10", color = blue];
	Obj4 [label="leqq\nObj4\n48 49 50", color = blue];
	Obj40 [label="LeftPar\nObj40\n13", color = blue];
	Obj41 [label="pi\nObj41\n12", color = blue];
	Obj42 [label="four\nObj42\n15", color = blue];
	Obj43 [label="minus\nObj43\n17", color = blue];
	Obj44 [label="e\nObj44\n16", color = blue];
	Obj45 [label="delta\nObj45\n55", color = blue];
	Obj46 [label="fractionalLine\nObj46\n32", color = blue];
	Obj47 [label="w\nObj47\n31", color = blue];
	Obj48 [label="fractionalLine\nObj48\n30", color = blue];
	Obj49 [label="phi\nObj49\n37", color = blue];
	Obj5 [label="comma\nObj5\n52", color = blue];
	Obj50 [label="e\nObj50\n35", color = blue];
	Obj51 [label="z\nObj51\n33 34", color = blue];
	Obj52 [label="two\nObj52\n19", color = blue];
	Obj53 [label="w\nObj53\n54", color = blue];
	Obj6 [label="RightPar\nObj6\n53", color = blue];
	Obj7 [label="LeftPar\nObj7\n24", color = blue];
	Obj8 [label="RightPar\nObj8\n25", color = blue];
	Obj9 [label="RightPar\nObj9\n26", color = blue];
	
	/* EDGES (OBJECT RELATIONSHIPS)    */
	Obj9 -> Obj32 [label="RSUB\n(_)\n",color=red,fontcolor=red,penwidth=3];
	Obj47 -> Obj29 [label="PUNC\n(_)\n",color=red,fontcolor=red,penwidth=3];
	Obj36 -> Obj50 [label="HORIZONTAL"];
	Obj14 -> Obj16 [label="RSUB"];
	Obj7 -> Obj30 [label="HORIZONTAL"];
	Obj36 -> Obj13 [label="UNDER"];
	Obj46 -> Obj2 [label="HORIZONTAL"];
	Obj51 -> Obj21 [label="HORIZONTAL"];
	Obj12 -> Obj31 [label="HORIZONTAL"];
	Obj30 -> Obj5 [label="PUNC"];
	Obj45 -> Obj8 [label="HORIZONTAL"];
	Obj43 -> Obj26 [label="HORIZONTAL"];
	Obj10 -> Obj23 [label="HORIZONTAL"];
	Obj6 -> Obj28 [label="HORIZONTAL"];
	Obj8 -> Obj49 [label="HORIZONTAL"];
	Obj48 -> Obj35 [label="UPPER"];
	Obj53 -> Obj25 [label="HORIZONTAL"];
	Obj47 -> Obj22 [label="HORIZONTAL"];
	Obj31 -> Obj53 [label="HORIZONTAL"];
	Obj20 -> Obj9 [label="HORIZONTAL"];
	Obj53 -> Obj34 [label="RSUB"];
	Obj19 -> Obj46 [label="HORIZONTAL"];
	Obj30 -> Obj47 [label="HORIZONTAL"];
	Obj49 -> Obj7 [label="HORIZONTAL"];
	Obj1 -> Obj6 [label="HORIZONTAL"];
	Obj46 -> Obj15 [label="UNDER"];
	Obj4 -> Obj39 [label="HORIZONTAL"];
	Obj28 -> Obj48 [label="HORIZONTAL"];
	Obj27 -> Obj19 [label="HORIZONTAL"];
	Obj25 -> Obj11 [label="HORIZONTAL"];
	Obj29 -> Obj33 [label="HORIZONTAL"];
	Obj35 -> Obj3 [label="HORIZONTAL"];
	Obj11 -> Obj0 [label="HORIZONTAL"];
	Obj14 -> Obj44 [label="HORIZONTAL"];
	Obj44 -> Obj43 [label="RSUP"];
	Obj21 -> Obj38 [label="RSUB"];
	Obj39 -> Obj14 [label="HORIZONTAL"];
	Obj48 -> Obj37 [label="UNDER"];
	Obj40 -> Obj51 [label="HORIZONTAL"];
	Obj42 -> Obj41 [label="HORIZONTAL"];
	Obj50 -> Obj27 [label="RSUP"];
	Obj13 -> Obj12 [label="HORIZONTAL"];
	Obj17 -> Obj20 [label="HORIZONTAL"];
	Obj33 -> Obj4 [label="HORIZONTAL"];
	Obj21 -> Obj18 [label="HORIZONTAL"];
	Obj23 -> Obj1 [label="HORIZONTAL"];
	Obj26 -> Obj10 [label="HORIZONTAL"];
	Obj14 -> Obj52 [label="RSUP"];
	Obj2 -> Obj45 [label="HORIZONTAL"];
	Obj46 -> Obj42 [label="UPPER"];
	Obj32 -> Obj40 [label="HORIZONTAL"];
	Obj48 -> Obj17 [label="HORIZONTAL"];
	Obj51 -> Obj24 [label="PUNC"];
	
}
