digraph dag {
	rankdir=LR; ranksep=1.0;
	edge[fontsize=13,weight=1]; node[fontsize=13,shape=box]; graph[ordering=out];

	/* NODES (OBJECTS) */
	Obj0 [label="k\nObj0\n24", color = blue];
	Obj1 [label="M\nObj1\n25", color = blue];
	Obj10 [label="delta\nObj10\n0", color = blue];
	Obj11 [label="z\nObj11\n3", color = blue];
	Obj12 [label="four\nObj12\n2", color = blue];
	Obj13 [label="one\nObj13\n5", color = blue];
	Obj14 [label="C\nObj14\n4", color = blue];
	Obj15 [label="phi\nObj15\n7", color = blue];
	Obj16 [label="LeftPar\nObj16\n6", color = blue];
	Obj17 [label="int\nObj17\n9", color = blue];
	Obj18 [label="RightPar\nObj18\n8", color = blue];
	Obj19 [label="d\nObj19\n11", color = blue];
	Obj2 [label="i\nObj2\n26 27", color = blue];
	Obj20 [label="beta\nObj20\n10", color = blue];
	Obj21 [label="l\nObj21\n13", color = blue];
	Obj22 [label="RightPar\nObj22\n12", color = blue];
	Obj23 [label="RightPar\nObj23\n15", color = blue];
	Obj24 [label="B\nObj24\n14", color = blue];
	Obj25 [label="r\nObj25\n17", color = blue];
	Obj26 [label="LeftPar\nObj26\n16", color = blue];
	Obj27 [label="fractionalLine\nObj27\n19", color = blue];
	Obj28 [label="minus\nObj28\n18", color = blue];
	Obj3 [label="V\nObj3\n20", color = blue];
	Obj4 [label="pi\nObj4\n21", color = blue];
	Obj5 [label="LeftPar\nObj5\n22", color = blue];
	Obj6 [label="e\nObj6\n23", color = blue];
	Obj7 [label="z\nObj7\n28", color = blue];
	Obj8 [label="leqq\nObj8\n29 30 31", color = blue];
	Obj9 [label="minus\nObj9\n1", color = blue];
	
	/* EDGES (OBJECT RELATIONSHIPS)    */
	Obj0 -> Obj19 [label="HORIZONTAL\n(_)\n",color=red,fontcolor=red,penwidth=3];
	Obj15 -> Obj16 [label="HORIZONTAL\n(_)\n",color=red,fontcolor=red,penwidth=3];
	Obj27 -> Obj12 [label="UPPER"];
	Obj11 -> Obj22 [label="HORIZONTAL"];
	Obj6 -> Obj28 [label="RSUP"];
	Obj28 -> Obj5 [label="HORIZONTAL"];
	Obj9 -> Obj10 [label="HORIZONTAL"];
	Obj16 -> Obj7 [label="HORIZONTAL"];
	Obj18 -> Obj15 [label="HORIZONTAL"];
	Obj17 -> Obj6 [label="HORIZONTAL"];
	Obj2 -> Obj0 [label="RSUB"];
	Obj19 -> Obj3 [label="HORIZONTAL"];
	Obj10 -> Obj13 [label="RSUB"];
	Obj3 -> Obj1 [label="RSUB"];
	Obj24 -> Obj25 [label="RSUB"];
	Obj5 -> Obj27 [label="HORIZONTAL"];
	Obj21 -> Obj18 [label="HORIZONTAL"];
	Obj7 -> Obj23 [label="HORIZONTAL"];
	Obj10 -> Obj21 [label="HORIZONTAL"];
	Obj12 -> Obj4 [label="HORIZONTAL"];
	Obj17 -> Obj24 [label="UNDER"];
	Obj27 -> Obj9 [label="HORIZONTAL"];
	Obj27 -> Obj20 [label="UNDER"];
	Obj24 -> Obj26 [label="HORIZONTAL"];
	Obj3 -> Obj8 [label="HORIZONTAL"];
	Obj15 -> Obj2 [label="RSUB"];
	Obj8 -> Obj14 [label="HORIZONTAL"];
	Obj26 -> Obj11 [label="HORIZONTAL"];
	
}
