digraph dag {
	rankdir=LR; ranksep=1.0;
	edge[fontsize=13,weight=1]; node[fontsize=13,shape=box]; graph[ordering=out];

	/* NODES (OBJECTS) */
	Obj0 [label="i\nObj0\n11 12", color = blue];
	Obj1 [label="LeftPar\nObj1\n10", color = blue];
	Obj10 [label="equal\nObj10\n3 4", color = blue];
	Obj11 [label="leq\nObj11\n2", color = blue];
	Obj12 [label="i\nObj12\n5 6", color = blue];
	Obj13 [label="one\nObj13\n7", color = blue];
	Obj14 [label="h\nObj14\n9", color = blue];
	Obj15 [label="w\nObj15\n8", color = blue];
	Obj2 [label="r\nObj2\n13", color = blue];
	Obj3 [label="RightPar\nObj3\n15", color = blue];
	Obj4 [label="sum\nObj4\n14", color = blue];
	Obj5 [label="y\nObj5\n16 17", color = blue];
	Obj6 [label="minus\nObj6\n19", color = blue];
	Obj7 [label="zero\nObj7\n18", color = blue];
	Obj8 [label="leq\nObj8\n1", color = blue];
	Obj9 [label="zero\nObj9\n0", color = blue];
	
	/* EDGES (OBJECT RELATIONSHIPS)    */
	Obj4 -> Obj2 [label="RSUB\n(_)\n",color=red,fontcolor=red,penwidth=3];
	Obj12 -> Obj8 [label="HORIZONTAL"];
	Obj6 -> Obj13 [label="HORIZONTAL"];
	Obj4 -> Obj7 [label="UNDER"];
	Obj11 -> Obj12 [label="HORIZONTAL"];
	Obj14 -> Obj1 [label="HORIZONTAL"];
	Obj15 -> Obj5 [label="HORIZONTAL"];
	Obj15 -> Obj0 [label="RSUP"];
	Obj7 -> Obj11 [label="HORIZONTAL"];
	Obj3 -> Obj10 [label="HORIZONTAL"];
	Obj2 -> Obj6 [label="HORIZONTAL"];
	Obj5 -> Obj3 [label="HORIZONTAL"];
	Obj10 -> Obj9 [label="HORIZONTAL"];
	Obj4 -> Obj14 [label="HORIZONTAL"];
	Obj1 -> Obj15 [label="HORIZONTAL"];
	
}
