digraph dag {
	rankdir=LR; ranksep=1.0;
	edge[fontsize=13,weight=1]; node[fontsize=13,shape=box]; graph[ordering=out];

	/* NODES (OBJECTS) */
	Obj0 [label="LeftPar\nObj0\n11", color = blue];
	Obj1 [label="G\nObj1\n10", color = blue];
	Obj10 [label="RightPar\nObj10\n5", color = blue];
	Obj11 [label="r\nObj11\n4", color = blue];
	Obj12 [label="B\nObj12\n7", color = blue];
	Obj13 [label="k\nObj13\n6", color = blue];
	Obj14 [label="one\nObj14\n9", color = blue];
	Obj15 [label="one\nObj15\n8", color = blue];
	Obj2 [label="y\nObj2\n13", color = blue];
	Obj3 [label="BigLeftPar\nObj3\n12", color = blue];
	Obj4 [label="equal\nObj4\n15 16", color = blue];
	Obj5 [label="f\nObj5\n14", color = blue];
	Obj6 [label="BigRightPar\nObj6\n1", color = blue];
	Obj7 [label="H\nObj7\n0", color = blue];
	Obj8 [label="comma\nObj8\n3", color = blue];
	Obj9 [label="x\nObj9\n2", color = blue];
	
	/* EDGES (OBJECT RELATIONSHIPS)    */
	Obj7 -> Obj8 [label="HORIZONTAL\n(_)\n",color=red,fontcolor=red,penwidth=3];
	Obj12 -> Obj1 [label="RSUP"];
	Obj2 -> Obj10 [label="HORIZONTAL"];
	Obj5 -> Obj7 [label="RSUB"];
	Obj3 -> Obj9 [label="HORIZONTAL"];
	Obj10 -> Obj11 [label="RSUP"];
	Obj9 -> Obj15 [label="RSUB"];
	Obj13 -> Obj3 [label="HORIZONTAL"];
	Obj0 -> Obj2 [label="HORIZONTAL"];
	Obj4 -> Obj13 [label="HORIZONTAL"];
	Obj12 -> Obj4 [label="HORIZONTAL"];
	Obj10 -> Obj6 [label="HORIZONTAL"];
	Obj5 -> Obj0 [label="HORIZONTAL"];
	Obj2 -> Obj14 [label="RSUB"];
	Obj9 -> Obj5 [label="HORIZONTAL"];
	
}
