digraph dag {
	rankdir=LR; ranksep=1.0;
	edge[fontsize=13,weight=1]; node[fontsize=13,shape=box]; graph[ordering=out];

	/* NODES (OBJECTS) */
	Obj0 [label="N\nObj0\n11", color = blue];
	Obj1 [label="LeftPar\nObj1\n10", color = blue];
	Obj10 [label="minus\nObj10\n3", color = blue];
	Obj11 [label="one\nObj11\n2", color = blue];
	Obj12 [label="T\nObj12\n5", color = blue];
	Obj13 [label="T\nObj13\n4", color = blue];
	Obj14 [label="Reject1\nObj14\n7", color = blue];
	Obj15 [label="RightPar\nObj15\n6", color = blue];
	Obj16 [label="RightPar\nObj16\n9", color = blue];
	Obj17 [label="one\nObj17\n8", color = blue];
	Obj2 [label="equal\nObj2\n13 14", color = blue];
	Obj3 [label="one\nObj3\n12", color = blue];
	Obj4 [label="C\nObj4\n15", color = blue];
	Obj5 [label="P\nObj5\n17", color = blue];
	Obj6 [label="r\nObj6\n16", color = blue];
	Obj7 [label="F\nObj7\n18", color = blue];
	Obj8 [label="LeftPar\nObj8\n1", color = blue];
	Obj9 [label="r\nObj9\n0", color = blue];
	
	/* EDGES (OBJECT RELATIONSHIPS)    */
	Obj1 -> Obj0 [label="LSUP\n(_)\n",color=red,fontcolor=red,penwidth=3];
	Obj9 -> Obj5 [label="LSUP\n(_)\n",color=red,fontcolor=red,penwidth=3];
	Obj7 -> Obj8 [label="HORIZONTAL"];
	Obj10 -> Obj17 [label="HORIZONTAL"];
	Obj12 -> Obj11 [label="RSUP"];
	Obj13 -> Obj14 [label="HORIZONTAL"];
	Obj4 -> Obj6 [label="RSUB"];
	Obj15 -> Obj16 [label="HORIZONTAL"];
	Obj12 -> Obj2 [label="HORIZONTAL"];
	Obj1 -> Obj7 [label="HORIZONTAL"];
	Obj5 -> Obj10 [label="RSUP"];
	Obj12 -> Obj9 [label="RSUB"];
	Obj8 -> Obj4 [label="HORIZONTAL"];
	Obj2 -> Obj13 [label="HORIZONTAL"];
	Obj5 -> Obj1 [label="HORIZONTAL"];
	Obj4 -> Obj3 [label="RSUP"];
	Obj4 -> Obj15 [label="HORIZONTAL"];
	
}
