digraph dag {
	rankdir=LR; ranksep=1.0;
	edge[fontsize=13,weight=1]; node[fontsize=13,shape=box]; graph[ordering=out];

	/* NODES (OBJECTS) */
	Obj0 [label="equal\nObj0\n11 12", color = blue];
	Obj1 [label="sum\nObj1\n10", color = blue];
	Obj10 [label="sigma\nObj10\n5", color = blue];
	Obj11 [label="equal\nObj11\n6 7", color = blue];
	Obj12 [label="r\nObj12\n9", color = blue];
	Obj13 [label="sigma\nObj13\n20", color = blue];
	Obj14 [label="one\nObj14\n8", color = blue];
	Obj2 [label="j\nObj2\n13 14", color = blue];
	Obj3 [label="one\nObj3\n15", color = blue];
	Obj4 [label="s\nObj4\n17", color = blue];
	Obj5 [label="sum\nObj5\n16", color = blue];
	Obj6 [label="equal\nObj6\n18 19", color = blue];
	Obj7 [label="j\nObj7\n1 2", color = blue];
	Obj8 [label="sigma\nObj8\n0", color = blue];
	Obj9 [label="m\nObj9\n3 4", color = blue];
	
	/* EDGES (OBJECT RELATIONSHIPS)    */
	Obj14 -> Obj7 [label="HORIZONTAL\n(_)\n",color=red,fontcolor=red,penwidth=3];
	Obj0 -> Obj3 [label="HORIZONTAL"];
	Obj1 -> Obj12 [label="UPPER"];
	Obj1 -> Obj9 [label="HORIZONTAL"];
	Obj5 -> Obj8 [label="UNDER"];
	Obj5 -> Obj4 [label="UPPER"];
	Obj7 -> Obj0 [label="HORIZONTAL"];
	Obj12 -> Obj10 [label="RSUB"];
	Obj13 -> Obj2 [label="HORIZONTAL"];
	Obj9 -> Obj11 [label="HORIZONTAL"];
	Obj8 -> Obj6 [label="HORIZONTAL"];
	Obj6 -> Obj14 [label="HORIZONTAL"];
	Obj9 -> Obj13 [label="RSUB"];
	Obj5 -> Obj1 [label="HORIZONTAL"];
	
}
