digraph dag {
	rankdir=LR; ranksep=1.0;
	edge[fontsize=13,weight=1]; node[fontsize=13,shape=box]; graph[ordering=out];

	/* NODES (OBJECTS) */
	Obj0 [label="prime\nObj0\n11", color = blue];
	Obj1 [label="alpha\nObj1\n10", color = blue];
	Obj10 [label="LeftPar\nObj10\n8 9", color = blue];
	Obj2 [label="RightPar\nObj2\n1", color = blue];
	Obj3 [label="U\nObj3\n0", color = blue];
	Obj4 [label="comma\nObj4\n3", color = blue];
	Obj5 [label="two\nObj5\n2", color = blue];
	Obj6 [label="pi\nObj6\n5", color = blue];
	Obj7 [label="alpha\nObj7\n4", color = blue];
	Obj8 [label="one\nObj8\n7", color = blue];
	Obj9 [label="three\nObj9\n6", color = blue];
	
	/* EDGES (OBJECT RELATIONSHIPS)    */
	Obj9 -> Obj4 [label="RSUB\n(_)\n",color=red,fontcolor=red,penwidth=3];
	Obj7 -> Obj6 [label="HORIZONTAL"];
	Obj7 -> Obj9 [label="RSUB"];
	Obj3 -> Obj0 [label="RSUP"];
	Obj6 -> Obj10 [label="HORIZONTAL"];
	Obj1 -> Obj7 [label="HORIZONTAL"];
	Obj3 -> Obj2 [label="HORIZONTAL"];
	Obj1 -> Obj5 [label="RSUB"];
	Obj10 -> Obj3 [label="HORIZONTAL"];
	Obj6 -> Obj8 [label="RSUB"];
	
}
