digraph dag {
	rankdir=LR; ranksep=1.0;
	edge[fontsize=13,weight=1]; node[fontsize=13,shape=box]; graph[ordering=out];

	/* NODES (OBJECTS) */
	Obj0 [label="LeftPar\nObj0\n30", color = blue];
	Obj1 [label="BigLeftPar\nObj1\n42", color = blue];
	Obj10 [label="zero\nObj10\n23", color = blue];
	Obj11 [label="m\nObj11\n46", color = blue];
	Obj12 [label="minus\nObj12\n47", color = blue];
	Obj13 [label="omega\nObj13\n44", color = blue];
	Obj14 [label="m\nObj14\n45", color = blue];
	Obj15 [label="LeftPar\nObj15\n28", color = blue];
	Obj16 [label="k\nObj16\n43", color = blue];
	Obj17 [label="k\nObj17\n40", color = blue];
	Obj18 [label="one\nObj18\n41", color = blue];
	Obj19 [label="minus\nObj19\n1", color = blue];
	Obj2 [label="RightPar\nObj2\n29", color = blue];
	Obj20 [label="LeftPar\nObj20\n0", color = blue];
	Obj21 [label="int\nObj21\n3", color = blue];
	Obj22 [label="RightPar\nObj22\n2", color = blue];
	Obj23 [label="plus\nObj23\n5", color = blue];
	Obj24 [label="one\nObj24\n4", color = blue];
	Obj25 [label="sum\nObj25\n7", color = blue];
	Obj26 [label="sqrt\nObj26\n6", color = blue];
	Obj27 [label="phi\nObj27\n9", color = blue];
	Obj28 [label="m\nObj28\n8", color = blue];
	Obj29 [label="zero\nObj29\n13", color = blue];
	Obj3 [label="RightPar\nObj3\n24", color = blue];
	Obj30 [label="equal\nObj30\n38 39", color = blue];
	Obj31 [label="equal\nObj31\n14 15", color = blue];
	Obj32 [label="m\nObj32\n11", color = blue];
	Obj33 [label="one\nObj33\n10", color = blue];
	Obj34 [label="fractionalLine\nObj34\n12", color = blue];
	Obj35 [label="omega\nObj35\n22", color = blue];
	Obj36 [label="dot\nObj36\n17", color = blue];
	Obj37 [label="one\nObj37\n16", color = blue];
	Obj38 [label="one\nObj38\n33", color = blue];
	Obj39 [label="minus\nObj39\n32", color = blue];
	Obj4 [label="V\nObj4\n25", color = blue];
	Obj40 [label="phi\nObj40\n31", color = blue];
	Obj41 [label="two\nObj41\n49", color = blue];
	Obj42 [label="minus\nObj42\n37", color = blue];
	Obj43 [label="plus\nObj43\n36", color = blue];
	Obj44 [label="Reject2\nObj44\n35", color = blue];
	Obj45 [label="M\nObj45\n34", color = blue];
	Obj46 [label="wedge\nObj46\n19", color = blue];
	Obj47 [label="k\nObj47\n18", color = blue];
	Obj5 [label="k\nObj5\n26", color = blue];
	Obj6 [label="wedge\nObj6\n27", color = blue];
	Obj7 [label="minus\nObj7\n20", color = blue];
	Obj8 [label="fractionalLine\nObj8\n21", color = blue];
	Obj9 [label="partial\nObj9\n48", color = blue];
	
	/* EDGES (OBJECT RELATIONSHIPS)    */
	Obj33 -> Obj22 [label="HORIZONTAL\n(_)\n",color=red,fontcolor=red,penwidth=3];
	Obj6 -> Obj20 [label="HORIZONTAL"];
	Obj8 -> Obj0 [label="UPPER"];
	Obj38 -> Obj3 [label="HORIZONTAL"];
	Obj27 -> Obj36 [label="UPPER"];
	Obj34 -> Obj41 [label="UPPER"];
	Obj13 -> Obj29 [label="RSUB"];
	Obj40 -> Obj9 [label="HORIZONTAL"];
	Obj13 -> Obj46 [label="HORIZONTAL"];
	Obj5 -> Obj43 [label="HORIZONTAL"];
	Obj22 -> Obj32 [label="RSUP"];
	Obj25 -> Obj28 [label="UPPER"];
	Obj25 -> Obj34 [label="HORIZONTAL"];
	Obj34 -> Obj11 [label="UNDER"];
	Obj8 -> Obj1 [label="HORIZONTAL"];
	Obj43 -> Obj38 [label="HORIZONTAL"];
	Obj12 -> Obj16 [label="HORIZONTAL"];
	Obj41 -> Obj15 [label="HORIZONTAL"];
	Obj13 -> Obj14 [label="RSUP"];
	Obj35 -> Obj17 [label="RSUP"];
	Obj31 -> Obj10 [label="HORIZONTAL"];
	Obj11 -> Obj23 [label="HORIZONTAL"];
	Obj0 -> Obj26 [label="HORIZONTAL"];
	Obj28 -> Obj7 [label="HORIZONTAL"];
	Obj16 -> Obj42 [label="HORIZONTAL"];
	Obj14 -> Obj12 [label="HORIZONTAL"];
	Obj26 -> Obj19 [label="UNDER"];
	Obj19 -> Obj33 [label="HORIZONTAL"];
	Obj25 -> Obj47 [label="UNDER"];
	Obj46 -> Obj35 [label="HORIZONTAL"];
	Obj21 -> Obj45 [label="UNDER"];
	Obj20 -> Obj25 [label="HORIZONTAL"];
	Obj15 -> Obj5 [label="HORIZONTAL"];
	Obj34 -> Obj13 [label="HORIZONTAL"];
	Obj23 -> Obj18 [label="HORIZONTAL"];
	Obj7 -> Obj24 [label="HORIZONTAL"];
	Obj47 -> Obj31 [label="HORIZONTAL"];
	Obj21 -> Obj40 [label="HORIZONTAL"];
	Obj1 -> Obj39 [label="HORIZONTAL"];
	Obj27 -> Obj6 [label="HORIZONTAL"];
	Obj42 -> Obj37 [label="HORIZONTAL"];
	Obj44 -> Obj27 [label="HORIZONTAL"];
	Obj39 -> Obj21 [label="HORIZONTAL"];
	Obj35 -> Obj2 [label="HORIZONTAL"];
	Obj8 -> Obj4 [label="UNDER"];
	Obj30 -> Obj8 [label="HORIZONTAL"];
	Obj9 -> Obj44 [label="HORIZONTAL"];
	
}
