digraph dag {
	rankdir=LR; ranksep=1.0;
	edge[fontsize=13,weight=1]; node[fontsize=13,shape=box]; graph[ordering=out];

	/* NODES (OBJECTS) */
	Obj0 [label="plus\nObj0\n11", color = blue];
	Obj1 [label="w\nObj1\n10", color = blue];
	Obj10 [label="N\nObj10\n9", color = blue];
	Obj2 [label="w\nObj2\n12", color = blue];
	Obj3 [label="comma\nObj3\n1", color = blue];
	Obj4 [label="one\nObj4\n0", color = blue];
	Obj5 [label="comma\nObj5\n3", color = blue];
	Obj6 [label="prime\nObj6\n2", color = blue];
	Obj7 [label="prime\nObj7\n5", color = blue];
	Obj8 [label="m\nObj8\n4", color = blue];
	Obj9 [label="ldots\nObj9\n6 7 8", color = blue];
	
	/* EDGES (OBJECT RELATIONSHIPS)    */
	Obj4 -> Obj3 [label="HORIZONTAL\n(_)\n",color=red,fontcolor=red,penwidth=3];
	Obj8 -> Obj0 [label="HORIZONTAL"];
	Obj0 -> Obj4 [label="HORIZONTAL"];
	Obj2 -> Obj1 [label="HORIZONTAL"];
	Obj3 -> Obj9 [label="HORIZONTAL"];
	Obj1 -> Obj6 [label="RSUP"];
	Obj1 -> Obj10 [label="RSUB"];
	Obj2 -> Obj8 [label="RSUB"];
	Obj2 -> Obj7 [label="RSUP"];
	Obj9 -> Obj5 [label="HORIZONTAL"];
	
}
