digraph dag {
	rankdir=LR; ranksep=1.0;
	edge[fontsize=13,weight=1]; node[fontsize=13,shape=box]; graph[ordering=out];

	/* NODES (OBJECTS) */
	Obj0 [label="w\nObj0\n28", color = blue];
	Obj1 [label="w\nObj1\n29", color = blue];
	Obj10 [label="a\nObj10\n46", color = blue];
	Obj11 [label="plus\nObj11\n44", color = blue];
	Obj12 [label="w\nObj12\n45", color = blue];
	Obj13 [label="Phi\nObj13\n42", color = blue];
	Obj14 [label="z\nObj14\n43", color = blue];
	Obj15 [label="prime\nObj15\n40", color = blue];
	Obj16 [label="prime\nObj16\n41", color = blue];
	Obj17 [label="one\nObj17\n1", color = blue];
	Obj18 [label="w\nObj18\n0", color = blue];
	Obj19 [label="sum\nObj19\n3", color = blue];
	Obj2 [label="RightPar\nObj2\n24", color = blue];
	Obj20 [label="N\nObj20\n2", color = blue];
	Obj21 [label="m\nObj21\n5", color = blue];
	Obj22 [label="prime\nObj22\n4", color = blue];
	Obj23 [label="RightPar\nObj23\n7", color = blue];
	Obj24 [label="LeftPar\nObj24\n6", color = blue];
	Obj25 [label="equal\nObj25\n8 9", color = blue];
	Obj26 [label="comma\nObj26\n13", color = blue];
	Obj27 [label="ldots\nObj27\n36 37 38", color = blue];
	Obj28 [label="beta\nObj28\n11", color = blue];
	Obj29 [label="LeftPar\nObj29\n10", color = blue];
	Obj3 [label="RightPar\nObj3\n25", color = blue];
	Obj30 [label="alpha\nObj30\n39", color = blue];
	Obj31 [label="z\nObj31\n12", color = blue];
	Obj32 [label="comma\nObj32\n15", color = blue];
	Obj33 [label="beta\nObj33\n14", color = blue];
	Obj34 [label="comma\nObj34\n17", color = blue];
	Obj35 [label="comma\nObj35\n16", color = blue];
	Obj36 [label="ldots\nObj36\n32 33 34", color = blue];
	Obj37 [label="LeftPar\nObj37\n31", color = blue];
	Obj38 [label="prime\nObj38\n30", color = blue];
	Obj39 [label="beta\nObj39\n35", color = blue];
	Obj4 [label="m\nObj4\n26", color = blue];
	Obj40 [label="comma\nObj40\n19", color = blue];
	Obj41 [label="alpha\nObj41\n18", color = blue];
	Obj5 [label="w\nObj5\n27", color = blue];
	Obj6 [label="one\nObj6\n20", color = blue];
	Obj7 [label="comma\nObj7\n21", color = blue];
	Obj8 [label="comma\nObj8\n22", color = blue];
	Obj9 [label="prime\nObj9\n23", color = blue];
	
	/* EDGES (OBJECT RELATIONSHIPS)    */
	Obj18 -> Obj7 [label="UNDER\n(_)\n",color=red,fontcolor=red,penwidth=3];
	Obj30 -> Obj34 [label="PUNC"];
	Obj21 -> Obj11 [label="HORIZONTAL"];
	Obj12 -> Obj21 [label="RSUB"];
	Obj1 -> Obj38 [label="RSUP"];
	Obj11 -> Obj17 [label="HORIZONTAL"];
	Obj1 -> Obj26 [label="PUNC"];
	Obj31 -> Obj35 [label="PUNC"];
	Obj5 -> Obj23 [label="HORIZONTAL"];
	Obj29 -> Obj31 [label="HORIZONTAL"];
	Obj3 -> Obj24 [label="HORIZONTAL"];
	Obj1 -> Obj0 [label="HORIZONTAL"];
	Obj25 -> Obj19 [label="HORIZONTAL"];
	Obj18 -> Obj20 [label="RSUB"];
	Obj19 -> Obj28 [label="UNDER"];
	Obj36 -> Obj32 [label="HORIZONTAL"];
	Obj18 -> Obj2 [label="HORIZONTAL"];
	Obj19 -> Obj10 [label="HORIZONTAL"];
	Obj14 -> Obj5 [label="HORIZONTAL"];
	Obj12 -> Obj15 [label="RSUP"];
	Obj10 -> Obj29 [label="HORIZONTAL"];
	Obj27 -> Obj8 [label="HORIZONTAL"];
	Obj0 -> Obj22 [label="RSUP"];
	Obj30 -> Obj39 [label="HORIZONTAL"];
	Obj7 -> Obj27 [label="HORIZONTAL"];
	Obj5 -> Obj9 [label="RSUP"];
	Obj13 -> Obj41 [label="RSUB"];
	Obj13 -> Obj37 [label="HORIZONTAL"];
	Obj24 -> Obj12 [label="HORIZONTAL"];
	Obj18 -> Obj16 [label="RSUP"];
	Obj1 -> Obj6 [label="RSUB"];
	Obj10 -> Obj30 [label="RSUB"];
	Obj2 -> Obj33 [label="RSUP"];
	Obj23 -> Obj25 [label="HORIZONTAL"];
	Obj0 -> Obj3 [label="HORIZONTAL"];
	Obj37 -> Obj14 [label="HORIZONTAL"];
	Obj31 -> Obj1 [label="HORIZONTAL"];
	Obj14 -> Obj40 [label="PUNC"];
	Obj0 -> Obj4 [label="RSUB"];
	Obj12 -> Obj18 [label="HORIZONTAL"];
	Obj26 -> Obj36 [label="HORIZONTAL"];
	
}
