digraph dag {
	rankdir=LR; ranksep=1.0;
	edge[fontsize=13,weight=1]; node[fontsize=13,shape=box]; graph[ordering=out];

	/* NODES (OBJECTS) */
	Obj0 [label="LeftPar\nObj0\n30", color = blue];
	Obj1 [label="RightPar\nObj1\n28", color = blue];
	Obj10 [label="omega\nObj10\n46", color = blue];
	Obj11 [label="RightPar\nObj11\n47", color = blue];
	Obj12 [label="int\nObj12\n44", color = blue];
	Obj13 [label="zero\nObj13\n45", color = blue];
	Obj14 [label="RightPar\nObj14\n42", color = blue];
	Obj15 [label="t\nObj15\n29", color = blue];
	Obj16 [label="phi\nObj16\n40", color = blue];
	Obj17 [label="phi\nObj17\n41", color = blue];
	Obj18 [label="zero\nObj18\n1", color = blue];
	Obj19 [label="zero\nObj19\n0", color = blue];
	Obj2 [label="fractionalLine\nObj2\n43", color = blue];
	Obj20 [label="m\nObj20\n3", color = blue];
	Obj21 [label="omega\nObj21\n2", color = blue];
	Obj22 [label="sqrt\nObj22\n5", color = blue];
	Obj23 [label="RightPar\nObj23\n4", color = blue];
	Obj24 [label="m\nObj24\n7", color = blue];
	Obj25 [label="V\nObj25\n6", color = blue];
	Obj26 [label="m\nObj26\n9", color = blue];
	Obj27 [label="V\nObj27\n8", color = blue];
	Obj28 [label="m\nObj28\n51", color = blue];
	Obj29 [label="LeftPar\nObj29\n13", color = blue];
	Obj3 [label="minus\nObj3\n24", color = blue];
	Obj30 [label="minus\nObj30\n38", color = blue];
	Obj31 [label="minus\nObj31\n14", color = blue];
	Obj32 [label="phi\nObj32\n11", color = blue];
	Obj33 [label="int\nObj33\n10", color = blue];
	Obj34 [label="minus\nObj34\n39", color = blue];
	Obj35 [label="J\nObj35\n12", color = blue];
	Obj36 [label="LeftPar\nObj36\n15", color = blue];
	Obj37 [label="LeftPar\nObj37\n48", color = blue];
	Obj38 [label="minus\nObj38\n17", color = blue];
	Obj39 [label="M\nObj39\n16", color = blue];
	Obj4 [label="t\nObj4\n25", color = blue];
	Obj40 [label="RightPar\nObj40\n19", color = blue];
	Obj41 [label="fractionalLine\nObj41\n18", color = blue];
	Obj42 [label="t\nObj42\n31", color = blue];
	Obj43 [label="one\nObj43\n23", color = blue];
	Obj44 [label="RightPar\nObj44\n37", color = blue];
	Obj45 [label="LeftPar\nObj45\n36", color = blue];
	Obj46 [label="leqq\nObj46\n33 34 35", color = blue];
	Obj47 [label="LeftPar\nObj47\n32", color = blue];
	Obj48 [label="M\nObj48\n50", color = blue];
	Obj5 [label="m\nObj5\n26", color = blue];
	Obj6 [label="one\nObj6\n27", color = blue];
	Obj7 [label="sqrt\nObj7\n20 21", color = blue];
	Obj8 [label="I\nObj8\n22", color = blue];
	Obj9 [label="phi\nObj9\n49", color = blue];
	
	/* EDGES (OBJECT RELATIONSHIPS)    */
	Obj43 -> Obj14 [label="HORIZONTAL\n(_)\n",color=red,fontcolor=red,penwidth=3];
	Obj10 -> Obj19 [label="RSUB"];
	Obj7 -> Obj30 [label="UNDER"];
	Obj28 -> Obj41 [label="HORIZONTAL"];
	Obj40 -> Obj26 [label="RSUP"];
	Obj35 -> Obj36 [label="HORIZONTAL"];
	Obj34 -> Obj9 [label="HORIZONTAL"];
	Obj32 -> Obj13 [label="RSUB"];
	Obj9 -> Obj44 [label="HORIZONTAL"];
	Obj3 -> Obj35 [label="HORIZONTAL"];
	Obj37 -> Obj8 [label="HORIZONTAL"];
	Obj47 -> Obj7 [label="HORIZONTAL"];
	Obj8 -> Obj45 [label="HORIZONTAL"];
	Obj41 -> Obj12 [label="HORIZONTAL"];
	Obj44 -> Obj21 [label="HORIZONTAL"];
	Obj23 -> Obj3 [label="HORIZONTAL"];
	Obj33 -> Obj0 [label="HORIZONTAL"];
	Obj21 -> Obj46 [label="HORIZONTAL"];
	Obj38 -> Obj43 [label="HORIZONTAL"];
	Obj30 -> Obj6 [label="HORIZONTAL"];
	Obj36 -> Obj32 [label="HORIZONTAL"];
	Obj12 -> Obj48 [label="UNDER"];
	Obj16 -> Obj10 [label="HORIZONTAL"];
	Obj22 -> Obj38 [label="UNDER"];
	Obj2 -> Obj27 [label="UNDER"];
	Obj2 -> Obj47 [label="UPPER"];
	Obj45 -> Obj17 [label="HORIZONTAL"];
	Obj1 -> Obj11 [label="HORIZONTAL"];
	Obj10 -> Obj5 [label="RSUP"];
	Obj17 -> Obj23 [label="HORIZONTAL"];
	Obj16 -> Obj4 [label="RSUB"];
	Obj33 -> Obj39 [label="UNDER"];
	Obj21 -> Obj24 [label="RSUP"];
	Obj9 -> Obj42 [label="RSUB"];
	Obj41 -> Obj25 [label="UNDER"];
	Obj14 -> Obj20 [label="RSUP"];
	Obj32 -> Obj1 [label="HORIZONTAL"];
	Obj7 -> Obj40 [label="HORIZONTAL"];
	Obj12 -> Obj16 [label="HORIZONTAL"];
	Obj2 -> Obj33 [label="HORIZONTAL"];
	Obj31 -> Obj37 [label="HORIZONTAL"];
	Obj0 -> Obj34 [label="HORIZONTAL"];
	Obj29 -> Obj22 [label="HORIZONTAL"];
	Obj46 -> Obj28 [label="HORIZONTAL"];
	Obj10 -> Obj31 [label="HORIZONTAL"];
	Obj41 -> Obj29 [label="UPPER"];
	Obj17 -> Obj18 [label="RSUB"];
	Obj21 -> Obj15 [label="RSUB"];
	
}
