digraph dag {
	rankdir=LR; ranksep=1.0;
	edge[fontsize=13,weight=1]; node[fontsize=13,shape=box]; graph[ordering=out];

	/* NODES (OBJECTS) */
	Obj0 [label="BigLeftPar\nObj0\n24", color = blue];
	Obj1 [label="comma\nObj1\n25", color = blue];
	Obj10 [label="u\nObj10\n1", color = blue];
	Obj11 [label="u\nObj11\n0", color = blue];
	Obj12 [label="one\nObj12\n3", color = blue];
	Obj13 [label="u\nObj13\n2", color = blue];
	Obj14 [label="equal\nObj14\n4 5", color = blue];
	Obj15 [label="G\nObj15\n7", color = blue];
	Obj16 [label="u\nObj16\n6", color = blue];
	Obj17 [label="equal\nObj17\n8 9", color = blue];
	Obj18 [label="ast\nObj18\n11", color = blue];
	Obj19 [label="one\nObj19\n10", color = blue];
	Obj2 [label="in\nObj2\n26", color = blue];
	Obj20 [label="BigRightPar\nObj20\n13", color = blue];
	Obj21 [label="u\nObj21\n12", color = blue];
	Obj22 [label="three\nObj22\n15", color = blue];
	Obj23 [label="LeftPar\nObj23\n14", color = blue];
	Obj24 [label="three\nObj24\n17", color = blue];
	Obj25 [label="u\nObj25\n16", color = blue];
	Obj26 [label="u\nObj26\n19", color = blue];
	Obj27 [label="B\nObj27\n32", color = blue];
	Obj28 [label="three\nObj28\n31", color = blue];
	Obj29 [label="ast\nObj29\n30", color = blue];
	Obj3 [label="comma\nObj3\n27", color = blue];
	Obj30 [label="two\nObj30\n18", color = blue];
	Obj4 [label="RightPar\nObj4\n20", color = blue];
	Obj5 [label="comma\nObj5\n21", color = blue];
	Obj6 [label="C\nObj6\n22", color = blue];
	Obj7 [label="three\nObj7\n23", color = blue];
	Obj8 [label="comma\nObj8\n28", color = blue];
	Obj9 [label="two\nObj9\n29", color = blue];
	
	/* EDGES (OBJECT RELATIONSHIPS)    */
	Obj13 -> Obj1 [label="UNDER\n(_)\n",color=red,fontcolor=red,penwidth=3];
	Obj7 -> Obj8 [label="UNDER\n(_)\n",color=red,fontcolor=red,penwidth=3];
	Obj30 -> Obj3 [label="UNDER\n(_)\n",color=red,fontcolor=red,penwidth=3];
	Obj28 -> Obj5 [label="UNDER\n(_)\n",color=red,fontcolor=red,penwidth=3];
	Obj14 -> Obj15 [label="HORIZONTAL"];
	Obj6 -> Obj0 [label="HORIZONTAL"];
	Obj11 -> Obj26 [label="HORIZONTAL"];
	Obj10 -> Obj7 [label="RSUB"];
	Obj25 -> Obj24 [label="RSUB"];
	Obj15 -> Obj23 [label="HORIZONTAL"];
	Obj21 -> Obj4 [label="HORIZONTAL"];
	Obj20 -> Obj17 [label="HORIZONTAL"];
	Obj0 -> Obj11 [label="HORIZONTAL"];
	Obj13 -> Obj21 [label="HORIZONTAL"];
	Obj15 -> Obj22 [label="RSUB"];
	Obj11 -> Obj12 [label="RSUB"];
	Obj26 -> Obj10 [label="HORIZONTAL"];
	Obj4 -> Obj2 [label="HORIZONTAL"];
	Obj17 -> Obj27 [label="HORIZONTAL"];
	Obj10 -> Obj29 [label="RSUP"];
	Obj21 -> Obj18 [label="RSUP"];
	Obj13 -> Obj9 [label="RSUB"];
	Obj16 -> Obj13 [label="HORIZONTAL"];
	Obj2 -> Obj6 [label="HORIZONTAL"];
	Obj21 -> Obj28 [label="RSUB"];
	Obj26 -> Obj30 [label="RSUB"];
	Obj16 -> Obj19 [label="RSUB"];
	Obj23 -> Obj16 [label="HORIZONTAL"];
	Obj10 -> Obj20 [label="HORIZONTAL"];
	Obj25 -> Obj14 [label="HORIZONTAL"];
	
}
