digraph dag {
	rankdir=LR; ranksep=1.0;
	edge[fontsize=13,weight=1]; node[fontsize=13,shape=box]; graph[ordering=out];

	/* NODES (OBJECTS) */
	Obj0 [label="one\nObj0\n1", color = blue];
	Obj1 [label="comma\nObj1\n0", color = blue];
	Obj2 [label="a\nObj2\n3", color = blue];
	Obj3 [label="comma\nObj3\n2", color = blue];
	Obj4 [label="a\nObj4\n5", color = blue];
	Obj5 [label="three\nObj5\n4", color = blue];
	Obj6 [label="a\nObj6\n7", color = blue];
	Obj7 [label="two\nObj7\n6", color = blue];
	
	/* EDGES (OBJECT RELATIONSHIPS)    */
	Obj7 -> Obj3 [label="PUNC\n(_)\n",color=red,fontcolor=red,penwidth=3];
	Obj6 -> Obj1 [label="UNDER\n(_)\n",color=red,fontcolor=red,penwidth=3];
	Obj4 -> Obj5 [label="RSUB"];
	Obj6 -> Obj7 [label="RSUB"];
	Obj2 -> Obj0 [label="RSUB"];
	Obj6 -> Obj4 [label="HORIZONTAL"];
	Obj2 -> Obj6 [label="HORIZONTAL"];
	
}
