digraph dag {
	rankdir=LR; ranksep=1.0;
	edge[fontsize=13,weight=1]; node[fontsize=13,shape=box]; graph[ordering=out];

	/* NODES (OBJECTS) */
	Obj0 [label="three\nObj0\n11", color = blue];
	Obj1 [label="two\nObj1\n10", color = blue];
	Obj2 [label="comma\nObj2\n12", color = blue];
	Obj3 [label="i\nObj3\n0 1", color = blue];
	Obj4 [label="z\nObj4\n3", color = blue];
	Obj5 [label="comma\nObj5\n2", color = blue];
	Obj6 [label="equal\nObj6\n4 5", color = blue];
	Obj7 [label="comma\nObj7\n7", color = blue];
	Obj8 [label="one\nObj8\n6", color = blue];
	Obj9 [label="i\nObj9\n8 9", color = blue];
	
	/* EDGES (OBJECT RELATIONSHIPS)    */
	Obj3 -> Obj2 [label="RSUB\n(_)\n",color=red,fontcolor=red,penwidth=3];
	Obj1 -> Obj0 [label="HORIZONTAL"];
	Obj8 -> Obj1 [label="HORIZONTAL"];
	Obj8 -> Obj5 [label="PUNC"];
	Obj1 -> Obj7 [label="PUNC"];
	Obj9 -> Obj6 [label="HORIZONTAL"];
	Obj4 -> Obj3 [label="RSUB"];
	Obj4 -> Obj9 [label="HORIZONTAL"];
	Obj6 -> Obj8 [label="HORIZONTAL"];
	
}
