digraph dag {
	rankdir=LR; ranksep=1.0;
	edge[fontsize=13,weight=1]; node[fontsize=13,shape=box]; graph[ordering=out];

	/* NODES (OBJECTS) */
	Obj0 [label="subset\nObj0\n1", color = blue];
	Obj1 [label="Delta\nObj1\n0", color = blue];
	Obj2 [label="circ\nObj2\n3", color = blue];
	Obj3 [label="check\nObj3\n2", color = blue];
	Obj4 [label="i\nObj4\n5 6", color = blue];
	Obj5 [label="one\nObj5\n4", color = blue];
	Obj6 [label="mu\nObj6\n7", color = blue];
	
	/* EDGES (OBJECT RELATIONSHIPS)    */
	Obj3 -> Obj2 [label="HORIZONTAL\n(_)\n",color=red,fontcolor=red,penwidth=3];
	Obj6 -> Obj0 [label="HORIZONTAL"];
	Obj6 -> Obj4 [label="RSUB"];
	Obj1 -> Obj5 [label="RSUB"];
	Obj0 -> Obj1 [label="HORIZONTAL"];
	Obj6 -> Obj3 [label="UPPER"];
	
}
