digraph dag {
	rankdir=LR; ranksep=1.0;
	edge[fontsize=13,weight=1]; node[fontsize=13,shape=box]; graph[ordering=out];

	/* NODES (OBJECTS) */
	Obj0 [label="ast\nObj0\n1", color = blue];
	Obj1 [label="comma\nObj1\n0", color = blue];
	Obj2 [label="lambda\nObj2\n2 3 4", color = blue];
	Obj3 [label="lambda\nObj3\n5 6", color = blue];
	
	/* EDGES (OBJECT RELATIONSHIPS)    */
	Obj3 -> Obj0 [label="RSUP\n(HORIZONTAL)\n",color=red,fontcolor=red,penwidth=3];
	Obj2 -> Obj1 [label="PUNC"];
	Obj2 -> Obj3 [label="HORIZONTAL"];
	
}
