digraph dag {
	rankdir=LR; ranksep=1.0;
	edge[fontsize=13,weight=1]; node[fontsize=13,shape=box]; graph[ordering=out];

	/* NODES (OBJECTS) */
	Obj0 [label="t\nObj0\n30", color = blue];
	Obj1 [label="two\nObj1\n28", color = blue];
	Obj10 [label="psi\nObj10\n49", color = blue];
	Obj11 [label="plus\nObj11\n46", color = blue];
	Obj12 [label="fractionalLine\nObj12\n47", color = blue];
	Obj13 [label="m\nObj13\n44", color = blue];
	Obj14 [label="M\nObj14\n45", color = blue];
	Obj15 [label="l\nObj15\n42", color = blue];
	Obj16 [label="plus\nObj16\n29", color = blue];
	Obj17 [label="minus\nObj17\n40", color = blue];
	Obj18 [label="LeftPar\nObj18\n41", color = blue];
	Obj19 [label="t\nObj19\n1", color = blue];
	Obj2 [label="one\nObj2\n43", color = blue];
	Obj20 [label="RightPar\nObj20\n0", color = blue];
	Obj21 [label="one\nObj21\n3", color = blue];
	Obj22 [label="d\nObj22\n2", color = blue];
	Obj23 [label="one\nObj23\n5", color = blue];
	Obj24 [label="plus\nObj24\n4", color = blue];
	Obj25 [label="one\nObj25\n7", color = blue];
	Obj26 [label="plus\nObj26\n6", color = blue];
	Obj27 [label="plus\nObj27\n9", color = blue];
	Obj28 [label="d\nObj28\n8", color = blue];
	Obj29 [label="C\nObj29\n13", color = blue];
	Obj3 [label="LeftPar\nObj3\n32", color = blue];
	Obj30 [label="psi\nObj30\n38", color = blue];
	Obj31 [label="i\nObj31\n11 12", color = blue];
	Obj32 [label="m\nObj32\n10", color = blue];
	Obj33 [label="M\nObj33\n39", color = blue];
	Obj34 [label="RightPar\nObj34\n15", color = blue];
	Obj35 [label="int\nObj35\n14", color = blue];
	Obj36 [label="one\nObj36\n17", color = blue];
	Obj37 [label="RightPar\nObj37\n16", color = blue];
	Obj38 [label="V\nObj38\n33", color = blue];
	Obj39 [label="V\nObj39\n18", color = blue];
	Obj4 [label="p\nObj4\n24", color = blue];
	Obj40 [label="int\nObj40\n31", color = blue];
	Obj41 [label="p\nObj41\n23", color = blue];
	Obj42 [label="LeftPar\nObj42\n37", color = blue];
	Obj43 [label="i\nObj43\n35 36", color = blue];
	Obj44 [label="V\nObj44\n34", color = blue];
	Obj45 [label="l\nObj45\n48", color = blue];
	Obj46 [label="C\nObj46\n50", color = blue];
	Obj5 [label="one\nObj5\n25", color = blue];
	Obj6 [label="p\nObj6\n26", color = blue];
	Obj7 [label="m\nObj7\n27", color = blue];
	Obj8 [label="leqq\nObj8\n19 20 21", color = blue];
	Obj9 [label="l\nObj9\n22", color = blue];
	
	/* EDGES (OBJECT RELATIONSHIPS)    */
	Obj6 -> Obj15 [label="HORIZONTAL\n(RSUB)\n",color=red,fontcolor=red,penwidth=3];
	Obj45 -> Obj27 [label="HORIZONTAL\n(_)\n",color=red,fontcolor=red,penwidth=3];
	Obj7 -> Obj8 [label="HORIZONTAL\n(_)\n",color=red,fontcolor=red,penwidth=3];
	Obj22 -> Obj26 [label="LSUB\n(_)\n",color=red,fontcolor=red,penwidth=3];
	Obj20 -> Obj7 [label="HORIZONTAL\n(_)\n",color=red,fontcolor=red,penwidth=3];
	Obj44 -> Obj20 [label="HORIZONTAL"];
	Obj35 -> Obj14 [label="UNDER"];
	Obj17 -> Obj36 [label="HORIZONTAL"];
	Obj22 -> Obj44 [label="HORIZONTAL"];
	Obj46 -> Obj2 [label="RSUB"];
	Obj29 -> Obj34 [label="HORIZONTAL"];
	Obj20 -> Obj12 [label="RSUP"];
	Obj46 -> Obj3 [label="HORIZONTAL"];
	Obj40 -> Obj33 [label="UNDER"];
	Obj13 -> Obj4 [label="HORIZONTAL"];
	Obj8 -> Obj18 [label="HORIZONTAL"];
	Obj32 -> Obj17 [label="HORIZONTAL"];
	Obj40 -> Obj10 [label="HORIZONTAL"];
	Obj24 -> Obj29 [label="HORIZONTAL"];
	Obj38 -> Obj37 [label="HORIZONTAL"];
	Obj26 -> Obj23 [label="HORIZONTAL"];
	Obj3 -> Obj40 [label="HORIZONTAL"];
	Obj34 -> Obj35 [label="HORIZONTAL"];
	Obj12 -> Obj32 [label="UPPER"];
	Obj10 -> Obj22 [label="HORIZONTAL"];
	Obj15 -> Obj16 [label="HORIZONTAL"];
	Obj29 -> Obj1 [label="RSUB"];
	Obj28 -> Obj39 [label="HORIZONTAL"];
	Obj42 -> Obj21 [label="HORIZONTAL"];
	Obj11 -> Obj38 [label="HORIZONTAL"];
	Obj27 -> Obj5 [label="HORIZONTAL"];
	Obj19 -> Obj43 [label="RSUB"];
	Obj4 -> Obj9 [label="RSUB"];
	Obj35 -> Obj30 [label="HORIZONTAL"];
	Obj41 -> Obj45 [label="RSUB"];
	Obj21 -> Obj11 [label="HORIZONTAL"];
	Obj39 -> Obj19 [label="RSUB"];
	Obj30 -> Obj28 [label="HORIZONTAL"];
	Obj16 -> Obj25 [label="HORIZONTAL"];
	Obj4 -> Obj42 [label="HORIZONTAL"];
	Obj10 -> Obj6 [label="RSUP"];
	Obj0 -> Obj31 [label="RSUB"];
	Obj37 -> Obj24 [label="HORIZONTAL"];
	Obj18 -> Obj13 [label="HORIZONTAL"];
	Obj30 -> Obj41 [label="RSUP"];
	Obj44 -> Obj0 [label="RSUB"];
	
}
