digraph dag {
	rankdir=LR; ranksep=1.0;
	edge[fontsize=13,weight=1]; node[fontsize=13,shape=box]; graph[ordering=out];

	/* NODES (OBJECTS) */
	Obj0 [label="two\nObj0\n24", color = blue];
	Obj1 [label="RightPar\nObj1\n25 26", color = blue];
	Obj10 [label="X\nObj10\n0", color = blue];
	Obj11 [label="LeftPar\nObj11\n3", color = blue];
	Obj12 [label="b\nObj12\n2", color = blue];
	Obj13 [label="equal\nObj13\n5 6", color = blue];
	Obj14 [label="minus\nObj14\n4", color = blue];
	Obj15 [label="Y\nObj15\n7", color = blue];
	Obj16 [label="equal\nObj16\n8 9", color = blue];
	Obj17 [label="fractionalLine\nObj17\n39", color = blue];
	Obj18 [label="minus\nObj18\n38", color = blue];
	Obj19 [label="Y\nObj19\n11", color = blue];
	Obj2 [label="plus\nObj2\n27", color = blue];
	Obj20 [label="LeftPar\nObj20\n10", color = blue];
	Obj21 [label="a\nObj21\n13", color = blue];
	Obj22 [label="d\nObj22\n12", color = blue];
	Obj23 [label="X\nObj23\n15", color = blue];
	Obj24 [label="LeftPar\nObj24\n14", color = blue];
	Obj25 [label="X\nObj25\n17", color = blue];
	Obj26 [label="fractionalLine\nObj26\n16", color = blue];
	Obj27 [label="two\nObj27\n19", color = blue];
	Obj28 [label="f\nObj28\n18", color = blue];
	Obj29 [label="X\nObj29\n31", color = blue];
	Obj3 [label="two\nObj3\n20", color = blue];
	Obj30 [label="two\nObj30\n30", color = blue];
	Obj31 [label="Y\nObj31\n37", color = blue];
	Obj32 [label="two\nObj32\n36", color = blue];
	Obj33 [label="Y\nObj33\n35", color = blue];
	Obj34 [label="Y\nObj34\n34", color = blue];
	Obj35 [label="RightPar\nObj35\n33", color = blue];
	Obj36 [label="comma\nObj36\n32", color = blue];
	Obj4 [label="X\nObj4\n21", color = blue];
	Obj5 [label="two\nObj5\n22", color = blue];
	Obj6 [label="hat\nObj6\n23", color = blue];
	Obj7 [label="RightPar\nObj7\n28", color = blue];
	Obj8 [label="xi\nObj8\n29", color = blue];
	Obj9 [label="minus\nObj9\n1", color = blue];
	
	/* EDGES (OBJECT RELATIONSHIPS)    */
	Obj21 -> Obj31 [label="HORIZONTAL\n(_)\n",color=red,fontcolor=red,penwidth=3];
	Obj17 -> Obj13 [label="HORIZONTAL"];
	Obj1 -> Obj18 [label="HORIZONTAL"];
	Obj14 -> Obj27 [label="HORIZONTAL"];
	Obj18 -> Obj10 [label="HORIZONTAL"];
	Obj16 -> Obj17 [label="HORIZONTAL"];
	Obj12 -> Obj2 [label="HORIZONTAL"];
	Obj13 -> Obj26 [label="HORIZONTAL"];
	Obj31 -> Obj30 [label="RSUP"];
	Obj24 -> Obj4 [label="HORIZONTAL"];
	Obj7 -> Obj0 [label="RSUP"];
	Obj3 -> Obj21 [label="HORIZONTAL"];
	Obj1 -> Obj22 [label="RSUP"];
	Obj34 -> Obj28 [label="HORIZONTAL"];
	Obj15 -> Obj35 [label="HORIZONTAL"];
	Obj26 -> Obj25 [label="UNDER"];
	Obj8 -> Obj16 [label="HORIZONTAL"];
	Obj2 -> Obj5 [label="HORIZONTAL"];
	Obj33 -> Obj1 [label="HORIZONTAL"];
	Obj22 -> Obj14 [label="HORIZONTAL"];
	Obj29 -> Obj36 [label="PUNC"];
	Obj17 -> Obj23 [label="UPPER"];
	Obj30 -> Obj12 [label="HORIZONTAL"];
	Obj20 -> Obj24 [label="HORIZONTAL"];
	Obj26 -> Obj20 [label="UPPER"];
	Obj28 -> Obj11 [label="HORIZONTAL"];
	Obj17 -> Obj19 [label="UNDER"];
	Obj8 -> Obj32 [label="RSUP"];
	Obj10 -> Obj34 [label="HORIZONTAL"];
	Obj25 -> Obj3 [label="RSUP"];
	Obj4 -> Obj9 [label="HORIZONTAL"];
	Obj9 -> Obj33 [label="HORIZONTAL"];
	Obj11 -> Obj29 [label="HORIZONTAL"];
	Obj35 -> Obj7 [label="HORIZONTAL"];
	Obj29 -> Obj15 [label="HORIZONTAL"];
	Obj28 -> Obj6 [label="UPPER"];
	
}
