digraph dag {
	rankdir=LR; ranksep=1.0;
	edge[fontsize=13,weight=1]; node[fontsize=13,shape=box]; graph[ordering=out];

	/* NODES (OBJECTS) */
	Obj0 [label="j\nObj0\n19 20", color = blue];
	Obj1 [label="less\nObj1\n21", color = blue];
	Obj10 [label="k\nObj10\n10", color = blue];
	Obj11 [label="equal\nObj11\n12 13", color = blue];
	Obj12 [label="one\nObj12\n15", color = blue];
	Obj13 [label="t\nObj13\n14", color = blue];
	Obj14 [label="less\nObj14\n17", color = blue];
	Obj15 [label="zero\nObj15\n16", color = blue];
	Obj16 [label="t\nObj16\n18", color = blue];
	Obj2 [label="t\nObj2\n1", color = blue];
	Obj3 [label="zero\nObj3\n0", color = blue];
	Obj4 [label="t\nObj4\n3", color = blue];
	Obj5 [label="comma\nObj5\n2", color = blue];
	Obj6 [label="equal\nObj6\n4 5", color = blue];
	Obj7 [label="cdots\nObj7\n6 7 8", color = blue];
	Obj8 [label="one\nObj8\n9", color = blue];
	Obj9 [label="less\nObj9\n11", color = blue];
	
	/* EDGES (OBJECT RELATIONSHIPS)    */
	Obj0 -> Obj5 [label="HORIZONTAL\n(_)\n",color=red,fontcolor=red,penwidth=3];
	Obj2 -> Obj11 [label="HORIZONTAL"];
	Obj4 -> Obj8 [label="RSUB"];
	Obj9 -> Obj2 [label="HORIZONTAL"];
	Obj2 -> Obj10 [label="RSUB"];
	Obj7 -> Obj9 [label="HORIZONTAL"];
	Obj6 -> Obj13 [label="HORIZONTAL"];
	Obj1 -> Obj7 [label="HORIZONTAL"];
	Obj11 -> Obj12 [label="HORIZONTAL"];
	Obj13 -> Obj14 [label="HORIZONTAL"];
	Obj16 -> Obj15 [label="HORIZONTAL"];
	Obj4 -> Obj1 [label="HORIZONTAL"];
	Obj15 -> Obj6 [label="HORIZONTAL"];
	Obj13 -> Obj3 [label="RSUB"];
	Obj14 -> Obj4 [label="HORIZONTAL"];
	Obj16 -> Obj0 [label="RSUB"];
	
}
