digraph dag {
	rankdir=LR; ranksep=1.0;
	edge[fontsize=13,weight=1]; node[fontsize=13,shape=box]; graph[ordering=out];

	/* NODES (OBJECTS) */
	Obj0 [label="notequal\nObj0\n1", color = blue];
	Obj1 [label="c\nObj1\n0", color = blue];
	Obj2 [label="i\nObj2\n3 4", color = blue];
	Obj3 [label="k\nObj3\n2", color = blue];
	Obj4 [label="zero\nObj4\n5", color = blue];
	Obj5 [label="j\nObj5\n6 7", color = blue];
	
	/* EDGES (OBJECT RELATIONSHIPS)    */
	Obj3 -> Obj0 [label="HORIZONTAL\n(_)\n",color=red,fontcolor=red,penwidth=3];
	Obj5 -> Obj3 [label="HORIZONTAL"];
	Obj1 -> Obj2 [label="RSUB"];
	Obj2 -> Obj5 [label="HORIZONTAL"];
	Obj0 -> Obj4 [label="HORIZONTAL"];
	
}
