digraph dag {
	rankdir=LR; ranksep=1.0;
	edge[fontsize=13,weight=1]; node[fontsize=13,shape=box]; graph[ordering=out];

	/* NODES (OBJECTS) */
	Obj0 [label="i\nObj0\n0 1", color = blue];
	Obj1 [label="a\nObj1\n2", color = blue];
	
	/* EDGES (OBJECT RELATIONSHIPS)    */
	Obj1 -> Obj0 [label="RSUB\n(HORIZONTAL)\n",color=red,fontcolor=red,penwidth=3];
	
}
