digraph dag {
	rankdir=LR; ranksep=1.0;
	edge[fontsize=13,weight=1]; node[fontsize=13,shape=box]; graph[ordering=out];

	/* NODES (OBJECTS) */
	Obj0 [label="w\nObj0\n24", color = blue];
	Obj1 [label="minus\nObj1\n25", color = blue];
	Obj10 [label="in\nObj10\n1", color = blue];
	Obj11 [label="LeftPar\nObj11\n0", color = blue];
	Obj12 [label="n\nObj12\n3", color = blue];
	Obj13 [label="n\nObj13\n2", color = blue];
	Obj14 [label="RightPar\nObj14\n5", color = blue];
	Obj15 [label="prime\nObj15\n4", color = blue];
	Obj16 [label="LeftPar\nObj16\n7", color = blue];
	Obj17 [label="a\nObj17\n6", color = blue];
	Obj18 [label="RightPar\nObj18\n9", color = blue];
	Obj19 [label="T\nObj19\n8", color = blue];
	Obj2 [label="LeftPar\nObj2\n26", color = blue];
	Obj20 [label="LeftPar\nObj20\n12", color = blue];
	Obj21 [label="b\nObj21\n11", color = blue];
	Obj22 [label="comma\nObj22\n10", color = blue];
	Obj23 [label="prime\nObj23\n13", color = blue];
	Obj24 [label="W\nObj24\n38", color = blue];
	Obj25 [label="RightPar\nObj25\n15", color = blue];
	Obj26 [label="p\nObj26\n14", color = blue];
	Obj27 [label="r\nObj27\n17", color = blue];
	Obj28 [label="w\nObj28\n16", color = blue];
	Obj29 [label="zero\nObj29\n33", color = blue];
	Obj3 [label="w\nObj3\n27", color = blue];
	Obj30 [label="f\nObj30\n32", color = blue];
	Obj31 [label="slash\nObj31\n31", color = blue];
	Obj32 [label="minus\nObj32\n30", color = blue];
	Obj33 [label="w\nObj33\n37", color = blue];
	Obj34 [label="p\nObj34\n36", color = blue];
	Obj35 [label="one\nObj35\n35", color = blue];
	Obj36 [label="y\nObj36\n34", color = blue];
	Obj37 [label="v\nObj37\n19", color = blue];
	Obj38 [label="one\nObj38\n18", color = blue];
	Obj4 [label="u\nObj4\n20", color = blue];
	Obj5 [label="prod\nObj5\n21", color = blue];
	Obj6 [label="notequal\nObj6\n22", color = blue];
	Obj7 [label="sum\nObj7\n23", color = blue];
	Obj8 [label="minus\nObj8\n28", color = blue];
	Obj9 [label="RightPar\nObj9\n29", color = blue];
	
	/* EDGES (OBJECT RELATIONSHIPS)    */
	Obj13 -> Obj1 [label="HORIZONTAL\n(_)\n",color=red,fontcolor=red,penwidth=3];
	Obj27 -> Obj7 [label="HORIZONTAL\n(_)\n",color=red,fontcolor=red,penwidth=3];
	Obj2 -> Obj11 [label="HORIZONTAL"];
	Obj7 -> Obj5 [label="HORIZONTAL"];
	Obj33 -> Obj30 [label="HORIZONTAL"];
	Obj36 -> Obj34 [label="RSUP"];
	Obj0 -> Obj10 [label="HORIZONTAL"];
	Obj9 -> Obj36 [label="HORIZONTAL"];
	Obj37 -> Obj20 [label="RSUP"];
	Obj36 -> Obj14 [label="HORIZONTAL"];
	Obj5 -> Obj3 [label="UNDER"];
	Obj26 -> Obj13 [label="RSUP"];
	Obj6 -> Obj28 [label="HORIZONTAL"];
	Obj4 -> Obj25 [label="HORIZONTAL"];
	Obj21 -> Obj22 [label="PUNC"];
	Obj18 -> Obj31 [label="HORIZONTAL"];
	Obj7 -> Obj0 [label="UNDER"];
	Obj38 -> Obj9 [label="HORIZONTAL"];
	Obj5 -> Obj2 [label="HORIZONTAL"];
	Obj34 -> Obj12 [label="RSUP"];
	Obj3 -> Obj15 [label="RSUP"];
	Obj11 -> Obj8 [label="HORIZONTAL"];
	Obj3 -> Obj6 [label="HORIZONTAL"];
	Obj32 -> Obj33 [label="HORIZONTAL"];
	Obj33 -> Obj23 [label="RSUP"];
	Obj21 -> Obj38 [label="HORIZONTAL"];
	Obj19 -> Obj37 [label="HORIZONTAL"];
	Obj17 -> Obj19 [label="HORIZONTAL"];
	Obj1 -> Obj35 [label="HORIZONTAL"];
	Obj35 -> Obj18 [label="HORIZONTAL"];
	Obj16 -> Obj21 [label="HORIZONTAL"];
	Obj31 -> Obj27 [label="HORIZONTAL"];
	Obj25 -> Obj32 [label="HORIZONTAL"];
	Obj10 -> Obj24 [label="HORIZONTAL"];
	Obj17 -> Obj29 [label="RSUB"];
	Obj20 -> Obj26 [label="HORIZONTAL"];
	Obj8 -> Obj4 [label="HORIZONTAL"];
	Obj30 -> Obj16 [label="HORIZONTAL"];
	
}
