digraph dag {
	rankdir=LR; ranksep=1.0;
	edge[fontsize=13,weight=1]; node[fontsize=13,shape=box]; graph[ordering=out];

	/* NODES (OBJECTS) */
	Obj0 [label="RightPar\nObj0\n20", color = blue];
	Obj1 [label="equal\nObj1\n21 22", color = blue];
	Obj10 [label="P\nObj10\n10", color = blue];
	Obj11 [label="x\nObj11\n13", color = blue];
	Obj12 [label="one\nObj12\n15", color = blue];
	Obj13 [label="two\nObj13\n14", color = blue];
	Obj14 [label="equal\nObj14\n17 18", color = blue];
	Obj15 [label="RightPar\nObj15\n16", color = blue];
	Obj16 [label="y\nObj16\n19", color = blue];
	Obj2 [label="j\nObj2\n1 2", color = blue];
	Obj3 [label="comma\nObj3\n0", color = blue];
	Obj4 [label="comma\nObj4\n3", color = blue];
	Obj5 [label="LeftPar\nObj5\n5", color = blue];
	Obj6 [label="LeftPar\nObj6\n4", color = blue];
	Obj7 [label="j\nObj7\n6 7", color = blue];
	Obj8 [label="i\nObj8\n8 9", color = blue];
	Obj9 [label="j\nObj9\n11 12", color = blue];
	
	/* EDGES (OBJECT RELATIONSHIPS)    */
	Obj9 -> Obj4 [label="RSUB\n(_)\n",color=red,fontcolor=red,penwidth=3];
	Obj16 -> Obj15 [label="HORIZONTAL"];
	Obj12 -> Obj13 [label="HORIZONTAL"];
	Obj11 -> Obj9 [label="RSUB"];
	Obj5 -> Obj8 [label="HORIZONTAL"];
	Obj13 -> Obj0 [label="HORIZONTAL"];
	Obj6 -> Obj11 [label="HORIZONTAL"];
	Obj10 -> Obj7 [label="RSUB"];
	Obj1 -> Obj6 [label="HORIZONTAL"];
	Obj8 -> Obj14 [label="HORIZONTAL"];
	Obj10 -> Obj1 [label="HORIZONTAL"];
	Obj15 -> Obj5 [label="HORIZONTAL"];
	Obj16 -> Obj2 [label="RSUB"];
	Obj12 -> Obj3 [label="PUNC"];
	Obj11 -> Obj16 [label="HORIZONTAL"];
	Obj14 -> Obj12 [label="HORIZONTAL"];
	
}
