digraph dag {
	rankdir=LR; ranksep=1.0;
	edge[fontsize=13,weight=1]; node[fontsize=13,shape=box]; graph[ordering=out];

	/* NODES (OBJECTS) */
	Obj0 [label="plus\nObj0\n30", color = blue];
	Obj1 [label="beta\nObj1\n54", color = blue];
	Obj10 [label="four\nObj10\n35", color = blue];
	Obj11 [label="epsilon\nObj11\n66", color = blue];
	Obj12 [label="minus\nObj12\n67", color = blue];
	Obj13 [label="minus\nObj13\n68", color = blue];
	Obj14 [label="LeftPar\nObj14\n69", color = blue];
	Obj15 [label="fractionalLine\nObj15\n34", color = blue];
	Obj16 [label="minus\nObj16\n23", color = blue];
	Obj17 [label="RightPar\nObj17\n24", color = blue];
	Obj18 [label="LeftPar\nObj18\n25", color = blue];
	Obj19 [label="beta\nObj19\n26", color = blue];
	Obj2 [label="minus\nObj2\n28", color = blue];
	Obj20 [label="one\nObj20\n27", color = blue];
	Obj21 [label="R\nObj21\n20", color = blue];
	Obj22 [label="four\nObj22\n21", color = blue];
	Obj23 [label="RightPar\nObj23\n48", color = blue];
	Obj24 [label="zero\nObj24\n49", color = blue];
	Obj25 [label="e\nObj25\n46", color = blue];
	Obj26 [label="vert\nObj26\n47", color = blue];
	Obj27 [label="z\nObj27\n44", color = blue];
	Obj28 [label="vert\nObj28\n45", color = blue];
	Obj29 [label="int\nObj29\n42", color = blue];
	Obj3 [label="psi\nObj3\n22", color = blue];
	Obj30 [label="RightPar\nObj30\n43", color = blue];
	Obj31 [label="vert\nObj31\n40", color = blue];
	Obj32 [label="vert\nObj32\n41", color = blue];
	Obj33 [label="mu\nObj33\n1", color = blue];
	Obj34 [label="R\nObj34\n0", color = blue];
	Obj35 [label="leqq\nObj35\n2 3 4", color = blue];
	Obj36 [label="z\nObj36\n5", color = blue];
	Obj37 [label="vert\nObj37\n7", color = blue];
	Obj38 [label="RightPar\nObj38\n6", color = blue];
	Obj39 [label="x\nObj39\n9", color = blue];
	Obj4 [label="m\nObj4\n29", color = blue];
	Obj40 [label="overline\nObj40\n8", color = blue];
	Obj41 [label="R\nObj41\n65", color = blue];
	Obj42 [label="leqq\nObj42\n12 13 14", color = blue];
	Obj43 [label="vert\nObj43\n77", color = blue];
	Obj44 [label="pi\nObj44\n76", color = blue];
	Obj45 [label="z\nObj45\n75", color = blue];
	Obj46 [label="z\nObj46\n38", color = blue];
	Obj47 [label="fractionalLine\nObj47\n73", color = blue];
	Obj48 [label="minus\nObj48\n72", color = blue];
	Obj49 [label="d\nObj49\n71", color = blue];
	Obj5 [label="fractionalLine\nObj5\n60", color = blue];
	Obj50 [label="vert\nObj50\n70", color = blue];
	Obj51 [label="e\nObj51\n59", color = blue];
	Obj52 [label="zeta\nObj52\n79", color = blue];
	Obj53 [label="LeftPar\nObj53\n78", color = blue];
	Obj54 [label="LeftPar\nObj54\n11", color = blue];
	Obj55 [label="minus\nObj55\n10", color = blue];
	Obj56 [label="fractionalLine\nObj56\n39", color = blue];
	Obj57 [label="delta\nObj57\n15", color = blue];
	Obj58 [label="z\nObj58\n58", color = blue];
	Obj59 [label="psi\nObj59\n16", color = blue];
	Obj6 [label="vert\nObj6\n61", color = blue];
	Obj60 [label="leqq\nObj60\n31 32 33", color = blue];
	Obj61 [label="a\nObj61\n56 57", color = blue];
	Obj62 [label="minus\nObj62\n51", color = blue];
	Obj63 [label="zeta\nObj63\n36", color = blue];
	Obj64 [label="RightPar\nObj64\n53", color = blue];
	Obj65 [label="z\nObj65\n52", color = blue];
	Obj66 [label="r\nObj66\n19", color = blue];
	Obj67 [label="r\nObj67\n55", color = blue];
	Obj68 [label="pi\nObj68\n74", color = blue];
	Obj69 [label="z\nObj69\n37", color = blue];
	Obj7 [label="LeftPar\nObj7\n62", color = blue];
	Obj70 [label="less\nObj70\n18", color = blue];
	Obj71 [label="r\nObj71\n17", color = blue];
	Obj72 [label="d\nObj72\n50", color = blue];
	Obj8 [label="int\nObj8\n63", color = blue];
	Obj9 [label="delta\nObj9\n64", color = blue];
	
	/* EDGES (OBJECT RELATIONSHIPS)    */
	Obj38 -> Obj4 [label="HORIZONTAL\n(_)\n",color=red,fontcolor=red,penwidth=3];
	Obj34 -> Obj31 [label="HORIZONTAL\n(_)\n",color=red,fontcolor=red,penwidth=3];
	Obj1 -> Obj49 [label="HORIZONTAL\n(_)\n",color=red,fontcolor=red,penwidth=3];
	Obj55 -> Obj33 [label="HORIZONTAL"];
	Obj21 -> Obj12 [label="HORIZONTAL"];
	Obj64 -> Obj59 [label="HORIZONTAL"];
	Obj57 -> Obj64 [label="HORIZONTAL"];
	Obj17 -> Obj3 [label="HORIZONTAL"];
	Obj50 -> Obj35 [label="HORIZONTAL"];
	Obj60 -> Obj34 [label="HORIZONTAL"];
	Obj7 -> Obj20 [label="HORIZONTAL"];
	Obj72 -> Obj58 [label="HORIZONTAL"];
	Obj30 -> Obj18 [label="HORIZONTAL"];
	Obj4 -> Obj37 [label="UNDER"];
	Obj8 -> Obj25 [label="HORIZONTAL"];
	Obj32 -> Obj60 [label="HORIZONTAL"];
	Obj26 -> Obj47 [label="HORIZONTAL"];
	Obj54 -> Obj24 [label="HORIZONTAL"];
	Obj45 -> Obj16 [label="HORIZONTAL"];
	Obj0 -> Obj11 [label="HORIZONTAL"];
	Obj18 -> Obj15 [label="HORIZONTAL"];
	Obj24 -> Obj38 [label="HORIZONTAL"];
	Obj22 -> Obj44 [label="HORIZONTAL"];
	Obj5 -> Obj48 [label="HORIZONTAL"];
	Obj9 -> Obj17 [label="HORIZONTAL"];
	Obj36 -> Obj28 [label="HORIZONTAL"];
	Obj37 -> Obj63 [label="HORIZONTAL"];
	Obj49 -> Obj65 [label="HORIZONTAL"];
	Obj61 -> Obj39 [label="HORIZONTAL"];
	Obj56 -> Obj41 [label="UNDER"];
	Obj14 -> Obj5 [label="HORIZONTAL"];
	Obj31 -> Obj46 [label="HORIZONTAL"];
	Obj25 -> Obj2 [label="RSUP"];
	Obj20 -> Obj0 [label="HORIZONTAL"];
	Obj47 -> Obj45 [label="UPPER"];
	Obj10 -> Obj68 [label="HORIZONTAL"];
	Obj15 -> Obj19 [label="UNDER"];
	Obj8 -> Obj43 [label="UNDER"];
	Obj52 -> Obj40 [label="UPPER"];
	Obj42 -> Obj51 [label="HORIZONTAL"];
	Obj47 -> Obj21 [label="UNDER"];
	Obj16 -> Obj66 [label="HORIZONTAL"];
	Obj12 -> Obj56 [label="HORIZONTAL"];
	Obj15 -> Obj10 [label="UPPER"];
	Obj28 -> Obj70 [label="HORIZONTAL"];
	Obj46 -> Obj50 [label="HORIZONTAL"];
	Obj6 -> Obj72 [label="HORIZONTAL"];
	Obj39 -> Obj29 [label="HORIZONTAL"];
	Obj62 -> Obj57 [label="HORIZONTAL"];
	Obj29 -> Obj26 [label="HORIZONTAL"];
	Obj4 -> Obj61 [label="HORIZONTAL"];
	Obj5 -> Obj1 [label="UNDER"];
	Obj13 -> Obj7 [label="HORIZONTAL"];
	Obj59 -> Obj54 [label="HORIZONTAL"];
	Obj15 -> Obj62 [label="HORIZONTAL"];
	Obj11 -> Obj30 [label="HORIZONTAL"];
	Obj47 -> Obj6 [label="HORIZONTAL"];
	Obj43 -> Obj36 [label="HORIZONTAL"];
	Obj70 -> Obj71 [label="HORIZONTAL"];
	Obj63 -> Obj32 [label="HORIZONTAL"];
	Obj48 -> Obj9 [label="HORIZONTAL"];
	Obj69 -> Obj23 [label="HORIZONTAL"];
	Obj51 -> Obj13 [label="RSUP"];
	Obj3 -> Obj53 [label="HORIZONTAL"];
	Obj6 -> Obj55 [label="RSUP"];
	Obj53 -> Obj69 [label="HORIZONTAL"];
	Obj65 -> Obj42 [label="HORIZONTAL"];
	Obj56 -> Obj27 [label="UPPER"];
	Obj5 -> Obj22 [label="UPPER"];
	Obj35 -> Obj67 [label="HORIZONTAL"];
	Obj27 -> Obj52 [label="HORIZONTAL"];
	Obj2 -> Obj14 [label="HORIZONTAL"];
	
}
