digraph dag {
	rankdir=LR; ranksep=1.0;
	edge[fontsize=13,weight=1]; node[fontsize=13,shape=box]; graph[ordering=out];

	/* NODES (OBJECTS) */
	Obj0 [label="k\nObj0\n11", color = blue];
	Obj1 [label="simeq\nObj1\n10 9", color = blue];
	Obj10 [label="one\nObj10\n4", color = blue];
	Obj11 [label="BigLeftPar\nObj11\n7", color = blue];
	Obj12 [label="BigRightPar\nObj12\n6", color = blue];
	Obj13 [label="B\nObj13\n8", color = blue];
	Obj2 [label="slash\nObj2\n13", color = blue];
	Obj3 [label="slash\nObj3\n12", color = blue];
	Obj4 [label="B\nObj4\n14", color = blue];
	Obj5 [label="BigRightPar\nObj5\n1", color = blue];
	Obj6 [label="BigLeftPar\nObj6\n0", color = blue];
	Obj7 [label="f\nObj7\n3", color = blue];
	Obj8 [label="f\nObj8\n2", color = blue];
	Obj9 [label="x\nObj9\n5", color = blue];
	
	/* EDGES (OBJECT RELATIONSHIPS)    */
	Obj8 -> Obj1 [label="HORIZONTAL\n(_)\n",color=red,fontcolor=red,penwidth=3];
	Obj1 -> Obj13 [label="LSUB\n(_)\n",color=red,fontcolor=red,penwidth=3];
	Obj1 -> Obj0 [label="HORIZONTAL"];
	Obj0 -> Obj11 [label="HORIZONTAL"];
	Obj11 -> Obj9 [label="HORIZONTAL"];
	Obj7 -> Obj6 [label="RSUP"];
	Obj3 -> Obj8 [label="HORIZONTAL"];
	Obj6 -> Obj10 [label="HORIZONTAL"];
	Obj10 -> Obj5 [label="HORIZONTAL"];
	Obj2 -> Obj7 [label="HORIZONTAL"];
	Obj9 -> Obj12 [label="HORIZONTAL"];
	Obj4 -> Obj3 [label="HORIZONTAL"];
	Obj12 -> Obj2 [label="HORIZONTAL"];
	
}
