digraph dag {
	rankdir=LR; ranksep=1.0;
	edge[fontsize=13,weight=1]; node[fontsize=13,shape=box]; graph[ordering=out];

	/* NODES (OBJECTS) */
	Obj0 [label="one\nObj0\n42", color = blue];
	Obj1 [label="minus\nObj1\n29", color = blue];
	Obj10 [label="two\nObj10\n45", color = blue];
	Obj11 [label="m\nObj11\n28", color = blue];
	Obj12 [label="fractionalLine\nObj12\n43", color = blue];
	Obj13 [label="plus\nObj13\n40", color = blue];
	Obj14 [label="k\nObj14\n41", color = blue];
	Obj15 [label="m\nObj15\n1", color = blue];
	Obj16 [label="V\nObj16\n0", color = blue];
	Obj17 [label="one\nObj17\n3", color = blue];
	Obj18 [label="zero\nObj18\n2", color = blue];
	Obj19 [label="omega\nObj19\n5", color = blue];
	Obj2 [label="k\nObj2\n24", color = blue];
	Obj20 [label="one\nObj20\n4", color = blue];
	Obj21 [label="wedge\nObj21\n7", color = blue];
	Obj22 [label="sqrt\nObj22\n6", color = blue];
	Obj23 [label="phi\nObj23\n9", color = blue];
	Obj24 [label="omega\nObj24\n8", color = blue];
	Obj25 [label="Reject2\nObj25\n13", color = blue];
	Obj26 [label="RightPar\nObj26\n12", color = blue];
	Obj27 [label="sum\nObj27\n11", color = blue];
	Obj28 [label="minus\nObj28\n10", color = blue];
	Obj29 [label="fractionalLine\nObj29\n39", color = blue];
	Obj3 [label="wedge\nObj3\n25", color = blue];
	Obj30 [label="zero\nObj30\n38", color = blue];
	Obj31 [label="m\nObj31\n15", color = blue];
	Obj32 [label="wedge\nObj32\n14", color = blue];
	Obj33 [label="dot\nObj33\n17", color = blue];
	Obj34 [label="m\nObj34\n16", color = blue];
	Obj35 [label="one\nObj35\n18", color = blue];
	Obj36 [label="M\nObj36\n31", color = blue];
	Obj37 [label="phi\nObj37\n30", color = blue];
	Obj38 [label="k\nObj38\n37", color = blue];
	Obj39 [label="k\nObj39\n36", color = blue];
	Obj4 [label="equal\nObj4\n26 27", color = blue];
	Obj40 [label="BigLeftPar\nObj40\n35", color = blue];
	Obj41 [label="plus\nObj41\n34", color = blue];
	Obj42 [label="int\nObj42\n33", color = blue];
	Obj43 [label="one\nObj43\n32", color = blue];
	Obj5 [label="equal\nObj5\n19 20", color = blue];
	Obj6 [label="minus\nObj6\n21", color = blue];
	Obj7 [label="partial\nObj7\n22", color = blue];
	Obj8 [label="minus\nObj8\n23", color = blue];
	Obj9 [label="LeftPar\nObj9\n44", color = blue];
	
	/* EDGES (OBJECT RELATIONSHIPS)    */
	Obj43 -> Obj26 [label="HORIZONTAL\n(_)\n",color=red,fontcolor=red,penwidth=3];
	Obj29 -> Obj39 [label="UPPER"];
	Obj24 -> Obj32 [label="HORIZONTAL"];
	Obj13 -> Obj20 [label="HORIZONTAL"];
	Obj42 -> Obj36 [label="UNDER"];
	Obj12 -> Obj9 [label="UPPER"];
	Obj39 -> Obj13 [label="HORIZONTAL"];
	Obj5 -> Obj12 [label="HORIZONTAL"];
	Obj29 -> Obj24 [label="HORIZONTAL"];
	Obj31 -> Obj6 [label="HORIZONTAL"];
	Obj37 -> Obj3 [label="HORIZONTAL"];
	Obj12 -> Obj40 [label="HORIZONTAL"];
	Obj40 -> Obj10 [label="HORIZONTAL"];
	Obj24 -> Obj31 [label="RSUP"];
	Obj4 -> Obj18 [label="HORIZONTAL"];
	Obj7 -> Obj37 [label="HORIZONTAL"];
	Obj14 -> Obj28 [label="HORIZONTAL"];
	Obj10 -> Obj42 [label="HORIZONTAL"];
	Obj3 -> Obj25 [label="HORIZONTAL"];
	Obj25 -> Obj23 [label="HORIZONTAL"];
	Obj23 -> Obj33 [label="UPPER"];
	Obj27 -> Obj34 [label="UPPER"];
	Obj24 -> Obj30 [label="RSUB"];
	Obj1 -> Obj43 [label="HORIZONTAL"];
	Obj28 -> Obj0 [label="HORIZONTAL"];
	Obj19 -> Obj2 [label="RSUP"];
	Obj22 -> Obj1 [label="UNDER"];
	Obj8 -> Obj17 [label="HORIZONTAL"];
	Obj26 -> Obj11 [label="RSUP"];
	Obj9 -> Obj22 [label="HORIZONTAL"];
	Obj12 -> Obj16 [label="UNDER"];
	Obj27 -> Obj29 [label="HORIZONTAL"];
	Obj38 -> Obj4 [label="HORIZONTAL"];
	Obj27 -> Obj38 [label="UNDER"];
	Obj32 -> Obj19 [label="HORIZONTAL"];
	Obj15 -> Obj41 [label="HORIZONTAL"];
	Obj23 -> Obj21 [label="HORIZONTAL"];
	Obj29 -> Obj15 [label="UNDER"];
	Obj34 -> Obj8 [label="HORIZONTAL"];
	Obj21 -> Obj27 [label="HORIZONTAL"];
	Obj6 -> Obj14 [label="HORIZONTAL"];
	Obj41 -> Obj35 [label="HORIZONTAL"];
	Obj42 -> Obj7 [label="HORIZONTAL"];
	
}
