digraph dag {
	rankdir=LR; ranksep=1.0;
	edge[fontsize=13,weight=1]; node[fontsize=13,shape=box]; graph[ordering=out];

	/* NODES (OBJECTS) */
	Obj0 [label="zero\nObj0\n30", color = blue];
	Obj1 [label="phi\nObj1\n28", color = blue];
	Obj10 [label="LeftPar\nObj10\n21", color = blue];
	Obj11 [label="RightPar\nObj11\n48", color = blue];
	Obj12 [label="RightPar\nObj12\n23", color = blue];
	Obj13 [label="m\nObj13\n46", color = blue];
	Obj14 [label="LeftPar\nObj14\n47", color = blue];
	Obj15 [label="minus\nObj15\n44", color = blue];
	Obj16 [label="V\nObj16\n45", color = blue];
	Obj17 [label="s\nObj17\n42", color = blue];
	Obj18 [label="RightPar\nObj18\n43", color = blue];
	Obj19 [label="equal\nObj19\n39 40", color = blue];
	Obj2 [label="d\nObj2\n29", color = blue];
	Obj20 [label="t\nObj20\n41", color = blue];
	Obj21 [label="minus\nObj21\n1", color = blue];
	Obj22 [label="minus\nObj22\n0", color = blue];
	Obj23 [label="phi\nObj23\n3", color = blue];
	Obj24 [label="t\nObj24\n2", color = blue];
	Obj25 [label="J\nObj25\n5", color = blue];
	Obj26 [label="fractionalLine\nObj26\n4", color = blue];
	Obj27 [label="s\nObj27\n7", color = blue];
	Obj28 [label="LeftPar\nObj28\n6", color = blue];
	Obj29 [label="RightPar\nObj29\n9", color = blue];
	Obj3 [label="m\nObj3\n35", color = blue];
	Obj30 [label="I\nObj30\n8", color = blue];
	Obj31 [label="LeftPar\nObj31\n51", color = blue];
	Obj32 [label="sqrt\nObj32\n13", color = blue];
	Obj33 [label="t\nObj33\n38", color = blue];
	Obj34 [label="phi\nObj34\n14", color = blue];
	Obj35 [label="LeftPar\nObj35\n11", color = blue];
	Obj36 [label="LeftPar\nObj36\n10", color = blue];
	Obj37 [label="t\nObj37\n12", color = blue];
	Obj38 [label="omega\nObj38\n15", color = blue];
	Obj39 [label="t\nObj39\n22", color = blue];
	Obj4 [label="one\nObj4\n52", color = blue];
	Obj40 [label="int\nObj40\n17", color = blue];
	Obj41 [label="RightPar\nObj41\n16", color = blue];
	Obj42 [label="phi\nObj42\n33", color = blue];
	Obj43 [label="minus\nObj43\n32", color = blue];
	Obj44 [label="LeftPar\nObj44\n31", color = blue];
	Obj45 [label="RightPar\nObj45\n49", color = blue];
	Obj46 [label="LeftPar\nObj46\n37", color = blue];
	Obj47 [label="int\nObj47\n36", color = blue];
	Obj48 [label="I\nObj48\n53", color = blue];
	Obj49 [label="one\nObj49\n34", color = blue];
	Obj5 [label="J\nObj5\n24", color = blue];
	Obj50 [label="RightPar\nObj50\n19", color = blue];
	Obj51 [label="phi\nObj51\n18", color = blue];
	Obj52 [label="fractionalLine\nObj52\n50", color = blue];
	Obj6 [label="t\nObj6\n25", color = blue];
	Obj7 [label="RightPar\nObj7\n26", color = blue];
	Obj8 [label="minus\nObj8\n27", color = blue];
	Obj9 [label="s\nObj9\n20", color = blue];
	
	/* EDGES (OBJECT RELATIONSHIPS)    */
	Obj4 -> Obj12 [label="HORIZONTAL\n(_)\n",color=red,fontcolor=red,penwidth=3];
	Obj18 -> Obj45 [label="HORIZONTAL"];
	Obj52 -> Obj16 [label="UNDER"];
	Obj14 -> Obj48 [label="HORIZONTAL"];
	Obj22 -> Obj51 [label="HORIZONTAL"];
	Obj21 -> Obj4 [label="HORIZONTAL"];
	Obj36 -> Obj34 [label="HORIZONTAL"];
	Obj23 -> Obj7 [label="HORIZONTAL"];
	Obj1 -> Obj29 [label="HORIZONTAL"];
	Obj23 -> Obj27 [label="RSUB"];
	Obj26 -> Obj47 [label="HORIZONTAL"];
	Obj34 -> Obj18 [label="HORIZONTAL"];
	Obj5 -> Obj36 [label="HORIZONTAL"];
	Obj30 -> Obj35 [label="HORIZONTAL"];
	Obj51 -> Obj41 [label="HORIZONTAL"];
	Obj48 -> Obj44 [label="HORIZONTAL"];
	Obj47 -> Obj0 [label="UNDER"];
	Obj7 -> Obj43 [label="HORIZONTAL"];
	Obj2 -> Obj9 [label="HORIZONTAL"];
	Obj38 -> Obj13 [label="RSUP"];
	Obj19 -> Obj10 [label="HORIZONTAL"];
	Obj52 -> Obj31 [label="UPPER"];
	Obj43 -> Obj5 [label="HORIZONTAL"];
	Obj40 -> Obj28 [label="HORIZONTAL"];
	Obj11 -> Obj8 [label="HORIZONTAL"];
	Obj28 -> Obj22 [label="HORIZONTAL"];
	Obj47 -> Obj14 [label="HORIZONTAL"];
	Obj52 -> Obj40 [label="HORIZONTAL"];
	Obj34 -> Obj17 [label="RSUB"];
	Obj10 -> Obj30 [label="HORIZONTAL"];
	Obj1 -> Obj37 [label="RSUB"];
	Obj45 -> Obj2 [label="HORIZONTAL"];
	Obj32 -> Obj21 [label="UNDER"];
	Obj12 -> Obj3 [label="RSUP"];
	Obj31 -> Obj32 [label="HORIZONTAL"];
	Obj26 -> Obj39 [label="UNDER"];
	Obj15 -> Obj25 [label="HORIZONTAL"];
	Obj44 -> Obj23 [label="HORIZONTAL"];
	Obj25 -> Obj46 [label="HORIZONTAL"];
	Obj35 -> Obj1 [label="HORIZONTAL"];
	Obj42 -> Obj50 [label="HORIZONTAL"];
	Obj8 -> Obj26 [label="HORIZONTAL"];
	Obj47 -> Obj20 [label="UPPER"];
	Obj26 -> Obj49 [label="UPPER"];
	Obj29 -> Obj15 [label="HORIZONTAL"];
	Obj51 -> Obj6 [label="RSUB"];
	Obj41 -> Obj38 [label="HORIZONTAL"];
	Obj46 -> Obj42 [label="HORIZONTAL"];
	Obj38 -> Obj24 [label="RSUB"];
	Obj42 -> Obj33 [label="RSUB"];
	Obj38 -> Obj19 [label="HORIZONTAL"];
	Obj50 -> Obj11 [label="HORIZONTAL"];
	
}
