digraph dag {
	rankdir=LR; ranksep=1.0;
	edge[fontsize=13,weight=1]; node[fontsize=13,shape=box]; graph[ordering=out];

	/* NODES (OBJECTS) */
	Obj0 [label="BigRightPar\nObj0\n24", color = blue];
	Obj1 [label="g\nObj1\n25", color = blue];
	Obj10 [label="LeftPar\nObj10\n1", color = blue];
	Obj11 [label="delta\nObj11\n0", color = blue];
	Obj12 [label="plus\nObj12\n3", color = blue];
	Obj13 [label="k\nObj13\n2", color = blue];
	Obj14 [label="RightPar\nObj14\n5", color = blue];
	Obj15 [label="x\nObj15\n4", color = blue];
	Obj16 [label="fractionalLine\nObj16\n7", color = blue];
	Obj17 [label="sim\nObj17\n6", color = blue];
	Obj18 [label="minus\nObj18\n9", color = blue];
	Obj19 [label="x\nObj19\n8", color = blue];
	Obj2 [label="pi\nObj2\n26", color = blue];
	Obj20 [label="l\nObj20\n11", color = blue];
	Obj21 [label="k\nObj21\n10", color = blue];
	Obj22 [label="o\nObj22\n13", color = blue];
	Obj23 [label="RightPar\nObj23\n12", color = blue];
	Obj24 [label="alpha\nObj24\n15", color = blue];
	Obj25 [label="slash\nObj25\n14", color = blue];
	Obj26 [label="u\nObj26\n17", color = blue];
	Obj27 [label="LeftPar\nObj27\n16", color = blue];
	Obj28 [label="k\nObj28\n32", color = blue];
	Obj29 [label="n\nObj29\n31", color = blue];
	Obj3 [label="slash\nObj3\n27", color = blue];
	Obj30 [label="two\nObj30\n30", color = blue];
	Obj31 [label="BigLeftPar\nObj31\n36", color = blue];
	Obj32 [label="two\nObj32\n34 35", color = blue];
	Obj33 [label="RightPar\nObj33\n33", color = blue];
	Obj34 [label="one\nObj34\n18", color = blue];
	Obj4 [label="i\nObj4\n19 20", color = blue];
	Obj5 [label="s\nObj5\n21", color = blue];
	Obj6 [label="x\nObj6\n22", color = blue];
	Obj7 [label="LeftPar\nObj7\n23", color = blue];
	Obj8 [label="two\nObj8\n28", color = blue];
	Obj9 [label="k\nObj9\n29", color = blue];
	
	/* EDGES (OBJECT RELATIONSHIPS)    */
	Obj32 -> Obj5 [label="HORIZONTAL\n(_)\n",color=red,fontcolor=red,penwidth=3];
	Obj14 -> Obj16 [label="RSUP"];
	Obj31 -> Obj9 [label="HORIZONTAL"];
	Obj5 -> Obj4 [label="HORIZONTAL"];
	Obj15 -> Obj33 [label="HORIZONTAL"];
	Obj3 -> Obj2 [label="HORIZONTAL"];
	Obj9 -> Obj19 [label="HORIZONTAL"];
	Obj29 -> Obj31 [label="HORIZONTAL"];
	Obj21 -> Obj20 [label="HORIZONTAL"];
	Obj18 -> Obj24 [label="HORIZONTAL"];
	Obj19 -> Obj18 [label="HORIZONTAL"];
	Obj4 -> Obj29 [label="HORIZONTAL"];
	Obj26 -> Obj27 [label="HORIZONTAL"];
	Obj8 -> Obj21 [label="HORIZONTAL"];
	Obj6 -> Obj12 [label="HORIZONTAL"];
	Obj16 -> Obj32 [label="UNDER"];
	Obj12 -> Obj11 [label="HORIZONTAL"];
	Obj7 -> Obj13 [label="HORIZONTAL"];
	Obj30 -> Obj3 [label="HORIZONTAL"];
	Obj24 -> Obj25 [label="HORIZONTAL"];
	Obj23 -> Obj0 [label="HORIZONTAL"];
	Obj1 -> Obj6 [label="HORIZONTAL"];
	Obj10 -> Obj30 [label="HORIZONTAL"];
	Obj22 -> Obj1 [label="HORIZONTAL"];
	Obj2 -> Obj14 [label="HORIZONTAL"];
	Obj16 -> Obj34 [label="UPPER"];
	Obj17 -> Obj10 [label="HORIZONTAL"];
	Obj25 -> Obj8 [label="HORIZONTAL"];
	Obj26 -> Obj28 [label="RSUB"];
	Obj11 -> Obj7 [label="HORIZONTAL"];
	Obj13 -> Obj23 [label="HORIZONTAL"];
	Obj20 -> Obj22 [label="HORIZONTAL"];
	Obj27 -> Obj15 [label="HORIZONTAL"];
	Obj33 -> Obj17 [label="HORIZONTAL"];
	
}
