digraph dag {
	rankdir=LR; ranksep=1.0;
	edge[fontsize=13,weight=1]; node[fontsize=13,shape=box]; graph[ordering=out];

	/* NODES (OBJECTS) */
	Obj0 [label="RightPar\nObj0\n11", color = blue];
	Obj1 [label="I\nObj1\n10", color = blue];
	Obj10 [label="omega\nObj10\n5", color = blue];
	Obj11 [label="t\nObj11\n4", color = blue];
	Obj12 [label="Z\nObj12\n7", color = blue];
	Obj13 [label="M\nObj13\n6", color = blue];
	Obj14 [label="LeftPar\nObj14\n9", color = blue];
	Obj15 [label="v\nObj15\n8", color = blue];
	Obj2 [label="i\nObj2\n13 14", color = blue];
	Obj3 [label="one\nObj3\n12", color = blue];
	Obj4 [label="i\nObj4\n15 16", color = blue];
	Obj5 [label="equal\nObj5\n17 18", color = blue];
	Obj6 [label="oplus\nObj6\n19", color = blue];
	Obj7 [label="n\nObj7\n1", color = blue];
	Obj8 [label="H\nObj8\n0", color = blue];
	Obj9 [label="equal\nObj9\n2 3", color = blue];
	
	/* EDGES (OBJECT RELATIONSHIPS)    */
	Obj8 -> Obj13 [label="PUNC\n(_)\n",color=red,fontcolor=red,penwidth=3];
	Obj8 -> Obj14 [label="RSUP\n(_)\n",color=red,fontcolor=red,penwidth=3];
	Obj5 -> Obj6 [label="HORIZONTAL"];
	Obj9 -> Obj3 [label="HORIZONTAL"];
	Obj13 -> Obj0 [label="HORIZONTAL"];
	Obj6 -> Obj11 [label="RSUP"];
	Obj12 -> Obj10 [label="HORIZONTAL"];
	Obj15 -> Obj8 [label="RSUB"];
	Obj0 -> Obj5 [label="HORIZONTAL"];
	Obj1 -> Obj7 [label="HORIZONTAL"];
	Obj6 -> Obj4 [label="RSUB"];
	Obj6 -> Obj12 [label="HORIZONTAL"];
	Obj10 -> Obj2 [label="RSUB"];
	Obj4 -> Obj9 [label="HORIZONTAL"];
	Obj7 -> Obj15 [label="HORIZONTAL"];
	
}
