digraph dag {
	rankdir=LR; ranksep=1.0;
	edge[fontsize=13,weight=1]; node[fontsize=13,shape=box]; graph[ordering=out];

	/* NODES (OBJECTS) */
	Obj0 [label="equal\nObj0\n11 12", color = blue];
	Obj1 [label="g\nObj1\n10", color = blue];
	Obj10 [label="e\nObj10\n2", color = blue];
	Obj11 [label="one\nObj11\n5", color = blue];
	Obj12 [label="v\nObj12\n4", color = blue];
	Obj13 [label="p\nObj13\n7", color = blue];
	Obj14 [label="d\nObj14\n6", color = blue];
	Obj15 [label="equal\nObj15\n8 9", color = blue];
	Obj2 [label="g\nObj2\n13", color = blue];
	Obj3 [label="g\nObj3\n15", color = blue];
	Obj4 [label="one\nObj4\n14", color = blue];
	Obj5 [label="n\nObj5\n17", color = blue];
	Obj6 [label="g\nObj6\n16", color = blue];
	Obj7 [label="e\nObj7\n1", color = blue];
	Obj8 [label="y\nObj8\n0", color = blue];
	Obj9 [label="d\nObj9\n3", color = blue];
	
	/* EDGES (OBJECT RELATIONSHIPS)    */
	Obj6 -> Obj12 [label="RSUB\n(_)\n",color=red,fontcolor=red,penwidth=3];
	Obj3 -> Obj8 [label="RSUB\n(_)\n",color=red,fontcolor=red,penwidth=3];
	Obj10 -> Obj6 [label="HORIZONTAL"];
	Obj6 -> Obj1 [label="HORIZONTAL"];
	Obj9 -> Obj7 [label="HORIZONTAL"];
	Obj0 -> Obj13 [label="HORIZONTAL"];
	Obj2 -> Obj0 [label="HORIZONTAL"];
	Obj15 -> Obj9 [label="HORIZONTAL"];
	Obj7 -> Obj3 [label="HORIZONTAL"];
	Obj3 -> Obj2 [label="HORIZONTAL"];
	Obj13 -> Obj5 [label="RSUP"];
	Obj5 -> Obj11 [label="RSUB"];
	Obj14 -> Obj10 [label="HORIZONTAL"];
	Obj1 -> Obj15 [label="HORIZONTAL"];
	Obj2 -> Obj4 [label="RSUB"];
	
}
