digraph dag {
	rankdir=LR; ranksep=1.0;
	edge[fontsize=13,weight=1]; node[fontsize=13,shape=box]; graph[ordering=out];

	/* NODES (OBJECTS) */
	Obj0 [label="prime\nObj0\n11", color = blue];
	Obj1 [label="equal\nObj1\n10 9", color = blue];
	Obj10 [label="LeftPar\nObj10\n5", color = blue];
	Obj11 [label="R\nObj11\n4", color = blue];
	Obj12 [label="bigcup\nObj12\n7", color = blue];
	Obj13 [label="a\nObj13\n6", color = blue];
	Obj14 [label="U\nObj14\n8", color = blue];
	Obj2 [label="equal\nObj2\n13 14", color = blue];
	Obj3 [label="one\nObj3\n12", color = blue];
	Obj4 [label="LeftPar\nObj4\n15", color = blue];
	Obj5 [label="n\nObj5\n17", color = blue];
	Obj6 [label="RightPar\nObj6\n16", color = blue];
	Obj7 [label="i\nObj7\n18 19", color = blue];
	Obj8 [label="i\nObj8\n0 1", color = blue];
	Obj9 [label="plus\nObj9\n2 3", color = blue];
	
	/* EDGES (OBJECT RELATIONSHIPS)    */
	Obj9 -> Obj14 [label="HORIZONTAL\n(_)\n",color=red,fontcolor=red,penwidth=3];
	Obj2 -> Obj3 [label="HORIZONTAL"];
	Obj13 -> Obj7 [label="RSUB"];
	Obj7 -> Obj9 [label="RSUP"];
	Obj11 -> Obj1 [label="HORIZONTAL"];
	Obj4 -> Obj10 [label="HORIZONTAL"];
	Obj8 -> Obj2 [label="HORIZONTAL"];
	Obj1 -> Obj12 [label="HORIZONTAL"];
	Obj10 -> Obj13 [label="HORIZONTAL"];
	Obj14 -> Obj0 [label="RSUP"];
	Obj14 -> Obj6 [label="HORIZONTAL"];
	Obj12 -> Obj4 [label="HORIZONTAL"];
	Obj12 -> Obj5 [label="UPPER"];
	Obj12 -> Obj8 [label="UNDER"];
	
}
