digraph dag {
	rankdir=LR; ranksep=1.0;
	edge[fontsize=13,weight=1]; node[fontsize=13,shape=box]; graph[ordering=out];

	/* NODES (OBJECTS) */
	Obj0 [label="j\nObj0\n0 1", color = blue];
	Obj1 [label="lambda\nObj1\n3", color = blue];
	Obj2 [label="LeftPar\nObj2\n2", color = blue];
	Obj3 [label="k\nObj3\n5", color = blue];
	Obj4 [label="rho\nObj4\n4", color = blue];
	Obj5 [label="RightPar\nObj5\n6", color = blue];
	
	/* EDGES (OBJECT RELATIONSHIPS)    */
	Obj3 -> Obj2 [label="HORIZONTAL\n(_)\n",color=red,fontcolor=red,penwidth=3];
	Obj2 -> Obj1 [label="HORIZONTAL"];
	Obj4 -> Obj0 [label="RSUB"];
	Obj0 -> Obj3 [label="HORIZONTAL"];
	Obj1 -> Obj5 [label="HORIZONTAL"];
	
}
