digraph dag {
	rankdir=LR; ranksep=1.0;
	edge[fontsize=13,weight=1]; node[fontsize=13,shape=box]; graph[ordering=out];

	/* NODES (OBJECTS) */
	Obj0 [label="equal\nObj0\n10 11", color = blue];
	Obj1 [label="H\nObj1\n12", color = blue];
	Obj10 [label="m\nObj10\n9", color = blue];
	Obj11 [label="R\nObj11\n8", color = blue];
	Obj2 [label="R\nObj2\n1", color = blue];
	Obj3 [label="P\nObj3\n0", color = blue];
	Obj4 [label="comma\nObj4\n3", color = blue];
	Obj5 [label="P\nObj5\n2", color = blue];
	Obj6 [label="RightPar\nObj6\n5", color = blue];
	Obj7 [label="o\nObj7\n4", color = blue];
	Obj8 [label="alpha\nObj8\n7", color = blue];
	Obj9 [label="LeftPar\nObj9\n6", color = blue];
	
	/* EDGES (OBJECT RELATIONSHIPS)    */
	Obj10 -> Obj11 [label="RSUB\n(_)\n",color=red,fontcolor=red,penwidth=3];
	Obj5 -> Obj8 [label="RSUP"];
	Obj9 -> Obj3 [label="HORIZONTAL"];
	Obj1 -> Obj7 [label="HORIZONTAL"];
	Obj7 -> Obj10 [label="HORIZONTAL"];
	Obj3 -> Obj2 [label="HORIZONTAL"];
	Obj2 -> Obj6 [label="HORIZONTAL"];
	Obj3 -> Obj4 [label="PUNC"];
	Obj5 -> Obj0 [label="HORIZONTAL"];
	Obj10 -> Obj9 [label="HORIZONTAL"];
	Obj0 -> Obj1 [label="HORIZONTAL"];
	
}
