digraph dag {
	rankdir=LR; ranksep=1.0;
	edge[fontsize=13,weight=1]; node[fontsize=13,shape=box]; graph[ordering=out];

	/* NODES (OBJECTS) */
	Obj0 [label="three\nObj0\n10", color = blue];
	Obj1 [label="U\nObj1\n1", color = blue];
	Obj2 [label="U\nObj2\n0", color = blue];
	Obj3 [label="equal\nObj3\n2 3", color = blue];
	Obj4 [label="five\nObj4\n5 6", color = blue];
	Obj5 [label="ast\nObj5\n4", color = blue];
	Obj6 [label="one\nObj6\n7", color = blue];
	Obj7 [label="ast\nObj7\n9", color = blue];
	Obj8 [label="four\nObj8\n8", color = blue];
	
	/* EDGES (OBJECT RELATIONSHIPS)    */
	Obj7 -> Obj3 [label="HORIZONTAL\n(_)\n",color=red,fontcolor=red,penwidth=3];
	Obj4 -> Obj8 [label="HORIZONTAL"];
	Obj6 -> Obj0 [label="HORIZONTAL"];
	Obj3 -> Obj1 [label="HORIZONTAL"];
	Obj1 -> Obj4 [label="RSUB"];
	Obj2 -> Obj7 [label="RSUP"];
	Obj1 -> Obj5 [label="RSUP"];
	Obj2 -> Obj6 [label="RSUB"];
	
}
