digraph dag {
	rankdir=LR; ranksep=1.0;
	edge[fontsize=13,weight=1]; node[fontsize=13,shape=box]; graph[ordering=out];

	/* NODES (OBJECTS) */
	Obj0 [label="zero\nObj0\n1", color = blue];
	Obj1 [label="D\nObj1\n0", color = blue];
	Obj2 [label="o\nObj2\n3", color = blue];
	Obj3 [label="V\nObj3\n2", color = blue];
	Obj4 [label="l\nObj4\n4", color = blue];
	
	/* EDGES (OBJECT RELATIONSHIPS)    */
	Obj4 -> Obj1 [label="RSUB\n(_)\n",color=red,fontcolor=red,penwidth=3];
	Obj1 -> Obj0 [label="RSUB"];
	Obj3 -> Obj2 [label="HORIZONTAL"];
	Obj2 -> Obj4 [label="HORIZONTAL"];
	
}
