digraph dag {
	rankdir=LR; ranksep=1.0;
	edge[fontsize=13,weight=1]; node[fontsize=13,shape=box]; graph[ordering=out];

	/* NODES (OBJECTS) */
	Obj0 [label="j\nObj0\n18 19 20", color = blue];
	Obj1 [label="Delta\nObj1\n21", color = blue];
	Obj10 [label="comma\nObj10\n7", color = blue];
	Obj11 [label="Delta\nObj11\n6", color = blue];
	Obj12 [label="j\nObj12\n10 9", color = blue];
	Obj13 [label="xi\nObj13\n8", color = blue];
	Obj14 [label="RightPar\nObj14\n11", color = blue];
	Obj15 [label="Delta\nObj15\n13", color = blue];
	Obj16 [label="rho\nObj16\n12", color = blue];
	Obj17 [label="equal\nObj17\n15 16", color = blue];
	Obj18 [label="RightPar\nObj18\n14", color = blue];
	Obj19 [label="LeftPar\nObj19\n17", color = blue];
	Obj2 [label="k\nObj2\n22", color = blue];
	Obj3 [label="LeftPar\nObj3\n23", color = blue];
	Obj4 [label="k\nObj4\n1", color = blue];
	Obj5 [label="RightPar\nObj5\n0", color = blue];
	Obj6 [label="LeftPar\nObj6\n3", color = blue];
	Obj7 [label="LeftPar\nObj7\n2", color = blue];
	Obj8 [label="RightPar\nObj8\n5", color = blue];
	Obj9 [label="xi\nObj9\n4", color = blue];
	
	/* EDGES (OBJECT RELATIONSHIPS)    */
	Obj4 -> Obj3 [label="HORIZONTAL\n(_)\n",color=red,fontcolor=red,penwidth=3];
	Obj8 -> Obj13 [label="HORIZONTAL"];
	Obj13 -> Obj7 [label="HORIZONTAL"];
	Obj13 -> Obj2 [label="RSUB"];
	Obj9 -> Obj12 [label="RSUB"];
	Obj11 -> Obj18 [label="HORIZONTAL"];
	Obj6 -> Obj9 [label="HORIZONTAL"];
	Obj18 -> Obj17 [label="HORIZONTAL"];
	Obj7 -> Obj1 [label="HORIZONTAL"];
	Obj19 -> Obj15 [label="HORIZONTAL"];
	Obj0 -> Obj4 [label="HORIZONTAL"];
	Obj1 -> Obj14 [label="HORIZONTAL"];
	Obj15 -> Obj8 [label="HORIZONTAL"];
	Obj3 -> Obj11 [label="HORIZONTAL"];
	Obj14 -> Obj5 [label="HORIZONTAL"];
	Obj9 -> Obj19 [label="HORIZONTAL"];
	Obj17 -> Obj6 [label="HORIZONTAL"];
	Obj8 -> Obj10 [label="PUNC"];
	Obj16 -> Obj0 [label="RSUB"];
	
}
