digraph dag {
	rankdir=LR; ranksep=1.0;
	edge[fontsize=13,weight=1]; node[fontsize=13,shape=box]; graph[ordering=out];

	/* NODES (OBJECTS) */
	Obj0 [label="equal\nObj0\n10 11", color = blue];
	Obj1 [label="alpha\nObj1\n13", color = blue];
	Obj10 [label="tau\nObj10\n7", color = blue];
	Obj11 [label="one\nObj11\n6", color = blue];
	Obj12 [label="RightPar\nObj12\n9", color = blue];
	Obj13 [label="one\nObj13\n8", color = blue];
	Obj2 [label="tau\nObj2\n12", color = blue];
	Obj3 [label="in\nObj3\n14", color = blue];
	Obj4 [label="U\nObj4\n1", color = blue];
	Obj5 [label="plus\nObj5\n0", color = blue];
	Obj6 [label="LeftPar\nObj6\n3", color = blue];
	Obj7 [label="sqrt\nObj7\n2", color = blue];
	Obj8 [label="two\nObj8\n5", color = blue];
	Obj9 [label="tau\nObj9\n4", color = blue];
	
	/* EDGES (OBJECT RELATIONSHIPS)    */
	Obj1 -> Obj7 [label="RSUP\n(_)\n",color=red,fontcolor=red,penwidth=3];
	Obj10 -> Obj0 [label="HORIZONTAL\n(_)\n",color=red,fontcolor=red,penwidth=3];
	Obj5 -> Obj1 [label="HORIZONTAL\n(_)\n",color=red,fontcolor=red,penwidth=3];
	Obj9 -> Obj3 [label="HORIZONTAL"];
	Obj1 -> Obj10 [label="HORIZONTAL"];
	Obj11 -> Obj12 [label="HORIZONTAL"];
	Obj4 -> Obj6 [label="HORIZONTAL"];
	Obj6 -> Obj11 [label="HORIZONTAL"];
	Obj10 -> Obj8 [label="RSUB"];
	Obj0 -> Obj9 [label="HORIZONTAL"];
	Obj3 -> Obj4 [label="HORIZONTAL"];
	Obj2 -> Obj5 [label="HORIZONTAL"];
	Obj2 -> Obj13 [label="RSUB"];
	
}
