digraph dag {
	rankdir=LR; ranksep=1.0;
	edge[fontsize=13,weight=1]; node[fontsize=13,shape=box]; graph[ordering=out];

	/* NODES (OBJECTS) */
	Obj0 [label="r\nObj0\n0 1", color = blue];
	Obj1 [label="comma\nObj1\n2 3", color = blue];
	Obj2 [label="rho\nObj2\n5", color = blue];
	Obj3 [label="in\nObj3\n4", color = blue];
	Obj4 [label="BigRightPar\nObj4\n6 7", color = blue];
	Obj5 [label="BigLeftPar\nObj5\n9", color = blue];
	Obj6 [label="R\nObj6\n8", color = blue];
	
	/* EDGES (OBJECT RELATIONSHIPS)    */
	Obj0 -> Obj1 [label="RSUB\n(PUNC)\n",color=red,fontcolor=red,penwidth=3];
	Obj2 -> Obj3 [label="HORIZONTAL"];
	Obj6 -> Obj5 [label="HORIZONTAL"];
	Obj0 -> Obj6 [label="HORIZONTAL"];
	Obj4 -> Obj0 [label="HORIZONTAL"];
	Obj3 -> Obj4 [label="HORIZONTAL"];
	
}
