digraph dag {
	rankdir=LR; ranksep=1.0;
	edge[fontsize=13,weight=1]; node[fontsize=13,shape=box]; graph[ordering=out];

	/* NODES (OBJECTS) */
	Obj0 [label="I\nObj0\n0 1", color = blue];
	Obj1 [label="greater\nObj1\n3", color = blue];
	Obj2 [label="zero\nObj2\n2", color = blue];
	Obj3 [label="k\nObj3\n4", color = blue];
	
	/* EDGES (OBJECT RELATIONSHIPS)    */
	Obj0 -> Obj3 [label="RSUP\n(HORIZONTAL)\n",color=red,fontcolor=red,penwidth=3];
	Obj0 -> Obj1 [label="HORIZONTAL\n(_)\n",color=red,fontcolor=red,penwidth=3];
	Obj1 -> Obj2 [label="HORIZONTAL"];
	
}
