digraph dag {
	rankdir=LR; ranksep=1.0;
	edge[fontsize=13,weight=1]; node[fontsize=13,shape=box]; graph[ordering=out];

	/* NODES (OBJECTS) */
	Obj0 [label="leq\nObj0\n24 25", color = blue];
	Obj1 [label="MiddleLeftPar\nObj1\n26", color = blue];
	Obj10 [label="RightPar\nObj10\n4", color = blue];
	Obj11 [label="dot\nObj11\n7", color = blue];
	Obj12 [label="n\nObj12\n6", color = blue];
	Obj13 [label="leq\nObj13\n8 9", color = blue];
	Obj14 [label="equal\nObj14\n11 12", color = blue];
	Obj15 [label="delta\nObj15\n10", color = blue];
	Obj16 [label="i\nObj16\n13", color = blue];
	Obj17 [label="i\nObj17\n14 15", color = blue];
	Obj18 [label="zero\nObj18\n17", color = blue];
	Obj19 [label="zero\nObj19\n16", color = blue];
	Obj2 [label="one\nObj2\n20", color = blue];
	Obj20 [label="m\nObj20\n19", color = blue];
	Obj21 [label="LeftPar\nObj21\n18", color = blue];
	Obj3 [label="xi\nObj3\n21", color = blue];
	Obj4 [label="delta\nObj4\n22", color = blue];
	Obj5 [label="N\nObj5\n23", color = blue];
	Obj6 [label="i\nObj6\n1 2", color = blue];
	Obj7 [label="RightPar\nObj7\n0", color = blue];
	Obj8 [label="MiddleRightPar\nObj8\n3", color = blue];
	Obj9 [label="LeftPar\nObj9\n5", color = blue];
	
	/* EDGES (OBJECT RELATIONSHIPS)    */
	Obj12 -> Obj2 [label="RSUB\n(_)\n",color=red,fontcolor=red,penwidth=3];
	Obj5 -> Obj1 [label="HORIZONTAL\n(_)\n",color=red,fontcolor=red,penwidth=3];
	Obj17 -> Obj12 [label="HORIZONTAL"];
	Obj3 -> Obj19 [label="RSUB"];
	Obj16 -> Obj7 [label="HORIZONTAL"];
	Obj2 -> Obj0 [label="HORIZONTAL"];
	Obj15 -> Obj18 [label="RSUB"];
	Obj9 -> Obj3 [label="HORIZONTAL"];
	Obj6 -> Obj13 [label="HORIZONTAL"];
	Obj15 -> Obj14 [label="HORIZONTAL"];
	Obj0 -> Obj6 [label="HORIZONTAL"];
	Obj14 -> Obj20 [label="HORIZONTAL"];
	Obj3 -> Obj21 [label="RSUP"];
	Obj10 -> Obj8 [label="HORIZONTAL"];
	Obj16 -> Obj11 [label="UPPER"];
	Obj13 -> Obj5 [label="HORIZONTAL"];
	Obj3 -> Obj10 [label="HORIZONTAL"];
	Obj20 -> Obj17 [label="HORIZONTAL"];
	Obj1 -> Obj4 [label="HORIZONTAL"];
	Obj21 -> Obj16 [label="HORIZONTAL"];
	Obj4 -> Obj9 [label="HORIZONTAL"];
	
}
