digraph dag {
	rankdir=LR; ranksep=1.0;
	edge[fontsize=13,weight=1]; node[fontsize=13,shape=box]; graph[ordering=out];

	/* NODES (OBJECTS) */
	Obj0 [label="SingleEndQuartation\nObj0\n1", color = blue];
	Obj1 [label="s\nObj1\n0", color = blue];
	Obj2 [label="Delta\nObj2\n2", color = blue];
	
	/* EDGES (OBJECT RELATIONSHIPS)    */
	Obj0 -> Obj1 [label="RSUB\n(HORIZONTAL)\n",color=red,fontcolor=red,penwidth=3];
	Obj2 -> Obj0 [label="RSUP\n(HORIZONTAL)\n",color=red,fontcolor=red,penwidth=3];
	
}
