digraph dag {
	rankdir=LR; ranksep=1.0;
	edge[fontsize=13,weight=1]; node[fontsize=13,shape=box]; graph[ordering=out];

	/* NODES (OBJECTS) */
	Obj0 [label="two\nObj0\n24", color = blue];
	Obj1 [label="pi\nObj1\n25", color = blue];
	Obj10 [label="vert\nObj10\n2", color = blue];
	Obj11 [label="lambda\nObj11\n4 5", color = blue];
	Obj12 [label="slash\nObj12\n7", color = blue];
	Obj13 [label="vert\nObj13\n6", color = blue];
	Obj14 [label="equal\nObj14\n8 9", color = blue];
	Obj15 [label="d\nObj15\n11", color = blue];
	Obj16 [label="two\nObj16\n10", color = blue];
	Obj17 [label="LeftPar\nObj17\n13", color = blue];
	Obj18 [label="rho\nObj18\n12", color = blue];
	Obj19 [label="k\nObj19\n15", color = blue];
	Obj2 [label="k\nObj2\n26", color = blue];
	Obj20 [label="RightPar\nObj20\n14", color = blue];
	Obj21 [label="RightPar\nObj21\n17", color = blue];
	Obj22 [label="k\nObj22\n16", color = blue];
	Obj23 [label="d\nObj23\n19", color = blue];
	Obj24 [label="slash\nObj24\n18", color = blue];
	Obj3 [label="two\nObj3\n20", color = blue];
	Obj4 [label="LeftPar\nObj4\n21", color = blue];
	Obj5 [label="LeftPar\nObj5\n22", color = blue];
	Obj6 [label="LeftPar\nObj6\n23", color = blue];
	Obj7 [label="RightPar\nObj7\n1", color = blue];
	Obj8 [label="A\nObj8\n0", color = blue];
	Obj9 [label="RightPar\nObj9\n3", color = blue];
	
	/* EDGES (OBJECT RELATIONSHIPS)    */
	Obj18 -> Obj17 [label="HORIZONTAL\n(_)\n",color=red,fontcolor=red,penwidth=3];
	Obj15 -> Obj18 [label="HORIZONTAL\n(RSUB)\n",color=red,fontcolor=red,penwidth=3];
	Obj12 -> Obj1 [label="HORIZONTAL"];
	Obj23 -> Obj2 [label="HORIZONTAL"];
	Obj10 -> Obj16 [label="RSUP"];
	Obj9 -> Obj4 [label="HORIZONTAL"];
	Obj10 -> Obj7 [label="HORIZONTAL"];
	Obj22 -> Obj0 [label="RSUP"];
	Obj5 -> Obj3 [label="HORIZONTAL"];
	Obj1 -> Obj9 [label="HORIZONTAL"];
	Obj3 -> Obj12 [label="HORIZONTAL"];
	Obj4 -> Obj22 [label="HORIZONTAL"];
	Obj19 -> Obj21 [label="HORIZONTAL"];
	Obj24 -> Obj13 [label="HORIZONTAL"];
	Obj14 -> Obj5 [label="HORIZONTAL"];
	Obj17 -> Obj11 [label="HORIZONTAL"];
	Obj8 -> Obj6 [label="HORIZONTAL"];
	Obj7 -> Obj23 [label="HORIZONTAL"];
	Obj11 -> Obj20 [label="HORIZONTAL"];
	Obj21 -> Obj10 [label="HORIZONTAL"];
	Obj13 -> Obj8 [label="HORIZONTAL"];
	Obj6 -> Obj19 [label="HORIZONTAL"];
	Obj20 -> Obj14 [label="HORIZONTAL"];
	Obj22 -> Obj24 [label="HORIZONTAL"];
	
}
