digraph dag {
	rankdir=LR; ranksep=1.0;
	edge[fontsize=13,weight=1]; node[fontsize=13,shape=box]; graph[ordering=out];

	/* NODES (OBJECTS) */
	Obj0 [label="RightPar\nObj0\n11", color = blue];
	Obj1 [label="one\nObj1\n10", color = blue];
	Obj10 [label="one\nObj10\n7", color = blue];
	Obj11 [label="zero\nObj11\n6", color = blue];
	Obj12 [label="h\nObj12\n9", color = blue];
	Obj13 [label="zero\nObj13\n8", color = blue];
	Obj2 [label="zero\nObj2\n13", color = blue];
	Obj3 [label="one\nObj3\n12", color = blue];
	Obj4 [label="zero\nObj4\n14", color = blue];
	Obj5 [label="zero\nObj5\n1", color = blue];
	Obj6 [label="zero\nObj6\n0", color = blue];
	Obj7 [label="equal\nObj7\n3 4", color = blue];
	Obj8 [label="LeftPar\nObj8\n2", color = blue];
	Obj9 [label="one\nObj9\n5", color = blue];
	
	/* EDGES (OBJECT RELATIONSHIPS)    */
	Obj7 -> Obj8 [label="HORIZONTAL\n(_)\n",color=red,fontcolor=red,penwidth=3];
	Obj8 -> Obj2 [label="UPPER\n(_)\n",color=red,fontcolor=red,penwidth=3];
	Obj1 -> Obj11 [label="HORIZONTAL\n(_)\n",color=red,fontcolor=red,penwidth=3];
	Obj10 -> Obj13 [label="HORIZONTAL\n(_)\n",color=red,fontcolor=red,penwidth=3];
	Obj13 -> Obj5 [label="HORIZONTAL\n(_)\n",color=red,fontcolor=red,penwidth=3];
	Obj4 -> Obj1 [label="HORIZONTAL\n(_)\n",color=red,fontcolor=red,penwidth=3];
	Obj8 -> Obj4 [label="HORIZONTAL\n(_)\n",color=red,fontcolor=red,penwidth=3];
	Obj11 -> Obj0 [label="HORIZONTAL\n(_)\n",color=red,fontcolor=red,penwidth=3];
	Obj2 -> Obj6 [label="HORIZONTAL\n(_)\n",color=red,fontcolor=red,penwidth=3];
	Obj8 -> Obj10 [label="UNDER\n(_)\n",color=red,fontcolor=red,penwidth=3];
	Obj6 -> Obj3 [label="HORIZONTAL\n(_)\n",color=red,fontcolor=red,penwidth=3];
	Obj12 -> Obj7 [label="HORIZONTAL"];
	Obj12 -> Obj9 [label="RSUB"];
	
}
