digraph dag {
	rankdir=LR; ranksep=1.0;
	edge[fontsize=13,weight=1]; node[fontsize=13,shape=box]; graph[ordering=out];

	/* NODES (OBJECTS) */
	Obj0 [label="Gamma\nObj0\n1", color = blue];
	Obj1 [label="three\nObj1\n0", color = blue];
	Obj2 [label="LeftPar\nObj2\n3", color = blue];
	Obj3 [label="slash\nObj3\n2", color = blue];
	Obj4 [label="overline\nObj4\n5", color = blue];
	Obj5 [label="zero\nObj5\n4", color = blue];
	Obj6 [label="H\nObj6\n7 8", color = blue];
	Obj7 [label="RightPar\nObj7\n6", color = blue];
	Obj8 [label="seven\nObj8\n9", color = blue];
	
	/* EDGES (OBJECT RELATIONSHIPS)    */
	Obj4 -> Obj6 [label="UNDER\n(_)\n",color=red,fontcolor=red,penwidth=3];
	Obj0 -> Obj2 [label="HORIZONTAL"];
	Obj2 -> Obj1 [label="HORIZONTAL"];
	Obj0 -> Obj5 [label="RSUB"];
	Obj3 -> Obj0 [label="HORIZONTAL"];
	Obj1 -> Obj8 [label="HORIZONTAL"];
	Obj8 -> Obj7 [label="HORIZONTAL"];
	Obj6 -> Obj3 [label="HORIZONTAL"];
	
}
