digraph dag {
	rankdir=LR; ranksep=1.0;
	edge[fontsize=13,weight=1]; node[fontsize=13,shape=box]; graph[ordering=out];

	/* NODES (OBJECTS) */
	Obj0 [label="ldots\nObj0\n10 11 9", color = blue];
	Obj1 [label="comma\nObj1\n13", color = blue];
	Obj10 [label="minus\nObj10\n4", color = blue];
	Obj11 [label="one\nObj11\n7", color = blue];
	Obj12 [label="in\nObj12\n6", color = blue];
	Obj13 [label="a\nObj13\n8", color = blue];
	Obj2 [label="prime\nObj2\n12", color = blue];
	Obj3 [label="comma\nObj3\n15", color = blue];
	Obj4 [label="one\nObj4\n14", color = blue];
	Obj5 [label="E\nObj5\n1", color = blue];
	Obj6 [label="n\nObj6\n0", color = blue];
	Obj7 [label="RightPar\nObj7\n3", color = blue];
	Obj8 [label="a\nObj8\n2", color = blue];
	Obj9 [label="LeftPar\nObj9\n5", color = blue];
	
	/* EDGES (OBJECT RELATIONSHIPS)    */
	Obj0 -> Obj9 [label="LSUP\n(_)\n",color=red,fontcolor=red,penwidth=3];
	Obj0 -> Obj3 [label="HORIZONTAL"];
	Obj1 -> Obj0 [label="HORIZONTAL"];
	Obj7 -> Obj12 [label="HORIZONTAL"];
	Obj10 -> Obj4 [label="HORIZONTAL"];
	Obj6 -> Obj10 [label="HORIZONTAL"];
	Obj9 -> Obj8 [label="HORIZONTAL"];
	Obj8 -> Obj13 [label="HORIZONTAL"];
	Obj12 -> Obj5 [label="HORIZONTAL"];
	Obj5 -> Obj2 [label="RSUP"];
	Obj13 -> Obj6 [label="RSUB"];
	Obj8 -> Obj11 [label="RSUB"];
	Obj13 -> Obj7 [label="HORIZONTAL"];
	
}
