digraph dag {
	rankdir=LR; ranksep=1.0;
	edge[fontsize=13,weight=1]; node[fontsize=13,shape=box]; graph[ordering=out];

	/* NODES (OBJECTS) */
	Obj0 [label="Y\nObj0\n1", color = blue];
	Obj1 [label="rightarrow\nObj1\n0", color = blue];
	Obj2 [label="n\nObj2\n3", color = blue];
	Obj3 [label="emptyset\nObj3\n2", color = blue];
	Obj4 [label="f\nObj4\n5", color = blue];
	Obj5 [label="I\nObj5\n4", color = blue];
	Obj6 [label="equal\nObj6\n6 7", color = blue];
	Obj7 [label="t\nObj7\n9", color = blue];
	Obj8 [label="F\nObj8\n8", color = blue];
	
	/* EDGES (OBJECT RELATIONSHIPS)    */
	Obj1 -> Obj8 [label="RSUB\n(_)\n",color=red,fontcolor=red,penwidth=3];
	Obj5 -> Obj2 [label="HORIZONTAL"];
	Obj2 -> Obj7 [label="HORIZONTAL"];
	Obj7 -> Obj0 [label="RSUB"];
	Obj7 -> Obj4 [label="HORIZONTAL"];
	Obj4 -> Obj1 [label="RSUP"];
	Obj6 -> Obj3 [label="HORIZONTAL"];
	Obj8 -> Obj6 [label="HORIZONTAL"];
	
}
