digraph dag {
	rankdir=LR; ranksep=1.0;
	edge[fontsize=13,weight=1]; node[fontsize=13,shape=box]; graph[ordering=out];

	/* NODES (OBJECTS) */
	Obj0 [label="zero\nObj0\n11", color = blue];
	Obj1 [label="zero\nObj1\n10", color = blue];
	Obj10 [label="zero\nObj10\n6", color = blue];
	Obj11 [label="one\nObj11\n9", color = blue];
	Obj12 [label="one\nObj12\n8", color = blue];
	Obj2 [label="one\nObj2\n13", color = blue];
	Obj3 [label="LeftPar\nObj3\n12", color = blue];
	Obj4 [label="w\nObj4\n1", color = blue];
	Obj5 [label="RightPar\nObj5\n0", color = blue];
	Obj6 [label="equal\nObj6\n2 3", color = blue];
	Obj7 [label="zero\nObj7\n5", color = blue];
	Obj8 [label="zero\nObj8\n4", color = blue];
	Obj9 [label="zero\nObj9\n7", color = blue];
	
	/* EDGES (OBJECT RELATIONSHIPS)    */
	Obj8 -> Obj12 [label="HORIZONTAL\n(_)\n",color=red,fontcolor=red,penwidth=3];
	Obj1 -> Obj11 [label="HORIZONTAL\n(_)\n",color=red,fontcolor=red,penwidth=3];
	Obj3 -> Obj0 [label="RSUP\n(_)\n",color=red,fontcolor=red,penwidth=3];
	Obj3 -> Obj1 [label="HORIZONTAL\n(_)\n",color=red,fontcolor=red,penwidth=3];
	Obj7 -> Obj10 [label="HORIZONTAL\n(_)\n",color=red,fontcolor=red,penwidth=3];
	Obj11 -> Obj9 [label="HORIZONTAL\n(_)\n",color=red,fontcolor=red,penwidth=3];
	Obj3 -> Obj2 [label="UNDER\n(_)\n",color=red,fontcolor=red,penwidth=3];
	Obj0 -> Obj8 [label="HORIZONTAL\n(_)\n",color=red,fontcolor=red,penwidth=3];
	Obj2 -> Obj7 [label="HORIZONTAL\n(_)\n",color=red,fontcolor=red,penwidth=3];
	Obj6 -> Obj3 [label="HORIZONTAL\n(_)\n",color=red,fontcolor=red,penwidth=3];
	Obj9 -> Obj5 [label="HORIZONTAL\n(_)\n",color=red,fontcolor=red,penwidth=3];
	Obj4 -> Obj6 [label="HORIZONTAL"];
	
}
