digraph dag {
	rankdir=LR; ranksep=1.0;
	edge[fontsize=13,weight=1]; node[fontsize=13,shape=box]; graph[ordering=out];

	/* NODES (OBJECTS) */
	Obj0 [label="one\nObj0\n1", color = blue];
	Obj1 [label="comma\nObj1\n0", color = blue];
	Obj2 [label="ldots\nObj2\n3 4 5", color = blue];
	Obj3 [label="comma\nObj3\n2", color = blue];
	Obj4 [label="k\nObj4\n7 8", color = blue];
	Obj5 [label="D\nObj5\n6", color = blue];
	Obj6 [label="D\nObj6\n9", color = blue];
	
	/* EDGES (OBJECT RELATIONSHIPS)    */
	Obj0 -> Obj1 [label="RSUB\n(_)\n",color=red,fontcolor=red,penwidth=3];
	Obj5 -> Obj6 [label="HORIZONTAL"];
	Obj2 -> Obj3 [label="HORIZONTAL"];
	Obj6 -> Obj4 [label="RSUB"];
	Obj1 -> Obj2 [label="HORIZONTAL"];
	Obj5 -> Obj0 [label="RSUB"];
	
}
