digraph dag {
	rankdir=LR; ranksep=1.0;
	edge[fontsize=13,weight=1]; node[fontsize=13,shape=box]; graph[ordering=out];

	/* NODES (OBJECTS) */
	Obj0 [label="T\nObj0\n1 2", color = blue];
	Obj1 [label="RightPar\nObj1\n0", color = blue];
	Obj2 [label="G\nObj2\n3", color = blue];
	Obj3 [label="LeftPar\nObj3\n5", color = blue];
	Obj4 [label="M\nObj4\n4", color = blue];
	Obj5 [label="comma\nObj5\n6", color = blue];
	
	/* EDGES (OBJECT RELATIONSHIPS)    */
	Obj4 -> Obj1 [label="HORIZONTAL\n(_)\n",color=red,fontcolor=red,penwidth=3];
	Obj3 -> Obj2 [label="HORIZONTAL"];
	Obj0 -> Obj4 [label="RSUB"];
	Obj2 -> Obj0 [label="HORIZONTAL"];
	Obj2 -> Obj5 [label="PUNC"];
	
}
