digraph dag {
	rankdir=LR; ranksep=1.0;
	edge[fontsize=13,weight=1]; node[fontsize=13,shape=box]; graph[ordering=out];

	/* NODES (OBJECTS) */
	Obj0 [label="A\nObj0\n1", color = blue];
	Obj1 [label="alpha\nObj1\n0", color = blue];
	Obj2 [label="alpha\nObj2\n3", color = blue];
	Obj3 [label="in\nObj3\n2", color = blue];
	Obj4 [label="doubleprime\nObj4\n5 6", color = blue];
	Obj5 [label="Gamma\nObj5\n4", color = blue];
	Obj6 [label="comma\nObj6\n7", color = blue];
	
	/* EDGES (OBJECT RELATIONSHIPS)    */
	Obj1 -> Obj6 [label="HORIZONTAL\n(_)\n",color=red,fontcolor=red,penwidth=3];
	Obj2 -> Obj3 [label="HORIZONTAL"];
	Obj5 -> Obj4 [label="RSUP"];
	Obj3 -> Obj0 [label="HORIZONTAL"];
	Obj5 -> Obj2 [label="HORIZONTAL"];
	Obj5 -> Obj1 [label="RSUB"];
	
}
