digraph dag {
	rankdir=LR; ranksep=1.0;
	edge[fontsize=13,weight=1]; node[fontsize=13,shape=box]; graph[ordering=out];

	/* NODES (OBJECTS) */
	Obj0 [label="BigLeftPar\nObj0\n1", color = blue];
	Obj1 [label="BigRightPar\nObj1\n0", color = blue];
	Obj2 [label="a\nObj2\n3", color = blue];
	Obj3 [label="zero\nObj3\n2", color = blue];
	
	/* EDGES (OBJECT RELATIONSHIPS)    */
	Obj0 -> Obj3 [label="RSUB\n(_)\n",color=red,fontcolor=red,penwidth=3];
	Obj3 -> Obj1 [label="HORIZONTAL\n(_)\n",color=red,fontcolor=red,penwidth=3];
	Obj0 -> Obj2 [label="HORIZONTAL\n(_)\n",color=red,fontcolor=red,penwidth=3];
	
}
