digraph dag {
	rankdir=LR; ranksep=1.0;
	edge[fontsize=13,weight=1]; node[fontsize=13,shape=box]; graph[ordering=out];

	/* NODES (OBJECTS) */
	Obj0 [label="equal\nObj0\n11 12", color = blue];
	Obj1 [label="cdots\nObj1\n10 8 9", color = blue];
	Obj10 [label="p\nObj10\n6", color = blue];
	Obj2 [label="e\nObj2\n13", color = blue];
	Obj3 [label="p\nObj3\n1", color = blue];
	Obj4 [label="r\nObj4\n0", color = blue];
	Obj5 [label="r\nObj5\n3", color = blue];
	Obj6 [label="one\nObj6\n2", color = blue];
	Obj7 [label="n\nObj7\n5", color = blue];
	Obj8 [label="e\nObj8\n4", color = blue];
	Obj9 [label="one\nObj9\n7", color = blue];
	
	/* EDGES (OBJECT RELATIONSHIPS)    */
	Obj2 -> Obj9 [label="HORIZONTAL\n(RSUB)\n",color=red,fontcolor=red,penwidth=3];
	Obj3 -> Obj6 [label="RSUB"];
	Obj0 -> Obj3 [label="HORIZONTAL"];
	Obj1 -> Obj10 [label="HORIZONTAL"];
	Obj10 -> Obj4 [label="RSUB"];
	Obj7 -> Obj0 [label="HORIZONTAL"];
	Obj3 -> Obj1 [label="HORIZONTAL"];
	Obj3 -> Obj2 [label="RSUP"];
	Obj8 -> Obj5 [label="RSUB"];
	Obj10 -> Obj8 [label="RSUP"];
	
}
