digraph dag {
	rankdir=LR; ranksep=1.0;
	edge[fontsize=13,weight=1]; node[fontsize=13,shape=box]; graph[ordering=out];

	/* NODES (OBJECTS) */
	Obj0 [label="RightPar\nObj0\n11", color = blue];
	Obj1 [label="x\nObj1\n10", color = blue];
	Obj10 [label="one\nObj10\n0", color = blue];
	Obj11 [label="semicolon\nObj11\n2 3", color = blue];
	Obj12 [label="prime\nObj12\n5", color = blue];
	Obj13 [label="minus\nObj13\n4", color = blue];
	Obj14 [label="LeftPar\nObj14\n7", color = blue];
	Obj15 [label="K\nObj15\n6", color = blue];
	Obj16 [label="xi\nObj16\n9", color = blue];
	Obj17 [label="zero\nObj17\n8", color = blue];
	Obj2 [label="leq\nObj2\n13 14", color = blue];
	Obj3 [label="RightPar\nObj3\n12", color = blue];
	Obj4 [label="r\nObj4\n15", color = blue];
	Obj5 [label="comma\nObj5\n17", color = blue];
	Obj6 [label="D\nObj6\n16", color = blue];
	Obj7 [label="zero\nObj7\n19", color = blue];
	Obj8 [label="LeftPar\nObj8\n18", color = blue];
	Obj9 [label="zero\nObj9\n1", color = blue];
	
	/* EDGES (OBJECT RELATIONSHIPS)    */
	Obj16 -> Obj5 [label="RSUP\n(_)\n",color=red,fontcolor=red,penwidth=3];
	Obj1 -> Obj9 [label="RSUB"];
	Obj16 -> Obj3 [label="HORIZONTAL"];
	Obj15 -> Obj14 [label="HORIZONTAL"];
	Obj6 -> Obj7 [label="RSUB"];
	Obj6 -> Obj11 [label="HORIZONTAL"];
	Obj14 -> Obj6 [label="HORIZONTAL"];
	Obj0 -> Obj13 [label="RSUP"];
	Obj2 -> Obj8 [label="HORIZONTAL"];
	Obj3 -> Obj2 [label="HORIZONTAL"];
	Obj13 -> Obj10 [label="HORIZONTAL"];
	Obj1 -> Obj16 [label="HORIZONTAL"];
	Obj4 -> Obj12 [label="RSUP"];
	Obj8 -> Obj4 [label="HORIZONTAL"];
	Obj16 -> Obj17 [label="RSUB"];
	Obj11 -> Obj1 [label="HORIZONTAL"];
	Obj4 -> Obj0 [label="HORIZONTAL"];
	
}
