digraph dag {
	rankdir=LR; ranksep=1.0;
	edge[fontsize=13,weight=1]; node[fontsize=13,shape=box]; graph[ordering=out];

	/* NODES (OBJECTS) */
	Obj0 [label="one\nObj0\n11", color = blue];
	Obj1 [label="equal\nObj1\n10 9", color = blue];
	Obj10 [label="cdot\nObj10\n4", color = blue];
	Obj11 [label="e\nObj11\n7", color = blue];
	Obj12 [label="cdot\nObj12\n6", color = blue];
	Obj13 [label="RightPar\nObj13\n8", color = blue];
	Obj2 [label="LeftPar\nObj2\n13", color = blue];
	Obj3 [label="two\nObj3\n12", color = blue];
	Obj4 [label="r\nObj4\n15", color = blue];
	Obj5 [label="comma\nObj5\n14", color = blue];
	Obj6 [label="geqq\nObj6\n16 17 18", color = blue];
	Obj7 [label="i\nObj7\n0 1", color = blue];
	Obj8 [label="i\nObj8\n2 3", color = blue];
	Obj9 [label="comma\nObj9\n5", color = blue];
	
	/* EDGES (OBJECT RELATIONSHIPS)    */
	Obj5 -> Obj9 [label="HORIZONTAL\n(_)\n",color=red,fontcolor=red,penwidth=3];
	Obj11 -> Obj8 [label="RSUB"];
	Obj1 -> Obj0 [label="HORIZONTAL"];
	Obj0 -> Obj12 [label="HORIZONTAL"];
	Obj11 -> Obj6 [label="HORIZONTAL"];
	Obj10 -> Obj4 [label="HORIZONTAL"];
	Obj12 -> Obj10 [label="HORIZONTAL"];
	Obj7 -> Obj1 [label="HORIZONTAL"];
	Obj0 -> Obj5 [label="PUNC"];
	Obj3 -> Obj2 [label="HORIZONTAL"];
	Obj2 -> Obj7 [label="HORIZONTAL"];
	Obj4 -> Obj13 [label="HORIZONTAL"];
	Obj6 -> Obj3 [label="HORIZONTAL"];
	
}
