digraph dag {
	rankdir=LR; ranksep=1.0;
	edge[fontsize=13,weight=1]; node[fontsize=13,shape=box]; graph[ordering=out];

	/* NODES (OBJECTS) */
	Obj0 [label="one\nObj0\n24", color = blue];
	Obj1 [label="q\nObj1\n25", color = blue];
	Obj10 [label="tilde\nObj10\n0", color = blue];
	Obj11 [label="k\nObj11\n3", color = blue];
	Obj12 [label="RightPar\nObj12\n2", color = blue];
	Obj13 [label="p\nObj13\n5", color = blue];
	Obj14 [label="c\nObj14\n4", color = blue];
	Obj15 [label="p\nObj15\n7", color = blue];
	Obj16 [label="zero\nObj16\n6", color = blue];
	Obj17 [label="tilde\nObj17\n9", color = blue];
	Obj18 [label="q\nObj18\n8", color = blue];
	Obj19 [label="leq\nObj19\n11 12", color = blue];
	Obj2 [label="tilde\nObj2\n26", color = blue];
	Obj20 [label="plus\nObj20\n10", color = blue];
	Obj21 [label="tilde\nObj21\n13", color = blue];
	Obj22 [label="D\nObj22\n15", color = blue];
	Obj23 [label="D\nObj23\n14", color = blue];
	Obj24 [label="LeftPar\nObj24\n17", color = blue];
	Obj25 [label="zero\nObj25\n16", color = blue];
	Obj26 [label="comma\nObj26\n33", color = blue];
	Obj27 [label="comma\nObj27\n32", color = blue];
	Obj28 [label="plus\nObj28\n31", color = blue];
	Obj29 [label="epsilon\nObj29\n30", color = blue];
	Obj3 [label="RightPar\nObj3\n27", color = blue];
	Obj30 [label="zero\nObj30\n19", color = blue];
	Obj31 [label="LeftPar\nObj31\n18", color = blue];
	Obj4 [label="c\nObj4\n20", color = blue];
	Obj5 [label="epsilon\nObj5\n21 22", color = blue];
	Obj6 [label="k\nObj6\n23", color = blue];
	Obj7 [label="RightPar\nObj7\n28", color = blue];
	Obj8 [label="LeftPar\nObj8\n29", color = blue];
	Obj9 [label="c\nObj9\n1", color = blue];
	
	/* EDGES (OBJECT RELATIONSHIPS)    */
	Obj16 -> Obj26 [label="RSUB\n(_)\n",color=red,fontcolor=red,penwidth=3];
	Obj19 -> Obj31 [label="HORIZONTAL"];
	Obj24 -> Obj15 [label="HORIZONTAL"];
	Obj18 -> Obj25 [label="RSUB"];
	Obj31 -> Obj0 [label="HORIZONTAL"];
	Obj6 -> Obj24 [label="HORIZONTAL"];
	Obj0 -> Obj28 [label="HORIZONTAL"];
	Obj11 -> Obj22 [label="RSUB"];
	Obj22 -> Obj14 [label="RSUB"];
	Obj1 -> Obj9 [label="RSUB"];
	Obj28 -> Obj5 [label="RSUP"];
	Obj3 -> Obj6 [label="HORIZONTAL"];
	Obj6 -> Obj23 [label="RSUB"];
	Obj13 -> Obj21 [label="UPPER"];
	Obj1 -> Obj7 [label="HORIZONTAL"];
	Obj18 -> Obj2 [label="UPPER"];
	Obj1 -> Obj17 [label="UPPER"];
	Obj11 -> Obj8 [label="HORIZONTAL"];
	Obj12 -> Obj20 [label="HORIZONTAL"];
	Obj15 -> Obj16 [label="RSUB"];
	Obj13 -> Obj27 [label="PUNC"];
	Obj23 -> Obj30 [label="RSUB"];
	Obj18 -> Obj12 [label="HORIZONTAL"];
	Obj7 -> Obj19 [label="HORIZONTAL"];
	Obj8 -> Obj13 [label="HORIZONTAL"];
	Obj15 -> Obj18 [label="HORIZONTAL"];
	Obj28 -> Obj3 [label="HORIZONTAL"];
	Obj13 -> Obj1 [label="HORIZONTAL"];
	Obj13 -> Obj4 [label="RSUB"];
	Obj20 -> Obj29 [label="HORIZONTAL"];
	Obj15 -> Obj10 [label="UPPER"];
	
}
