digraph dag {
	rankdir=LR; ranksep=1.0;
	edge[fontsize=13,weight=1]; node[fontsize=13,shape=box]; graph[ordering=out];

	/* NODES (OBJECTS) */
	Obj0 [label="equal\nObj0\n24 25 26", color = blue];
	Obj1 [label="equal\nObj1\n27 28", color = blue];
	Obj10 [label="equal\nObj10\n4 5", color = blue];
	Obj11 [label="ast\nObj11\n7", color = blue];
	Obj12 [label="one\nObj12\n6", color = blue];
	Obj13 [label="c\nObj13\n9", color = blue];
	Obj14 [label="three\nObj14\n8", color = blue];
	Obj15 [label="five\nObj15\n11 12", color = blue];
	Obj16 [label="RightPar\nObj16\n10", color = blue];
	Obj17 [label="c\nObj17\n13", color = blue];
	Obj18 [label="five\nObj18\n15", color = blue];
	Obj19 [label="one\nObj19\n14", color = blue];
	Obj2 [label="one\nObj2\n20 21", color = blue];
	Obj20 [label="RightPar\nObj20\n17", color = blue];
	Obj21 [label="RightPar\nObj21\n16", color = blue];
	Obj22 [label="two\nObj22\n19", color = blue];
	Obj23 [label="six\nObj23\n18", color = blue];
	Obj24 [label="zero\nObj24\n30", color = blue];
	Obj3 [label="ast\nObj3\n22", color = blue];
	Obj4 [label="LeftPar\nObj4\n23", color = blue];
	Obj5 [label="ast\nObj5\n29", color = blue];
	Obj6 [label="one\nObj6\n1", color = blue];
	Obj7 [label="c\nObj7\n0", color = blue];
	Obj8 [label="LeftPar\nObj8\n3", color = blue];
	Obj9 [label="LeftPar\nObj9\n2", color = blue];
	
	/* EDGES (OBJECT RELATIONSHIPS)    */
	Obj5 -> Obj4 [label="RSUB\n(_)\n",color=red,fontcolor=red,penwidth=3];
	Obj11 -> Obj9 [label="RSUB\n(_)\n",color=red,fontcolor=red,penwidth=3];
	Obj3 -> Obj8 [label="RSUB\n(_)\n",color=red,fontcolor=red,penwidth=3];
	Obj14 -> Obj15 [label="HORIZONTAL"];
	Obj17 -> Obj3 [label="RSUP"];
	Obj10 -> Obj7 [label="HORIZONTAL"];
	Obj21 -> Obj0 [label="HORIZONTAL"];
	Obj22 -> Obj18 [label="HORIZONTAL"];
	Obj4 -> Obj2 [label="HORIZONTAL"];
	Obj23 -> Obj16 [label="HORIZONTAL"];
	Obj18 -> Obj20 [label="HORIZONTAL"];
	Obj16 -> Obj10 [label="HORIZONTAL"];
	Obj7 -> Obj11 [label="RSUP"];
	Obj2 -> Obj23 [label="HORIZONTAL"];
	Obj20 -> Obj1 [label="HORIZONTAL"];
	Obj15 -> Obj21 [label="HORIZONTAL"];
	Obj17 -> Obj19 [label="RSUB"];
	Obj1 -> Obj24 [label="HORIZONTAL"];
	Obj13 -> Obj12 [label="RSUB"];
	Obj7 -> Obj6 [label="RSUB"];
	Obj9 -> Obj22 [label="HORIZONTAL"];
	Obj0 -> Obj13 [label="HORIZONTAL"];
	Obj8 -> Obj14 [label="HORIZONTAL"];
	Obj13 -> Obj5 [label="RSUP"];
	
}
