digraph dag {
	rankdir=LR; ranksep=1.0;
	edge[fontsize=13,weight=1]; node[fontsize=13,shape=box]; graph[ordering=out];

	/* NODES (OBJECTS) */
	Obj0 [label="X\nObj0\n1", color = blue];
	Obj1 [label="two\nObj1\n0", color = blue];
	Obj2 [label="equal\nObj2\n2 3", color = blue];
	Obj3 [label="i\nObj3\n5 6", color = blue];
	Obj4 [label="m\nObj4\n4", color = blue];
	Obj5 [label="d\nObj5\n7", color = blue];
	Obj6 [label="T\nObj6\n8", color = blue];
	
	/* EDGES (OBJECT RELATIONSHIPS)    */
	Obj1 -> Obj6 [label="LSUB\n(_)\n",color=red,fontcolor=red,penwidth=3];
	Obj0 -> Obj2 [label="HORIZONTAL"];
	Obj2 -> Obj1 [label="HORIZONTAL"];
	Obj4 -> Obj0 [label="HORIZONTAL"];
	Obj5 -> Obj3 [label="HORIZONTAL"];
	Obj3 -> Obj4 [label="HORIZONTAL"];
	
}
