digraph dag {
	rankdir=LR; ranksep=1.0;
	edge[fontsize=13,weight=1]; node[fontsize=13,shape=box]; graph[ordering=out];

	/* NODES (OBJECTS) */
	Obj0 [label="l\nObj0\n11", color = blue];
	Obj1 [label="Delta\nObj1\n10", color = blue];
	Obj10 [label="H\nObj10\n3", color = blue];
	Obj11 [label="l\nObj11\n2", color = blue];
	Obj12 [label="varphi\nObj12\n5", color = blue];
	Obj13 [label="ast\nObj13\n4", color = blue];
	Obj14 [label="one\nObj14\n7", color = blue];
	Obj15 [label="in\nObj15\n6", color = blue];
	Obj16 [label="comma\nObj16\n9", color = blue];
	Obj17 [label="LeftPar\nObj17\n8", color = blue];
	Obj2 [label="MiddleLeftPar\nObj2\n13", color = blue];
	Obj3 [label="MiddleRightPar\nObj3\n12", color = blue];
	Obj4 [label="o\nObj4\n15", color = blue];
	Obj5 [label="U\nObj5\n14", color = blue];
	Obj6 [label="RightPar\nObj6\n17", color = blue];
	Obj7 [label="l\nObj7\n16", color = blue];
	Obj8 [label="l\nObj8\n1", color = blue];
	Obj9 [label="infty\nObj9\n0", color = blue];
	
	/* EDGES (OBJECT RELATIONSHIPS)    */
	Obj0 -> Obj16 [label="HORIZONTAL\n(_)\n",color=red,fontcolor=red,penwidth=3];
	Obj1 -> Obj0 [label="RSUB"];
	Obj3 -> Obj14 [label="RSUB"];
	Obj5 -> Obj8 [label="RSUB"];
	Obj17 -> Obj1 [label="HORIZONTAL"];
	Obj5 -> Obj13 [label="RSUP"];
	Obj4 -> Obj7 [label="HORIZONTAL"];
	Obj10 -> Obj4 [label="HORIZONTAL"];
	Obj5 -> Obj6 [label="HORIZONTAL"];
	Obj7 -> Obj17 [label="HORIZONTAL"];
	Obj15 -> Obj10 [label="HORIZONTAL"];
	Obj12 -> Obj11 [label="RSUB"];
	Obj3 -> Obj9 [label="RSUP"];
	Obj1 -> Obj5 [label="HORIZONTAL"];
	Obj12 -> Obj15 [label="HORIZONTAL"];
	Obj2 -> Obj12 [label="HORIZONTAL"];
	Obj6 -> Obj3 [label="HORIZONTAL"];
	
}
