digraph dag {
	rankdir=LR; ranksep=1.0;
	edge[fontsize=13,weight=1]; node[fontsize=13,shape=box]; graph[ordering=out];

	/* NODES (OBJECTS) */
	Obj0 [label="comma\nObj0\n11", color = blue];
	Obj1 [label="B\nObj1\n10", color = blue];
	Obj10 [label="one\nObj10\n2", color = blue];
	Obj11 [label="K\nObj11\n7", color = blue];
	Obj12 [label="BigLeftPar\nObj12\n6", color = blue];
	Obj13 [label="r\nObj13\n9", color = blue];
	Obj14 [label="comma\nObj14\n8", color = blue];
	Obj2 [label="equal\nObj2\n12 13", color = blue];
	Obj3 [label="u\nObj3\n15", color = blue];
	Obj4 [label="BigRightPar\nObj4\n14", color = blue];
	Obj5 [label="A\nObj5\n17", color = blue];
	Obj6 [label="bigotimes\nObj6\n16", color = blue];
	Obj7 [label="K\nObj7\n1", color = blue];
	Obj8 [label="u\nObj8\n0", color = blue];
	Obj9 [label="ldots\nObj9\n3 4 5", color = blue];
	
	/* EDGES (OBJECT RELATIONSHIPS)    */
	Obj3 -> Obj0 [label="UNDER\n(_)\n",color=red,fontcolor=red,penwidth=3];
	Obj6 -> Obj1 [label="RSUB"];
	Obj5 -> Obj2 [label="HORIZONTAL"];
	Obj11 -> Obj6 [label="HORIZONTAL"];
	Obj8 -> Obj3 [label="HORIZONTAL"];
	Obj6 -> Obj5 [label="HORIZONTAL"];
	Obj0 -> Obj9 [label="HORIZONTAL"];
	Obj9 -> Obj14 [label="HORIZONTAL"];
	Obj2 -> Obj7 [label="HORIZONTAL"];
	Obj7 -> Obj12 [label="HORIZONTAL"];
	Obj3 -> Obj4 [label="HORIZONTAL"];
	Obj12 -> Obj8 [label="HORIZONTAL"];
	Obj8 -> Obj10 [label="RSUB"];
	Obj3 -> Obj13 [label="RSUB"];
	
}
