digraph dag {
	rankdir=LR; ranksep=1.0;
	edge[fontsize=13,weight=1]; node[fontsize=13,shape=box]; graph[ordering=out];

	/* NODES (OBJECTS) */
	Obj0 [label="zero\nObj0\n11", color = blue];
	Obj1 [label="overline\nObj1\n10", color = blue];
	Obj10 [label="comma\nObj10\n5", color = blue];
	Obj11 [label="zero\nObj11\n4", color = blue];
	Obj12 [label="zero\nObj12\n7", color = blue];
	Obj13 [label="x\nObj13\n6", color = blue];
	Obj14 [label="D\nObj14\n9", color = blue];
	Obj15 [label="Q\nObj15\n8", color = blue];
	Obj2 [label="equal\nObj2\n13 14", color = blue];
	Obj3 [label="zero\nObj3\n12", color = blue];
	Obj4 [label="zero\nObj4\n15", color = blue];
	Obj5 [label="V\nObj5\n16", color = blue];
	Obj6 [label="T\nObj6\n1", color = blue];
	Obj7 [label="in\nObj7\n0", color = blue];
	Obj8 [label="Q\nObj8\n3", color = blue];
	Obj9 [label="comma\nObj9\n2", color = blue];
	
	/* EDGES (OBJECT RELATIONSHIPS)    */
	Obj4 -> Obj10 [label="RSUB\n(_)\n",color=red,fontcolor=red,penwidth=3];
	Obj11 -> Obj9 [label="RSUB\n(_)\n",color=red,fontcolor=red,penwidth=3];
	Obj13 -> Obj7 [label="HORIZONTAL"];
	Obj5 -> Obj13 [label="HORIZONTAL"];
	Obj14 -> Obj8 [label="HORIZONTAL"];
	Obj8 -> Obj2 [label="HORIZONTAL"];
	Obj13 -> Obj3 [label="RSUB"];
	Obj7 -> Obj15 [label="HORIZONTAL"];
	Obj8 -> Obj12 [label="RSUB"];
	Obj15 -> Obj0 [label="RSUB"];
	Obj5 -> Obj11 [label="RSUB"];
	Obj6 -> Obj14 [label="HORIZONTAL"];
	Obj2 -> Obj5 [label="HORIZONTAL"];
	Obj14 -> Obj4 [label="RSUB"];
	Obj5 -> Obj1 [label="UPPER"];
	
}
