digraph dag {
	rankdir=LR; ranksep=1.0;
	edge[fontsize=13,weight=1]; node[fontsize=13,shape=box]; graph[ordering=out];

	/* NODES (OBJECTS) */
	Obj0 [label="two\nObj0\n11", color = blue];
	Obj1 [label="equal\nObj1\n10 9", color = blue];
	Obj10 [label="m\nObj10\n7", color = blue];
	Obj11 [label="K\nObj11\n8", color = blue];
	Obj2 [label="two\nObj2\n13", color = blue];
	Obj3 [label="X\nObj3\n12", color = blue];
	Obj4 [label="two\nObj4\n15", color = blue];
	Obj5 [label="D\nObj5\n14", color = blue];
	Obj6 [label="n\nObj6\n16", color = blue];
	Obj7 [label="i\nObj7\n0 1", color = blue];
	Obj8 [label="equal\nObj8\n2 3", color = blue];
	Obj9 [label="K\nObj9\n4 5 6", color = blue];
	
	/* EDGES (OBJECT RELATIONSHIPS)    */
	Obj2 -> Obj1 [label="HORIZONTAL\n(_)\n",color=red,fontcolor=red,penwidth=3];
	Obj11 -> Obj2 [label="HORIZONTAL\n(_)\n",color=red,fontcolor=red,penwidth=3];
	Obj5 -> Obj8 [label="HORIZONTAL"];
	Obj9 -> Obj3 [label="RSUB"];
	Obj5 -> Obj4 [label="RSUP"];
	Obj10 -> Obj7 [label="HORIZONTAL"];
	Obj3 -> Obj0 [label="RSUP"];
	Obj11 -> Obj10 [label="RSUB"];
	Obj7 -> Obj6 [label="HORIZONTAL"];
	Obj8 -> Obj11 [label="HORIZONTAL"];
	Obj1 -> Obj9 [label="HORIZONTAL"];
	
}
