digraph dag {
	rankdir=LR; ranksep=1.0;
	edge[fontsize=13,weight=1]; node[fontsize=13,shape=box]; graph[ordering=out];

	/* NODES (OBJECTS) */
	Obj0 [label="RightPar\nObj0\n11", color = blue];
	Obj1 [label="BigRightPar\nObj1\n10", color = blue];
	Obj10 [label="overline\nObj10\n3", color = blue];
	Obj11 [label="BigLeftPar\nObj11\n2", color = blue];
	Obj12 [label="equal\nObj12\n4 5", color = blue];
	Obj13 [label="rho\nObj13\n7", color = blue];
	Obj14 [label="LeftPar\nObj14\n6", color = blue];
	Obj15 [label="LeftPar\nObj15\n9", color = blue];
	Obj16 [label="G\nObj16\n15", color = blue];
	Obj17 [label="LeftPar\nObj17\n8", color = blue];
	Obj2 [label="i\nObj2\n13 14", color = blue];
	Obj3 [label="RightPar\nObj3\n12", color = blue];
	Obj4 [label="G\nObj4\n20", color = blue];
	Obj5 [label="ihat\nObj5\n17 18", color = blue];
	Obj6 [label="BigLeftPar\nObj6\n16", color = blue];
	Obj7 [label="hat\nObj7\n19", color = blue];
	Obj8 [label="BigRightPar\nObj8\n1", color = blue];
	Obj9 [label="RightPar\nObj9\n0", color = blue];
	
	/* EDGES (OBJECT RELATIONSHIPS)    */
	Obj14 -> Obj17 [label="HORIZONTAL\n(_)\n",color=red,fontcolor=red,penwidth=3];
	Obj7 -> Obj10 [label="HORIZONTAL\n(_)\n",color=red,fontcolor=red,penwidth=3];
	Obj14 -> Obj2 [label="RSUP\n(HORIZONTAL)\n",color=red,fontcolor=red,penwidth=3];
	Obj1 -> Obj0 [label="HORIZONTAL"];
	Obj12 -> Obj13 [label="HORIZONTAL"];
	Obj5 -> Obj15 [label="HORIZONTAL"];
	Obj16 -> Obj8 [label="HORIZONTAL"];
	Obj8 -> Obj3 [label="HORIZONTAL"];
	Obj11 -> Obj7 [label="UPPER"];
	Obj13 -> Obj14 [label="HORIZONTAL"];
	Obj0 -> Obj9 [label="HORIZONTAL"];
	Obj6 -> Obj4 [label="HORIZONTAL"];
	Obj4 -> Obj1 [label="HORIZONTAL"];
	Obj17 -> Obj6 [label="HORIZONTAL"];
	Obj3 -> Obj12 [label="HORIZONTAL"];
	Obj11 -> Obj16 [label="HORIZONTAL"];
	Obj15 -> Obj11 [label="HORIZONTAL"];
	
}
