digraph dag {
	rankdir=LR; ranksep=1.0;
	edge[fontsize=13,weight=1]; node[fontsize=13,shape=box]; graph[ordering=out];

	/* NODES (OBJECTS) */
	Obj0 [label="comma\nObj0\n11", color = blue];
	Obj1 [label="comma\nObj1\n10", color = blue];
	Obj2 [label="cdots\nObj2\n0 1 2", color = blue];
	Obj3 [label="two\nObj3\n3", color = blue];
	Obj4 [label="lambda\nObj4\n5", color = blue];
	Obj5 [label="lambda\nObj5\n4", color = blue];
	Obj6 [label="lambda\nObj6\n7", color = blue];
	Obj7 [label="one\nObj7\n6", color = blue];
	Obj8 [label="comma\nObj8\n9", color = blue];
	Obj9 [label="zero\nObj9\n8", color = blue];
	
	/* EDGES (OBJECT RELATIONSHIPS)    */
	Obj9 -> Obj0 [label="RSUB\n(_)\n",color=red,fontcolor=red,penwidth=3];
	Obj7 -> Obj1 [label="HORIZONTAL\n(_)\n",color=red,fontcolor=red,penwidth=3];
	Obj3 -> Obj8 [label="HORIZONTAL\n(_)\n",color=red,fontcolor=red,penwidth=3];
	Obj5 -> Obj7 [label="RSUB"];
	Obj5 -> Obj4 [label="HORIZONTAL"];
	Obj4 -> Obj3 [label="RSUB"];
	Obj6 -> Obj5 [label="HORIZONTAL"];
	Obj6 -> Obj9 [label="RSUB"];
	Obj4 -> Obj2 [label="HORIZONTAL"];
	
}
