digraph dag {
	rankdir=LR; ranksep=1.0;
	edge[fontsize=13,weight=1]; node[fontsize=13,shape=box]; graph[ordering=out];

	/* NODES (OBJECTS) */
	Obj0 [label="RightPar\nObj0\n1", color = blue];
	Obj1 [label="LeftPar\nObj1\n0", color = blue];
	Obj2 [label="zero\nObj2\n3", color = blue];
	Obj3 [label="xi\nObj3\n2", color = blue];
	Obj4 [label="delta\nObj4\n5", color = blue];
	Obj5 [label="in\nObj5\n4", color = blue];
	Obj6 [label="c\nObj6\n7", color = blue];
	Obj7 [label="Delta\nObj7\n6", color = blue];
	
	/* EDGES (OBJECT RELATIONSHIPS)    */
	Obj7 -> Obj4 [label="RSUB\n(HORIZONTAL)\n",color=red,fontcolor=red,penwidth=3];
	Obj5 -> Obj7 [label="HORIZONTAL"];
	Obj3 -> Obj0 [label="HORIZONTAL"];
	Obj6 -> Obj5 [label="HORIZONTAL"];
	Obj3 -> Obj2 [label="RSUB"];
	Obj4 -> Obj1 [label="HORIZONTAL"];
	Obj1 -> Obj3 [label="HORIZONTAL"];
	
}
