digraph dag {
	rankdir=LR; ranksep=1.0;
	edge[fontsize=13,weight=1]; node[fontsize=13,shape=box]; graph[ordering=out];

	/* NODES (OBJECTS) */
	Obj0 [label="lambda\nObj0\n24", color = blue];
	Obj1 [label="M\nObj1\n25 26 27", color = blue];
	Obj10 [label="RightPar\nObj10\n2", color = blue];
	Obj11 [label="j\nObj11\n4 5", color = blue];
	Obj12 [label="RightPar\nObj12\n7", color = blue];
	Obj13 [label="LeftPar\nObj13\n6", color = blue];
	Obj14 [label="RightPar\nObj14\n9", color = blue];
	Obj15 [label="k\nObj15\n8", color = blue];
	Obj16 [label="minus\nObj16\n12", color = blue];
	Obj17 [label="RightPar\nObj17\n11", color = blue];
	Obj18 [label="int\nObj18\n10", color = blue];
	Obj19 [label="nu\nObj19\n13", color = blue];
	Obj2 [label="LeftPar\nObj2\n20", color = blue];
	Obj20 [label="nu\nObj20\n38", color = blue];
	Obj21 [label="R\nObj21\n15", color = blue];
	Obj22 [label="l\nObj22\n14", color = blue];
	Obj23 [label="l\nObj23\n17", color = blue];
	Obj24 [label="minus\nObj24\n16", color = blue];
	Obj25 [label="LeftPar\nObj25\n19", color = blue];
	Obj26 [label="d\nObj26\n32", color = blue];
	Obj27 [label="LeftPar\nObj27\n31", color = blue];
	Obj28 [label="equal\nObj28\n36 37", color = blue];
	Obj29 [label="minus\nObj29\n35", color = blue];
	Obj3 [label="j\nObj3\n21 22", color = blue];
	Obj30 [label="nu\nObj30\n34", color = blue];
	Obj31 [label="l\nObj31\n33", color = blue];
	Obj32 [label="rho\nObj32\n18", color = blue];
	Obj4 [label="RightPar\nObj4\n23", color = blue];
	Obj5 [label="k\nObj5\n28", color = blue];
	Obj6 [label="j\nObj6\n29 30", color = blue];
	Obj7 [label="lambda\nObj7\n1", color = blue];
	Obj8 [label="k\nObj8\n0", color = blue];
	Obj9 [label="LeftPar\nObj9\n3", color = blue];
	
	/* EDGES (OBJECT RELATIONSHIPS)    */
	Obj19 -> Obj27 [label="LSUP\n(_)\n",color=red,fontcolor=red,penwidth=3];
	Obj21 -> Obj3 [label="RSUB"];
	Obj2 -> Obj0 [label="HORIZONTAL"];
	Obj27 -> Obj7 [label="HORIZONTAL"];
	Obj20 -> Obj17 [label="HORIZONTAL"];
	Obj18 -> Obj19 [label="RSUP"];
	Obj26 -> Obj32 [label="HORIZONTAL"];
	Obj4 -> Obj29 [label="HORIZONTAL"];
	Obj28 -> Obj1 [label="HORIZONTAL"];
	Obj10 -> Obj26 [label="HORIZONTAL"];
	Obj6 -> Obj5 [label="HORIZONTAL"];
	Obj25 -> Obj31 [label="HORIZONTAL"];
	Obj18 -> Obj2 [label="HORIZONTAL"];
	Obj11 -> Obj8 [label="HORIZONTAL"];
	Obj9 -> Obj20 [label="HORIZONTAL"];
	Obj22 -> Obj14 [label="HORIZONTAL"];
	Obj23 -> Obj10 [label="HORIZONTAL"];
	Obj3 -> Obj15 [label="HORIZONTAL"];
	Obj21 -> Obj13 [label="HORIZONTAL"];
	Obj1 -> Obj6 [label="RSUB"];
	Obj18 -> Obj16 [label="RSUB"];
	Obj21 -> Obj9 [label="RSUP"];
	Obj32 -> Obj11 [label="RSUB"];
	Obj7 -> Obj12 [label="HORIZONTAL"];
	Obj13 -> Obj22 [label="HORIZONTAL"];
	Obj16 -> Obj30 [label="HORIZONTAL"];
	Obj14 -> Obj28 [label="HORIZONTAL"];
	Obj0 -> Obj24 [label="HORIZONTAL"];
	Obj1 -> Obj25 [label="HORIZONTAL"];
	Obj29 -> Obj18 [label="HORIZONTAL"];
	Obj24 -> Obj23 [label="HORIZONTAL"];
	Obj31 -> Obj4 [label="HORIZONTAL"];
	
}
