digraph dag {
	rankdir=LR; ranksep=1.0;
	edge[fontsize=13,weight=1]; node[fontsize=13,shape=box]; graph[ordering=out];

	/* NODES (OBJECTS) */
	Obj0 [label="two\nObj0\n1", color = blue];
	Obj1 [label="greater\nObj1\n0", color = blue];
	Obj2 [label="tau\nObj2\n3", color = blue];
	Obj3 [label="minus\nObj3\n2", color = blue];
	Obj4 [label="LeftPar\nObj4\n5", color = blue];
	Obj5 [label="RightPar\nObj5\n4", color = blue];
	Obj6 [label="less\nObj6\n7", color = blue];
	Obj7 [label="lambda\nObj7\n6", color = blue];
	Obj8 [label="one\nObj8\n9", color = blue];
	Obj9 [label="MiddleLeftPar\nObj9\n8", color = blue];
	
	/* EDGES (OBJECT RELATIONSHIPS)    */
	Obj8 -> Obj9 [label="HORIZONTAL\n(_)\n",color=red,fontcolor=red,penwidth=3];
	Obj9 -> Obj1 [label="RSUP\n(_)\n",color=red,fontcolor=red,penwidth=3];
	Obj9 -> Obj6 [label="RSUB\n(_)\n",color=red,fontcolor=red,penwidth=3];
	Obj7 -> Obj5 [label="HORIZONTAL"];
	Obj3 -> Obj8 [label="HORIZONTAL"];
	Obj4 -> Obj7 [label="HORIZONTAL"];
	Obj2 -> Obj0 [label="RSUP"];
	Obj5 -> Obj3 [label="HORIZONTAL"];
	Obj2 -> Obj4 [label="HORIZONTAL"];
	
}
