digraph dag {
	rankdir=LR; ranksep=1.0;
	edge[fontsize=13,weight=1]; node[fontsize=13,shape=box]; graph[ordering=out];

	/* NODES (OBJECTS) */
	Obj0 [label="one\nObj0\n1", color = blue];
	Obj1 [label="comma\nObj1\n0", color = blue];
	Obj2 [label="two\nObj2\n3", color = blue];
	Obj3 [label="s\nObj3\n2", color = blue];
	Obj4 [label="s\nObj4\n4", color = blue];
	
	/* EDGES (OBJECT RELATIONSHIPS)    */
	Obj0 -> Obj1 [label="HORIZONTAL\n(_)\n",color=red,fontcolor=red,penwidth=3];
	Obj4 -> Obj0 [label="RSUB"];
	Obj4 -> Obj3 [label="HORIZONTAL"];
	Obj3 -> Obj2 [label="RSUB"];
	
}
