digraph dag {
	rankdir=LR; ranksep=1.0;
	edge[fontsize=13,weight=1]; node[fontsize=13,shape=box]; graph[ordering=out];

	/* NODES (OBJECTS) */
	Obj0 [label="g\nObj0\n11", color = blue];
	Obj1 [label="a\nObj1\n10", color = blue];
	Obj10 [label="i\nObj10\n7 8", color = blue];
	Obj11 [label="prod\nObj11\n9", color = blue];
	Obj2 [label="comma\nObj2\n13", color = blue];
	Obj3 [label="BigLeftPar\nObj3\n12", color = blue];
	Obj4 [label="a\nObj4\n14", color = blue];
	Obj5 [label="equal\nObj5\n1 2", color = blue];
	Obj6 [label="b\nObj6\n0", color = blue];
	Obj7 [label="one\nObj7\n3", color = blue];
	Obj8 [label="i\nObj8\n5 6", color = blue];
	Obj9 [label="BigRightPar\nObj9\n4", color = blue];
	
	/* EDGES (OBJECT RELATIONSHIPS)    */
	Obj10 -> Obj2 [label="RSUB\n(_)\n",color=red,fontcolor=red,penwidth=3];
	Obj11 -> Obj7 [label="RSUB"];
	Obj4 -> Obj6 [label="HORIZONTAL"];
	Obj5 -> Obj11 [label="HORIZONTAL"];
	Obj4 -> Obj10 [label="RSUB"];
	Obj11 -> Obj3 [label="HORIZONTAL"];
	Obj1 -> Obj5 [label="HORIZONTAL"];
	Obj11 -> Obj0 [label="RSUP"];
	Obj3 -> Obj4 [label="HORIZONTAL"];
	Obj6 -> Obj9 [label="HORIZONTAL"];
	Obj6 -> Obj8 [label="RSUB"];
	
}
