digraph dag {
	rankdir=LR; ranksep=1.0;
	edge[fontsize=13,weight=1]; node[fontsize=13,shape=box]; graph[ordering=out];

	/* NODES (OBJECTS) */
	Obj0 [label="RightPar\nObj0\n11", color = blue];
	Obj1 [label="pi\nObj1\n10", color = blue];
	Obj10 [label="LeftPar\nObj10\n6", color = blue];
	Obj11 [label="rho\nObj11\n9", color = blue];
	Obj12 [label="a\nObj12\n8", color = blue];
	Obj2 [label="equal\nObj2\n12 13", color = blue];
	Obj3 [label="LeftPar\nObj3\n1", color = blue];
	Obj4 [label="RightPar\nObj4\n0", color = blue];
	Obj5 [label="epsilon\nObj5\n3", color = blue];
	Obj6 [label="E\nObj6\n2", color = blue];
	Obj7 [label="a\nObj7\n5", color = blue];
	Obj8 [label="E\nObj8\n4", color = blue];
	Obj9 [label="comma\nObj9\n7", color = blue];
	
	/* EDGES (OBJECT RELATIONSHIPS)    */
	Obj7 -> Obj9 [label="UNDER\n(_)\n",color=red,fontcolor=red,penwidth=3];
	Obj2 -> Obj3 [label="HORIZONTAL"];
	Obj5 -> Obj8 [label="RSUB"];
	Obj5 -> Obj7 [label="HORIZONTAL"];
	Obj7 -> Obj0 [label="HORIZONTAL"];
	Obj12 -> Obj4 [label="HORIZONTAL"];
	Obj11 -> Obj10 [label="HORIZONTAL"];
	Obj3 -> Obj1 [label="HORIZONTAL"];
	Obj10 -> Obj12 [label="HORIZONTAL"];
	Obj1 -> Obj5 [label="HORIZONTAL"];
	Obj0 -> Obj6 [label="RSUB"];
	Obj4 -> Obj2 [label="HORIZONTAL"];
	
}
