digraph dag {
	rankdir=LR; ranksep=1.0;
	edge[fontsize=13,weight=1]; node[fontsize=13,shape=box]; graph[ordering=out];

	/* NODES (OBJECTS) */
	Obj0 [label="a\nObj0\n11", color = blue];
	Obj1 [label="LeftPar\nObj1\n10", color = blue];
	Obj10 [label="minus\nObj10\n8", color = blue];
	Obj2 [label="RightPar\nObj2\n12", color = blue];
	Obj3 [label="n\nObj3\n1", color = blue];
	Obj4 [label="comma\nObj4\n0", color = blue];
	Obj5 [label="ldots\nObj5\n3 4 5", color = blue];
	Obj6 [label="one\nObj6\n2", color = blue];
	Obj7 [label="a\nObj7\n7", color = blue];
	Obj8 [label="comma\nObj8\n6", color = blue];
	Obj9 [label="one\nObj9\n9", color = blue];
	
	/* EDGES (OBJECT RELATIONSHIPS)    */
	Obj5 -> Obj1 [label="UNDER\n(_)\n",color=red,fontcolor=red,penwidth=3];
	Obj1 -> Obj0 [label="HORIZONTAL"];
	Obj4 -> Obj5 [label="HORIZONTAL"];
	Obj5 -> Obj8 [label="HORIZONTAL"];
	Obj10 -> Obj6 [label="HORIZONTAL"];
	Obj7 -> Obj2 [label="HORIZONTAL"];
	Obj0 -> Obj9 [label="RSUB"];
	Obj7 -> Obj3 [label="RSUB"];
	Obj0 -> Obj7 [label="HORIZONTAL"];
	Obj3 -> Obj10 [label="HORIZONTAL"];
	
}
