digraph dag {
	rankdir=LR; ranksep=1.0;
	edge[fontsize=13,weight=1]; node[fontsize=13,shape=box]; graph[ordering=out];

	/* NODES (OBJECTS) */
	Obj0 [label="O\nObj0\n1", color = blue];
	Obj1 [label="sqrt\nObj1\n0", color = blue];
	Obj2 [label="b\nObj2\n3", color = blue];
	Obj3 [label="comma\nObj3\n2", color = blue];
	Obj4 [label="c\nObj4\n5", color = blue];
	Obj5 [label="in\nObj5\n4", color = blue];
	Obj6 [label="alpha\nObj6\n7", color = blue];
	Obj7 [label="E\nObj7\n6", color = blue];
	
	/* EDGES (OBJECT RELATIONSHIPS)    */
	Obj6 -> Obj5 [label="HORIZONTAL\n(_)\n",color=red,fontcolor=red,penwidth=3];
	Obj2 -> Obj1 [label="HORIZONTAL"];
	Obj5 -> Obj0 [label="HORIZONTAL"];
	Obj1 -> Obj6 [label="UNDER"];
	Obj0 -> Obj7 [label="RSUB"];
	Obj4 -> Obj3 [label="PUNC"];
	Obj4 -> Obj2 [label="HORIZONTAL"];
	
}
