digraph dag {
	rankdir=LR; ranksep=1.0;
	edge[fontsize=13,weight=1]; node[fontsize=13,shape=box]; graph[ordering=out];

	/* NODES (OBJECTS) */
	Obj0 [label="RightPar\nObj0\n11", color = blue];
	Obj1 [label="LeftPar\nObj1\n10", color = blue];
	Obj10 [label="one\nObj10\n9", color = blue];
	Obj11 [label="f\nObj11\n8", color = blue];
	Obj2 [label="one\nObj2\n1", color = blue];
	Obj3 [label="LeftPar\nObj3\n0", color = blue];
	Obj4 [label="l\nObj4\n3", color = blue];
	Obj5 [label="rightarrow\nObj5\n2", color = blue];
	Obj6 [label="z\nObj6\n5", color = blue];
	Obj7 [label="z\nObj7\n4", color = blue];
	Obj8 [label="RightPar\nObj8\n7", color = blue];
	Obj9 [label="f\nObj9\n6", color = blue];
	
	/* EDGES (OBJECT RELATIONSHIPS)    */
	Obj7 -> Obj8 [label="LSUP\n(_)\n",color=red,fontcolor=red,penwidth=3];
	Obj4 -> Obj3 [label="RSUP\n(_)\n",color=red,fontcolor=red,penwidth=3];
	Obj8 -> Obj9 [label="LSUP\n(_)\n",color=red,fontcolor=red,penwidth=3];
	Obj3 -> Obj6 [label="HORIZONTAL"];
	Obj9 -> Obj4 [label="RSUB"];
	Obj6 -> Obj10 [label="RSUB"];
	Obj7 -> Obj2 [label="RSUB"];
	Obj1 -> Obj7 [label="HORIZONTAL"];
	Obj8 -> Obj5 [label="HORIZONTAL"];
	Obj5 -> Obj11 [label="HORIZONTAL"];
	Obj7 -> Obj0 [label="HORIZONTAL"];
	
}
