digraph dag {
	rankdir=LR; ranksep=1.0;
	edge[fontsize=13,weight=1]; node[fontsize=13,shape=box]; graph[ordering=out];

	/* NODES (OBJECTS) */
	Obj0 [label="less\nObj0\n1", color = blue];
	Obj1 [label="lambda\nObj1\n0", color = blue];
	Obj2 [label="zero\nObj2\n3", color = blue];
	Obj3 [label="less\nObj3\n2", color = blue];
	Obj4 [label="m\nObj4\n5", color = blue];
	Obj5 [label="lambda\nObj5\n4", color = blue];
	Obj6 [label="lambda\nObj6\n7", color = blue];
	Obj7 [label="comma\nObj7\n6", color = blue];
	Obj8 [label="m\nObj8\n8", color = blue];
	
	/* EDGES (OBJECT RELATIONSHIPS)    */
	Obj8 -> Obj7 [label="HORIZONTAL\n(_)\n",color=red,fontcolor=red,penwidth=3];
	Obj0 -> Obj2 [label="HORIZONTAL"];
	Obj6 -> Obj1 [label="HORIZONTAL"];
	Obj5 -> Obj4 [label="RSUB"];
	Obj1 -> Obj3 [label="HORIZONTAL"];
	Obj5 -> Obj0 [label="HORIZONTAL"];
	Obj3 -> Obj5 [label="HORIZONTAL"];
	Obj6 -> Obj8 [label="RSUB"];
	
}
