digraph dag {
	rankdir=LR; ranksep=1.0;
	edge[fontsize=13,weight=1]; node[fontsize=13,shape=box]; graph[ordering=out];

	/* NODES (OBJECTS) */
	Obj0 [label="equal\nObj0\n0 1", color = blue];
	Obj1 [label="LeftPar\nObj1\n3", color = blue];
	Obj2 [label="two\nObj2\n2", color = blue];
	Obj3 [label="m\nObj3\n5", color = blue];
	Obj4 [label="tau\nObj4\n4", color = blue];
	Obj5 [label="tau\nObj5\n7", color = blue];
	Obj6 [label="tau\nObj6\n6", color = blue];
	Obj7 [label="RightPar\nObj7\n8", color = blue];
	
	/* EDGES (OBJECT RELATIONSHIPS)    */
	Obj0 -> Obj1 [label="HORIZONTAL\n(_)\n",color=red,fontcolor=red,penwidth=3];
	Obj1 -> Obj4 [label="RSUB\n(_)\n",color=red,fontcolor=red,penwidth=3];
	Obj5 -> Obj7 [label="HORIZONTAL\n(_)\n",color=red,fontcolor=red,penwidth=3];
	Obj1 -> Obj6 [label="RSUP\n(_)\n",color=red,fontcolor=red,penwidth=3];
	Obj1 -> Obj5 [label="HORIZONTAL\n(_)\n",color=red,fontcolor=red,penwidth=3];
	Obj3 -> Obj0 [label="HORIZONTAL"];
	Obj3 -> Obj2 [label="RSUB"];
	
}
