digraph dag {
	rankdir=LR; ranksep=1.0;
	edge[fontsize=13,weight=1]; node[fontsize=13,shape=box]; graph[ordering=out];

	/* NODES (OBJECTS) */
	Obj0 [label="one\nObj0\n30", color = blue];
	Obj1 [label="RightPar\nObj1\n28", color = blue];
	Obj10 [label="LeftPar\nObj10\n46", color = blue];
	Obj11 [label="mu\nObj11\n47", color = blue];
	Obj12 [label="pi\nObj12\n44", color = blue];
	Obj13 [label="RightPar\nObj13\n45", color = blue];
	Obj14 [label="C\nObj14\n42", color = blue];
	Obj15 [label="a\nObj15\n29", color = blue];
	Obj16 [label="i\nObj16\n39 40", color = blue];
	Obj17 [label="zero\nObj17\n41", color = blue];
	Obj18 [label="i\nObj18\n0 1", color = blue];
	Obj19 [label="l\nObj19\n3", color = blue];
	Obj2 [label="minus\nObj2\n43", color = blue];
	Obj20 [label="minus\nObj20\n2", color = blue];
	Obj21 [label="rightarrow\nObj21\n5", color = blue];
	Obj22 [label="epsilon\nObj22\n4", color = blue];
	Obj23 [label="j\nObj23\n6 7", color = blue];
	Obj24 [label="equal\nObj24\n8 9", color = blue];
	Obj25 [label="zero\nObj25\n51", color = blue];
	Obj26 [label="two\nObj26\n12", color = blue];
	Obj27 [label="i\nObj27\n13 14", color = blue];
	Obj28 [label="l\nObj28\n11", color = blue];
	Obj29 [label="lambda\nObj29\n10", color = blue];
	Obj3 [label="epsilon\nObj3\n52", color = blue];
	Obj30 [label="LeftPar\nObj30\n38", color = blue];
	Obj31 [label="int\nObj31\n15", color = blue];
	Obj32 [label="k\nObj32\n48", color = blue];
	Obj33 [label="l\nObj33\n17", color = blue];
	Obj34 [label="RightPar\nObj34\n16", color = blue];
	Obj35 [label="plus\nObj35\n33", color = blue];
	Obj36 [label="mu\nObj36\n32", color = blue];
	Obj37 [label="rightarrow\nObj37\n31", color = blue];
	Obj38 [label="lambda\nObj38\n49", color = blue];
	Obj39 [label="comma\nObj39\n37", color = blue];
	Obj4 [label="m\nObj4\n24 25", color = blue];
	Obj40 [label="k\nObj40\n36", color = blue];
	Obj41 [label="RightPar\nObj41\n35", color = blue];
	Obj42 [label="LeftPar\nObj42\n34", color = blue];
	Obj43 [label="M\nObj43\n19", color = blue];
	Obj44 [label="l\nObj44\n18", color = blue];
	Obj45 [label="rho\nObj45\n50", color = blue];
	Obj5 [label="j\nObj5\n26 27", color = blue];
	Obj6 [label="m\nObj6\n20", color = blue];
	Obj7 [label="LeftPar\nObj7\n21", color = blue];
	Obj8 [label="comma\nObj8\n22", color = blue];
	Obj9 [label="d\nObj9\n23", color = blue];
	
	/* EDGES (OBJECT RELATIONSHIPS)    */
	Obj45 -> Obj36 [label="HORIZONTAL\n(_)\n",color=red,fontcolor=red,penwidth=3];
	Obj36 -> Obj7 [label="UNDER\n(_)\n",color=red,fontcolor=red,penwidth=3];
	Obj41 -> Obj24 [label="HORIZONTAL"];
	Obj11 -> Obj8 [label="PUNC"];
	Obj35 -> Obj17 [label="HORIZONTAL"];
	Obj16 -> Obj6 [label="HORIZONTAL"];
	Obj13 -> Obj20 [label="RSUP"];
	Obj34 -> Obj9 [label="HORIZONTAL"];
	Obj12 -> Obj18 [label="HORIZONTAL"];
	Obj37 -> Obj25 [label="HORIZONTAL"];
	Obj14 -> Obj10 [label="HORIZONTAL"];
	Obj13 -> Obj31 [label="HORIZONTAL"];
	Obj7 -> Obj38 [label="HORIZONTAL"];
	Obj31 -> Obj14 [label="RSUB"];
	Obj3 -> Obj1 [label="HORIZONTAL"];
	Obj5 -> Obj32 [label="HORIZONTAL"];
	Obj19 -> Obj34 [label="HORIZONTAL"];
	Obj11 -> Obj15 [label="HORIZONTAL"];
	Obj22 -> Obj37 [label="HORIZONTAL"];
	Obj27 -> Obj4 [label="HORIZONTAL"];
	Obj45 -> Obj23 [label="RSUB"];
	Obj26 -> Obj12 [label="HORIZONTAL"];
	Obj43 -> Obj30 [label="HORIZONTAL"];
	Obj6 -> Obj42 [label="HORIZONTAL"];
	Obj33 -> Obj27 [label="HORIZONTAL"];
	Obj44 -> Obj22 [label="UNDER"];
	Obj4 -> Obj44 [label="HORIZONTAL"];
	Obj31 -> Obj43 [label="HORIZONTAL"];
	Obj15 -> Obj3 [label="HORIZONTAL"];
	Obj21 -> Obj29 [label="HORIZONTAL"];
	Obj24 -> Obj2 [label="HORIZONTAL"];
	Obj44 -> Obj16 [label="HORIZONTAL"];
	Obj2 -> Obj33 [label="HORIZONTAL"];
	Obj38 -> Obj41 [label="HORIZONTAL"];
	Obj23 -> Obj40 [label="HORIZONTAL"];
	Obj10 -> Obj11 [label="HORIZONTAL"];
	Obj29 -> Obj35 [label="HORIZONTAL"];
	Obj43 -> Obj5 [label="RSUB"];
	Obj9 -> Obj28 [label="HORIZONTAL"];
	Obj42 -> Obj26 [label="HORIZONTAL"];
	Obj18 -> Obj13 [label="HORIZONTAL"];
	Obj30 -> Obj19 [label="HORIZONTAL"];
	Obj20 -> Obj0 [label="HORIZONTAL"];
	Obj36 -> Obj21 [label="HORIZONTAL"];
	Obj15 -> Obj39 [label="PUNC"];
	
}
