digraph dag {
	rankdir=LR; ranksep=1.0;
	edge[fontsize=13,weight=1]; node[fontsize=13,shape=box]; graph[ordering=out];

	/* NODES (OBJECTS) */
	Obj0 [label="two\nObj0\n11", color = blue];
	Obj1 [label="fractionalLine\nObj1\n10 9", color = blue];
	Obj10 [label="lambda\nObj10\n7", color = blue];
	Obj11 [label="comma\nObj11\n8", color = blue];
	Obj2 [label="zero\nObj2\n13", color = blue];
	Obj3 [label="one\nObj3\n12", color = blue];
	Obj4 [label="greater\nObj4\n1", color = blue];
	Obj5 [label="k\nObj5\n0", color = blue];
	Obj6 [label="RightPar\nObj6\n3", color = blue];
	Obj7 [label="lambda\nObj7\n2", color = blue];
	Obj8 [label="equal\nObj8\n5 6", color = blue];
	Obj9 [label="LeftPar\nObj9\n4", color = blue];
	
	/* EDGES (OBJECT RELATIONSHIPS)    */
	Obj0 -> Obj7 [label="HORIZONTAL\n(_)\n",color=red,fontcolor=red,penwidth=3];
	Obj1 -> Obj0 [label="UNDER"];
	Obj5 -> Obj8 [label="HORIZONTAL"];
	Obj10 -> Obj11 [label="PUNC"];
	Obj8 -> Obj10 [label="HORIZONTAL"];
	Obj10 -> Obj1 [label="RSUP"];
	Obj2 -> Obj6 [label="HORIZONTAL"];
	Obj9 -> Obj5 [label="HORIZONTAL"];
	Obj1 -> Obj3 [label="UPPER"];
	Obj7 -> Obj4 [label="HORIZONTAL"];
	Obj4 -> Obj2 [label="HORIZONTAL"];
	
}
