digraph dag {
	rankdir=LR; ranksep=1.0;
	edge[fontsize=13,weight=1]; node[fontsize=13,shape=box]; graph[ordering=out];

	/* NODES (OBJECTS) */
	Obj0 [label="B\nObj0\n11", color = blue];
	Obj1 [label="ldots\nObj1\n10 8 9", color = blue];
	Obj10 [label="p\nObj10\n1", color = blue];
	Obj11 [label="m\nObj11\n0", color = blue];
	Obj12 [label="cap\nObj12\n3", color = blue];
	Obj13 [label="r\nObj13\n2", color = blue];
	Obj14 [label="one\nObj14\n5", color = blue];
	Obj15 [label="comma\nObj15\n4", color = blue];
	Obj16 [label="p\nObj16\n7", color = blue];
	Obj17 [label="x\nObj17\n6", color = blue];
	Obj2 [label="in\nObj2\n13", color = blue];
	Obj3 [label="BigLeftPar\nObj3\n12", color = blue];
	Obj4 [label="ni\nObj4\n15", color = blue];
	Obj5 [label="u\nObj5\n14", color = blue];
	Obj6 [label="comma\nObj6\n17", color = blue];
	Obj7 [label="u\nObj7\n16", color = blue];
	Obj8 [label="comma\nObj8\n19", color = blue];
	Obj9 [label="BigRightPar\nObj9\n18", color = blue];
	
	/* EDGES (OBJECT RELATIONSHIPS)    */
	Obj14 -> Obj8 [label="HORIZONTAL\n(_)\n",color=red,fontcolor=red,penwidth=3];
	Obj0 -> Obj3 [label="HORIZONTAL"];
	Obj5 -> Obj14 [label="RSUB"];
	Obj8 -> Obj1 [label="HORIZONTAL"];
	Obj5 -> Obj7 [label="HORIZONTAL"];
	Obj10 -> Obj16 [label="HORIZONTAL"];
	Obj17 -> Obj2 [label="HORIZONTAL"];
	Obj7 -> Obj9 [label="HORIZONTAL"];
	Obj2 -> Obj0 [label="HORIZONTAL"];
	Obj11 -> Obj4 [label="HORIZONTAL"];
	Obj10 -> Obj6 [label="PUNC"];
	Obj4 -> Obj10 [label="HORIZONTAL"];
	Obj9 -> Obj12 [label="HORIZONTAL"];
	Obj16 -> Obj17 [label="HORIZONTAL"];
	Obj7 -> Obj13 [label="RSUB"];
	Obj3 -> Obj5 [label="HORIZONTAL"];
	Obj1 -> Obj15 [label="HORIZONTAL"];
	
}
