digraph dag {
	rankdir=LR; ranksep=1.0;
	edge[fontsize=13,weight=1]; node[fontsize=13,shape=box]; graph[ordering=out];

	/* NODES (OBJECTS) */
	Obj0 [label="n\nObj0\n1", color = blue];
	Obj1 [label="RightPar\nObj1\n0", color = blue];
	Obj2 [label="X\nObj2\n3", color = blue];
	Obj3 [label="c\nObj3\n2", color = blue];
	Obj4 [label="i\nObj4\n5 6", color = blue];
	Obj5 [label="one\nObj5\n4", color = blue];
	Obj6 [label="LeftPar\nObj6\n7", color = blue];
	Obj7 [label="two\nObj7\n9", color = blue];
	Obj8 [label="m\nObj8\n8", color = blue];
	
	/* EDGES (OBJECT RELATIONSHIPS)    */
	Obj7 -> Obj6 [label="RSUB\n(_)\n",color=red,fontcolor=red,penwidth=3];
	Obj6 -> Obj2 [label="HORIZONTAL"];
	Obj3 -> Obj7 [label="RSUP"];
	Obj2 -> Obj1 [label="HORIZONTAL"];
	Obj2 -> Obj8 [label="RSUB"];
	Obj8 -> Obj4 [label="HORIZONTAL"];
	Obj4 -> Obj0 [label="HORIZONTAL"];
	Obj3 -> Obj5 [label="RSUB"];
	
}
