digraph dag {
	rankdir=LR; ranksep=1.0;
	edge[fontsize=13,weight=1]; node[fontsize=13,shape=box]; graph[ordering=out];

	/* NODES (OBJECTS) */
	Obj0 [label="y\nObj0\n24", color = blue];
	Obj1 [label="comma\nObj1\n25", color = blue];
	Obj10 [label="RightPar\nObj10\n0", color = blue];
	Obj11 [label="k\nObj11\n3", color = blue];
	Obj12 [label="b\nObj12\n2", color = blue];
	Obj13 [label="a\nObj13\n5", color = blue];
	Obj14 [label="x\nObj14\n4", color = blue];
	Obj15 [label="LeftPar\nObj15\n7", color = blue];
	Obj16 [label="int\nObj16\n6", color = blue];
	Obj17 [label="infty\nObj17\n9", color = blue];
	Obj18 [label="lambda\nObj18\n8", color = blue];
	Obj19 [label="less\nObj19\n39", color = blue];
	Obj2 [label="vert\nObj2\n26", color = blue];
	Obj20 [label="k\nObj20\n38", color = blue];
	Obj21 [label="LeftPar\nObj21\n11", color = blue];
	Obj22 [label="lambda\nObj22\n10", color = blue];
	Obj23 [label="comma\nObj23\n13", color = blue];
	Obj24 [label="s\nObj24\n12", color = blue];
	Obj25 [label="s\nObj25\n15", color = blue];
	Obj26 [label="d\nObj26\n14", color = blue];
	Obj27 [label="plus\nObj27\n17", color = blue];
	Obj28 [label="vert\nObj28\n16", color = blue];
	Obj29 [label="j\nObj29\n33 34", color = blue];
	Obj3 [label="j\nObj3\n27 28", color = blue];
	Obj30 [label="RightPar\nObj30\n32", color = blue];
	Obj31 [label="y\nObj31\n31", color = blue];
	Obj32 [label="RightPar\nObj32\n30", color = blue];
	Obj33 [label="sum\nObj33\n37", color = blue];
	Obj34 [label="lambda\nObj34\n36", color = blue];
	Obj35 [label="two\nObj35\n35", color = blue];
	Obj36 [label="int\nObj36\n19", color = blue];
	Obj37 [label="comma\nObj37\n18", color = blue];
	Obj4 [label="Delta\nObj4\n20", color = blue];
	Obj5 [label="j\nObj5\n21 22", color = blue];
	Obj6 [label="k\nObj6\n23", color = blue];
	Obj7 [label="LeftPar\nObj7\n29", color = blue];
	Obj8 [label="d\nObj8\n40", color = blue];
	Obj9 [label="rho\nObj9\n1", color = blue];
	
	/* EDGES (OBJECT RELATIONSHIPS)    */
	Obj9 -> Obj29 [label="RSUB\n(HORIZONTAL)\n",color=red,fontcolor=red,penwidth=3];
	Obj30 -> Obj12 [label="UNDER\n(_)\n",color=red,fontcolor=red,penwidth=3];
	Obj8 -> Obj9 [label="HORIZONTAL\n(RSUB)\n",color=red,fontcolor=red,penwidth=3];
	Obj12 -> Obj36 [label="RSUP\n(_)\n",color=red,fontcolor=red,penwidth=3];
	Obj7 -> Obj14 [label="HORIZONTAL"];
	Obj14 -> Obj18 [label="HORIZONTAL"];
	Obj36 -> Obj13 [label="RSUB"];
	Obj0 -> Obj28 [label="HORIZONTAL"];
	Obj14 -> Obj1 [label="PUNC"];
	Obj5 -> Obj23 [label="PUNC"];
	Obj2 -> Obj19 [label="HORIZONTAL"];
	Obj25 -> Obj15 [label="HORIZONTAL"];
	Obj22 -> Obj30 [label="HORIZONTAL"];
	Obj30 -> Obj2 [label="HORIZONTAL"];
	Obj2 -> Obj35 [label="RSUP"];
	Obj28 -> Obj16 [label="HORIZONTAL"];
	Obj27 -> Obj17 [label="HORIZONTAL"];
	Obj10 -> Obj25 [label="HORIZONTAL"];
	Obj24 -> Obj3 [label="RSUB"];
	Obj15 -> Obj31 [label="HORIZONTAL"];
	Obj5 -> Obj20 [label="HORIZONTAL"];
	Obj21 -> Obj22 [label="HORIZONTAL"];
	Obj16 -> Obj4 [label="RSUB"];
	Obj24 -> Obj7 [label="HORIZONTAL"];
	Obj32 -> Obj8 [label="HORIZONTAL"];
	Obj16 -> Obj33 [label="HORIZONTAL"];
	Obj26 -> Obj0 [label="HORIZONTAL"];
	Obj25 -> Obj6 [label="RSUB"];
	Obj31 -> Obj37 [label="PUNC"];
	Obj36 -> Obj26 [label="HORIZONTAL"];
	Obj31 -> Obj34 [label="HORIZONTAL"];
	Obj33 -> Obj5 [label="UNDER"];
	Obj19 -> Obj27 [label="HORIZONTAL"];
	Obj34 -> Obj32 [label="HORIZONTAL"];
	Obj33 -> Obj24 [label="HORIZONTAL"];
	Obj29 -> Obj11 [label="HORIZONTAL"];
	Obj18 -> Obj10 [label="HORIZONTAL"];
	
}
