digraph dag {
	rankdir=LR; ranksep=1.0;
	edge[fontsize=13,weight=1]; node[fontsize=13,shape=box]; graph[ordering=out];

	/* NODES (OBJECTS) */
	Obj0 [label="lambda\nObj0\n11", color = blue];
	Obj1 [label="RightPar\nObj1\n10", color = blue];
	Obj10 [label="cdot\nObj10\n9", color = blue];
	Obj11 [label="RightPar\nObj11\n8", color = blue];
	Obj2 [label="LeftPar\nObj2\n12", color = blue];
	Obj3 [label="d\nObj3\n1", color = blue];
	Obj4 [label="rho\nObj4\n0", color = blue];
	Obj5 [label="lambda\nObj5\n3", color = blue];
	Obj6 [label="k\nObj6\n2", color = blue];
	Obj7 [label="comma\nObj7\n5", color = blue];
	Obj8 [label="RightPar\nObj8\n4", color = blue];
	Obj9 [label="j\nObj9\n6 7", color = blue];
	
	/* EDGES (OBJECT RELATIONSHIPS)    */
	Obj5 -> Obj10 [label="RSUP\n(HORIZONTAL)\n",color=red,fontcolor=red,penwidth=3];
	Obj10 -> Obj3 [label="HORIZONTAL\n(_)\n",color=red,fontcolor=red,penwidth=3];
	Obj3 -> Obj4 [label="HORIZONTAL\n(RSUB)\n",color=red,fontcolor=red,penwidth=3];
	Obj5 -> Obj1 [label="HORIZONTAL\n(_)\n",color=red,fontcolor=red,penwidth=3];
	Obj4 -> Obj9 [label="RSUB\n(HORIZONTAL)\n",color=red,fontcolor=red,penwidth=3];
	Obj4 -> Obj2 [label="HORIZONTAL\n(_)\n",color=red,fontcolor=red,penwidth=3];
	Obj11 -> Obj8 [label="HORIZONTAL"];
	Obj7 -> Obj5 [label="HORIZONTAL"];
	Obj0 -> Obj11 [label="HORIZONTAL"];
	Obj2 -> Obj0 [label="HORIZONTAL"];
	Obj9 -> Obj6 [label="HORIZONTAL"];
	
}
