digraph dag {
	rankdir=LR; ranksep=1.0;
	edge[fontsize=13,weight=1]; node[fontsize=13,shape=box]; graph[ordering=out];

	/* NODES (OBJECTS) */
	Obj0 [label="f\nObj0\n11", color = blue];
	Obj1 [label="LeftPar\nObj1\n10", color = blue];
	Obj10 [label="RightPar\nObj10\n8", color = blue];
	Obj2 [label="leftarrow\nObj2\n12", color = blue];
	Obj3 [label="a\nObj3\n1", color = blue];
	Obj4 [label="alpha\nObj4\n0", color = blue];
	Obj5 [label="equal\nObj5\n2 3", color = blue];
	Obj6 [label="phi\nObj6\n4 5", color = blue];
	Obj7 [label="LeftPar\nObj7\n7", color = blue];
	Obj8 [label="psi\nObj8\n6", color = blue];
	Obj9 [label="RightPar\nObj9\n9", color = blue];
	
	/* EDGES (OBJECT RELATIONSHIPS)    */
	Obj0 -> Obj2 [label="RSUP\n(_)\n",color=red,fontcolor=red,penwidth=3];
	Obj6 -> Obj1 [label="HORIZONTAL"];
	Obj10 -> Obj5 [label="HORIZONTAL"];
	Obj8 -> Obj7 [label="HORIZONTAL"];
	Obj7 -> Obj3 [label="HORIZONTAL"];
	Obj1 -> Obj4 [label="HORIZONTAL"];
	Obj3 -> Obj10 [label="HORIZONTAL"];
	Obj0 -> Obj6 [label="HORIZONTAL"];
	Obj5 -> Obj0 [label="HORIZONTAL"];
	Obj4 -> Obj9 [label="HORIZONTAL"];
	
}
