digraph dag {
	rankdir=LR; ranksep=1.0;
	edge[fontsize=13,weight=1]; node[fontsize=13,shape=box]; graph[ordering=out];

	/* NODES (OBJECTS) */
	Obj0 [label="n\nObj0\n11", color = blue];
	Obj1 [label="s\nObj1\n10", color = blue];
	Obj10 [label="one\nObj10\n8", color = blue];
	Obj2 [label="p\nObj2\n13", color = blue];
	Obj3 [label="p\nObj3\n12", color = blue];
	Obj4 [label="cdots\nObj4\n1 2 3", color = blue];
	Obj5 [label="s\nObj5\n0", color = blue];
	Obj6 [label="one\nObj6\n5", color = blue];
	Obj7 [label="a\nObj7\n4", color = blue];
	Obj8 [label="equal\nObj8\n6 7", color = blue];
	Obj9 [label="a\nObj9\n9", color = blue];
	
	/* EDGES (OBJECT RELATIONSHIPS)    */
	Obj7 -> Obj6 [label="HORIZONTAL\n(RSUB)\n",color=red,fontcolor=red,penwidth=3];
	Obj3 -> Obj7 [label="RSUP"];
	Obj8 -> Obj3 [label="HORIZONTAL"];
	Obj2 -> Obj9 [label="RSUP"];
	Obj2 -> Obj1 [label="RSUB"];
	Obj0 -> Obj8 [label="HORIZONTAL"];
	Obj3 -> Obj10 [label="RSUB"];
	Obj3 -> Obj4 [label="HORIZONTAL"];
	Obj9 -> Obj5 [label="RSUB"];
	Obj4 -> Obj2 [label="HORIZONTAL"];
	
}
