digraph dag {
	rankdir=LR; ranksep=1.0;
	edge[fontsize=13,weight=1]; node[fontsize=13,shape=box]; graph[ordering=out];

	/* NODES (OBJECTS) */
	Obj0 [label="two\nObj0\n10", color = blue];
	Obj1 [label="c\nObj1\n1", color = blue];
	Obj2 [label="LeftPar\nObj2\n0", color = blue];
	Obj3 [label="one\nObj3\n3", color = blue];
	Obj4 [label="c\nObj4\n2", color = blue];
	Obj5 [label="ldots\nObj5\n4 5 6", color = blue];
	Obj6 [label="comma\nObj6\n7", color = blue];
	Obj7 [label="RightPar\nObj7\n9", color = blue];
	Obj8 [label="comma\nObj8\n8", color = blue];
	
	/* EDGES (OBJECT RELATIONSHIPS)    */
	Obj0 -> Obj6 [label="HORIZONTAL\n(_)\n",color=red,fontcolor=red,penwidth=3];
	Obj1 -> Obj0 [label="RSUB"];
	Obj4 -> Obj8 [label="PUNC"];
	Obj6 -> Obj5 [label="HORIZONTAL"];
	Obj1 -> Obj7 [label="HORIZONTAL"];
	Obj4 -> Obj1 [label="HORIZONTAL"];
	Obj4 -> Obj3 [label="RSUB"];
	Obj2 -> Obj4 [label="HORIZONTAL"];
	
}
