digraph dag {
	rankdir=LR; ranksep=1.0;
	edge[fontsize=13,weight=1]; node[fontsize=13,shape=box]; graph[ordering=out];

	/* NODES (OBJECTS) */
	Obj0 [label="geq\nObj0\n11 12", color = blue];
	Obj1 [label="one\nObj1\n10", color = blue];
	Obj10 [label="c\nObj10\n8", color = blue];
	Obj2 [label="comma\nObj2\n13", color = blue];
	Obj3 [label="ldots\nObj3\n1 2 3", color = blue];
	Obj4 [label="n\nObj4\n0", color = blue];
	Obj5 [label="zero\nObj5\n5", color = blue];
	Obj6 [label="c\nObj6\n4", color = blue];
	Obj7 [label="minus\nObj7\n7", color = blue];
	Obj8 [label="comma\nObj8\n6", color = blue];
	Obj9 [label="one\nObj9\n9", color = blue];
	
	/* EDGES (OBJECT RELATIONSHIPS)    */
	Obj9 -> Obj2 [label="PUNC\n(_)\n",color=red,fontcolor=red,penwidth=3];
	Obj2 -> Obj3 [label="HORIZONTAL"];
	Obj3 -> Obj8 [label="HORIZONTAL"];
	Obj6 -> Obj0 [label="HORIZONTAL"];
	Obj4 -> Obj7 [label="HORIZONTAL"];
	Obj7 -> Obj1 [label="HORIZONTAL"];
	Obj0 -> Obj5 [label="HORIZONTAL"];
	Obj10 -> Obj6 [label="HORIZONTAL"];
	Obj6 -> Obj4 [label="RSUB"];
	Obj10 -> Obj9 [label="RSUB"];
	
}
