digraph dag {
	rankdir=LR; ranksep=1.0;
	edge[fontsize=13,weight=1]; node[fontsize=13,shape=box]; graph[ordering=out];

	/* NODES (OBJECTS) */
	Obj0 [label="T\nObj0\n0 1", color = blue];
	Obj1 [label="RightPar\nObj1\n3", color = blue];
	Obj2 [label="RightPar\nObj2\n2", color = blue];
	Obj3 [label="i\nObj3\n4 5", color = blue];
	Obj4 [label="B\nObj4\n7", color = blue];
	Obj5 [label="LeftPar\nObj5\n6", color = blue];
	
	/* EDGES (OBJECT RELATIONSHIPS)    */
	Obj0 -> Obj5 [label="HORIZONTAL\n(RSUP)\n",color=red,fontcolor=red,penwidth=3];
	Obj4 -> Obj2 [label="HORIZONTAL\n(_)\n",color=red,fontcolor=red,penwidth=3];
	Obj3 -> Obj1 [label="HORIZONTAL"];
	Obj5 -> Obj3 [label="HORIZONTAL"];
	Obj0 -> Obj4 [label="RSUB"];
	
}
