digraph dag {
	rankdir=LR; ranksep=1.0;
	edge[fontsize=13,weight=1]; node[fontsize=13,shape=box]; graph[ordering=out];

	/* NODES (OBJECTS) */
	Obj0 [label="N\nObj0\n1", color = blue];
	Obj1 [label="N\nObj1\n0", color = blue];
	Obj2 [label="equal\nObj2\n2 3", color = blue];
	Obj3 [label="I\nObj3\n4", color = blue];
	
	/* EDGES (OBJECT RELATIONSHIPS)    */
	Obj0 -> Obj3 [label="LSUP\n(_)\n",color=red,fontcolor=red,penwidth=3];
	Obj1 -> Obj2 [label="HORIZONTAL"];
	Obj2 -> Obj0 [label="HORIZONTAL"];
	
}
