digraph dag {
	rankdir=LR; ranksep=1.0;
	edge[fontsize=13,weight=1]; node[fontsize=13,shape=box]; graph[ordering=out];

	/* NODES (OBJECTS) */
	Obj0 [label="fractionalLine\nObj0\n23 24", color = blue];
	Obj1 [label="x\nObj1\n25", color = blue];
	Obj10 [label="minus\nObj10\n3", color = blue];
	Obj11 [label="pi\nObj11\n2", color = blue];
	Obj12 [label="p\nObj12\n5", color = blue];
	Obj13 [label="two\nObj13\n4", color = blue];
	Obj14 [label="p\nObj14\n7", color = blue];
	Obj15 [label="prime\nObj15\n6", color = blue];
	Obj16 [label="LeftPar\nObj16\n9", color = blue];
	Obj17 [label="LeftPar\nObj17\n8", color = blue];
	Obj18 [label="one\nObj18\n11", color = blue];
	Obj19 [label="k\nObj19\n10", color = blue];
	Obj2 [label="RightPar\nObj2\n26", color = blue];
	Obj20 [label="RightPar\nObj20\n13", color = blue];
	Obj21 [label="MiddleLeftPar\nObj21\n12", color = blue];
	Obj22 [label="comma\nObj22\n15", color = blue];
	Obj23 [label="plus\nObj23\n14", color = blue];
	Obj24 [label="x\nObj24\n17", color = blue];
	Obj25 [label="plus\nObj25\n16", color = blue];
	Obj26 [label="six\nObj26\n19", color = blue];
	Obj27 [label="B\nObj27\n32", color = blue];
	Obj28 [label="S\nObj28\n31", color = blue];
	Obj29 [label="RightPar\nObj29\n30", color = blue];
	Obj3 [label="sum\nObj3\n27", color = blue];
	Obj30 [label="LeftPar\nObj30\n34", color = blue];
	Obj31 [label="k\nObj31\n33", color = blue];
	Obj32 [label="one\nObj32\n18", color = blue];
	Obj4 [label="fractionalLine\nObj4\n20", color = blue];
	Obj5 [label="zero\nObj5\n21", color = blue];
	Obj6 [label="one\nObj6\n22", color = blue];
	Obj7 [label="equal\nObj7\n28 29", color = blue];
	Obj8 [label="p\nObj8\n1", color = blue];
	Obj9 [label="two\nObj9\n0", color = blue];
	
	/* EDGES (OBJECT RELATIONSHIPS)    */
	Obj23 -> Obj21 [label="HORIZONTAL\n(_)\n",color=red,fontcolor=red,penwidth=3];
	Obj21 -> Obj5 [label="RSUP\n(_)\n",color=red,fontcolor=red,penwidth=3];
	Obj6 -> Obj2 [label="HORIZONTAL"];
	Obj28 -> Obj20 [label="HORIZONTAL"];
	Obj11 -> Obj13 [label="RSUP"];
	Obj0 -> Obj32 [label="UPPER"];
	Obj4 -> Obj11 [label="UNDER"];
	Obj16 -> Obj3 [label="HORIZONTAL"];
	Obj12 -> Obj9 [label="RSUP"];
	Obj8 -> Obj25 [label="HORIZONTAL"];
	Obj9 -> Obj19 [label="HORIZONTAL"];
	Obj1 -> Obj22 [label="PUNC"];
	Obj7 -> Obj4 [label="HORIZONTAL"];
	Obj4 -> Obj26 [label="UPPER"];
	Obj27 -> Obj17 [label="HORIZONTAL"];
	Obj19 -> Obj10 [label="HORIZONTAL"];
	Obj25 -> Obj6 [label="HORIZONTAL"];
	Obj26 -> Obj24 [label="HORIZONTAL"];
	Obj0 -> Obj12 [label="UNDER"];
	Obj17 -> Obj1 [label="HORIZONTAL"];
	Obj29 -> Obj23 [label="HORIZONTAL"];
	Obj3 -> Obj0 [label="HORIZONTAL"];
	Obj20 -> Obj7 [label="HORIZONTAL"];
	Obj3 -> Obj14 [label="UNDER"];
	Obj4 -> Obj16 [label="HORIZONTAL"];
	Obj10 -> Obj18 [label="HORIZONTAL"];
	Obj12 -> Obj30 [label="HORIZONTAL"];
	Obj0 -> Obj29 [label="HORIZONTAL"];
	Obj27 -> Obj15 [label="RSUP"];
	Obj28 -> Obj31 [label="RSUB"];
	Obj1 -> Obj28 [label="HORIZONTAL"];
	Obj30 -> Obj8 [label="HORIZONTAL"];
	
}
