digraph dag {
	rankdir=LR; ranksep=1.0;
	edge[fontsize=13,weight=1]; node[fontsize=13,shape=box]; graph[ordering=out];

	/* NODES (OBJECTS) */
	Obj0 [label="ldots\nObj0\n10 11 12", color = blue];
	Obj1 [label="comma\nObj1\n13", color = blue];
	Obj10 [label="p\nObj10\n6", color = blue];
	Obj11 [label="BigLeftPar\nObj11\n9", color = blue];
	Obj12 [label="u\nObj12\n8", color = blue];
	Obj2 [label="one\nObj2\n14", color = blue];
	Obj3 [label="r\nObj3\n1", color = blue];
	Obj4 [label="in\nObj4\n0", color = blue];
	Obj5 [label="B\nObj5\n3", color = blue];
	Obj6 [label="x\nObj6\n2", color = blue];
	Obj7 [label="comma\nObj7\n5", color = blue];
	Obj8 [label="u\nObj8\n4", color = blue];
	Obj9 [label="BigRightPar\nObj9\n7", color = blue];
	
	/* EDGES (OBJECT RELATIONSHIPS)    */
	Obj12 -> Obj7 [label="UPPER\n(_)\n",color=red,fontcolor=red,penwidth=3];
	Obj11 -> Obj8 [label="HORIZONTAL"];
	Obj4 -> Obj5 [label="HORIZONTAL"];
	Obj8 -> Obj12 [label="HORIZONTAL"];
	Obj7 -> Obj0 [label="HORIZONTAL"];
	Obj8 -> Obj2 [label="RSUB"];
	Obj10 -> Obj6 [label="HORIZONTAL"];
	Obj6 -> Obj4 [label="HORIZONTAL"];
	Obj5 -> Obj11 [label="HORIZONTAL"];
	Obj12 -> Obj9 [label="HORIZONTAL"];
	Obj0 -> Obj1 [label="HORIZONTAL"];
	Obj12 -> Obj3 [label="RSUB"];
	
}
