digraph dag {
	rankdir=LR; ranksep=1.0;
	edge[fontsize=13,weight=1]; node[fontsize=13,shape=box]; graph[ordering=out];

	/* NODES (OBJECTS) */
	Obj0 [label="m\nObj0\n24", color = blue];
	Obj1 [label="equal\nObj1\n20 21", color = blue];
	Obj10 [label="RightPar\nObj10\n7", color = blue];
	Obj11 [label="u\nObj11\n6", color = blue];
	Obj12 [label="minus\nObj12\n9", color = blue];
	Obj13 [label="c\nObj13\n8", color = blue];
	Obj14 [label="comma\nObj14\n11", color = blue];
	Obj15 [label="x\nObj15\n10", color = blue];
	Obj16 [label="LeftPar\nObj16\n13", color = blue];
	Obj17 [label="one\nObj17\n12", color = blue];
	Obj18 [label="m\nObj18\n15", color = blue];
	Obj19 [label="minus\nObj19\n14", color = blue];
	Obj2 [label="LeftPar\nObj2\n22", color = blue];
	Obj20 [label="x\nObj20\n17", color = blue];
	Obj21 [label="fractionalLine\nObj21\n16", color = blue];
	Obj22 [label="RightPar\nObj22\n19", color = blue];
	Obj23 [label="k\nObj23\n18", color = blue];
	Obj3 [label="RightPar\nObj3\n23", color = blue];
	Obj4 [label="pi\nObj4\n1", color = blue];
	Obj5 [label="m\nObj5\n0", color = blue];
	Obj6 [label="two\nObj6\n3", color = blue];
	Obj7 [label="LeftPar\nObj7\n2", color = blue];
	Obj8 [label="two\nObj8\n5", color = blue];
	Obj9 [label="u\nObj9\n4", color = blue];
	
	/* EDGES (OBJECT RELATIONSHIPS)    */
	Obj8 -> Obj11 [label="HORIZONTAL\n(_)\n",color=red,fontcolor=red,penwidth=3];
	Obj6 -> Obj4 [label="HORIZONTAL\n(RSUB)\n",color=red,fontcolor=red,penwidth=3];
	Obj4 -> Obj3 [label="HORIZONTAL\n(_)\n",color=red,fontcolor=red,penwidth=3];
	Obj12 -> Obj13 [label="HORIZONTAL"];
	Obj11 -> Obj2 [label="HORIZONTAL"];
	Obj20 -> Obj23 [label="HORIZONTAL"];
	Obj3 -> Obj19 [label="RSUP"];
	Obj15 -> Obj22 [label="HORIZONTAL"];
	Obj2 -> Obj20 [label="HORIZONTAL"];
	Obj19 -> Obj21 [label="HORIZONTAL"];
	Obj21 -> Obj8 [label="UNDER"];
	Obj13 -> Obj7 [label="HORIZONTAL"];
	Obj21 -> Obj17 [label="UPPER"];
	Obj23 -> Obj10 [label="HORIZONTAL"];
	Obj9 -> Obj16 [label="HORIZONTAL"];
	Obj22 -> Obj1 [label="HORIZONTAL"];
	Obj23 -> Obj18 [label="RSUB"];
	Obj16 -> Obj15 [label="HORIZONTAL"];
	Obj1 -> Obj12 [label="HORIZONTAL"];
	Obj7 -> Obj6 [label="HORIZONTAL"];
	Obj9 -> Obj0 [label="RSUB"];
	Obj13 -> Obj5 [label="RSUB"];
	Obj20 -> Obj14 [label="PUNC"];
	
}
